# Blender v2.72 (sub 0) OBJ File: ''
# www.blender.org
mtllib icocircle4.mtl
o Icosphere
v 0.082916 -0.000000 0.255195
v 0.097723 -0.000000 0.247392
v 0.080381 -0.000000 0.247392
v -0.217082 -0.000000 0.157718
v -0.205086 -0.000000 0.169388
v -0.210445 -0.000000 0.152895
v -0.217082 0.000000 -0.157718
v -0.224474 0.000000 -0.142702
v -0.210445 0.000000 -0.152895
v 0.082916 0.000000 -0.255195
v 0.066352 0.000000 -0.257585
v 0.080381 0.000000 -0.247392
v 0.094411 -0.000000 0.257586
v 0.075023 -0.000000 0.263885
v 0.066327 -0.000000 0.272181
v 0.086538 -0.000000 0.266339
v 0.056829 -0.000000 0.279848
v 0.077795 -0.000000 0.274597
v 0.046565 -0.000000 0.286627
v 0.068183 -0.000000 0.282099
v 0.035609 -0.000000 0.292254
v 0.057740 -0.000000 0.288564
v 0.024083 -0.000000 0.296482
v 0.046550 -0.000000 0.293716
v 0.012148 -0.000000 0.299109
v 0.034749 -0.000000 0.297308
v 0.000000 -0.000000 0.300000
v 0.022517 -0.000000 0.299154
v 0.106323 -0.000000 0.259186
v 0.098464 -0.000000 0.267881
v 0.118513 -0.000000 0.259806
v 0.089666 -0.000000 0.275965
v 0.110651 -0.000000 0.268301
v 0.130802 -0.000000 0.259256
v 0.079924 -0.000000 0.283153
v 0.101772 -0.000000 0.276054
v 0.122900 -0.000000 0.267392
v 0.142973 -0.000000 0.257369
v 0.069284 -0.000000 0.289149
v 0.091876 -0.000000 0.282765
v 0.113904 -0.000000 0.274651
v 0.134982 -0.000000 0.264983
v 0.154784 -0.000000 0.254015
v 0.057843 -0.000000 0.293672
v 0.081015 -0.000000 0.288133
v 0.103818 -0.000000 0.280724
v 0.125820 -0.000000 0.271585
v 0.146641 -0.000000 0.260952
v 0.165983 -0.000000 0.249125
v 0.045753 -0.000000 0.296491
v 0.069301 -0.000000 0.291886
v 0.092705 -0.000000 0.285317
v 0.115501 -0.000000 0.276875
v 0.137258 -0.000000 0.266759
v 0.157621 -0.000000 0.255256
v 0.176336 -0.000000 0.242705
v -0.227787 -0.000000 0.152895
v -0.215804 -0.000000 0.169388
v -0.238364 -0.000000 0.147189
v -0.226562 -0.000000 0.164605
v -0.248590 -0.000000 0.140525
v -0.237117 -0.000000 0.158843
v -0.258209 -0.000000 0.132857
v -0.247223 -0.000000 0.152019
v -0.266946 -0.000000 0.124177
v -0.256599 -0.000000 0.144084
v -0.274530 -0.000000 0.114521
v -0.264956 -0.000000 0.135034
v -0.280716 -0.000000 0.103982
v -0.272019 -0.000000 0.124920
v -0.285317 -0.000000 0.092704
v -0.277554 -0.000000 0.113858
v -0.213645 -0.000000 0.181212
v -0.224343 -0.000000 0.176425
v -0.210468 -0.000000 0.192997
v -0.234750 -0.000000 0.170555
v -0.220976 -0.000000 0.188144
v -0.206148 -0.000000 0.204515
v -0.244597 -0.000000 0.163511
v -0.231094 -0.000000 0.182096
v -0.216327 -0.000000 0.199514
v -0.200592 -0.000000 0.215507
v -0.253587 -0.000000 0.155245
v -0.240535 -0.000000 0.174758
v -0.226010 -0.000000 0.193201
v -0.210302 -0.000000 0.210259
v -0.193752 -0.000000 0.225703
v -0.261425 -0.000000 0.145761
v -0.248996 -0.000000 0.166087
v -0.234903 -0.000000 0.185484
v -0.219413 -0.000000 0.203586
v -0.202866 -0.000000 0.220102
v -0.185640 -0.000000 0.234843
v -0.267841 -0.000000 0.135133
v -0.256186 -0.000000 0.156106
v -0.242706 -0.000000 0.176335
v -0.227632 -0.000000 0.195406
v -0.211288 -0.000000 0.212973
v -0.194055 -0.000000 0.228785
v -0.176336 -0.000000 0.242705
v -0.215804 0.000000 -0.169388
v -0.227787 0.000000 -0.152895
v -0.213645 0.000000 -0.181212
v -0.226562 0.000000 -0.164605
v -0.210468 0.000000 -0.192997
v -0.224343 0.000000 -0.176425
v -0.206148 0.000000 -0.204515
v -0.220976 0.000000 -0.188144
v -0.200592 0.000000 -0.215507
v -0.216327 0.000000 -0.199514
v -0.193752 0.000000 -0.225703
v -0.210302 0.000000 -0.210259
v -0.185640 0.000000 -0.234843
v -0.202866 0.000000 -0.220102
v -0.176336 0.000000 -0.242705
v -0.194055 0.000000 -0.228785
v -0.238364 0.000000 -0.147189
v -0.237117 0.000000 -0.158843
v -0.248590 0.000000 -0.140525
v -0.234750 0.000000 -0.170555
v -0.247223 0.000000 -0.152019
v -0.258209 0.000000 -0.132857
v -0.231094 0.000000 -0.182096
v -0.244597 0.000000 -0.163511
v -0.256599 0.000000 -0.144084
v -0.266946 0.000000 -0.124177
v -0.226010 0.000000 -0.193201
v -0.240535 0.000000 -0.174758
v -0.253587 0.000000 -0.155245
v -0.264956 0.000000 -0.135034
v -0.274530 0.000000 -0.114521
v -0.219413 0.000000 -0.203586
v -0.234903 0.000000 -0.185484
v -0.248996 0.000000 -0.166087
v -0.261425 0.000000 -0.145761
v -0.272019 0.000000 -0.124920
v -0.280716 0.000000 -0.103982
v -0.211288 0.000000 -0.212973
v -0.227632 0.000000 -0.195406
v -0.242706 0.000000 -0.176335
v -0.256186 0.000000 -0.156106
v -0.267841 0.000000 -0.135133
v -0.277554 0.000000 -0.113858
v -0.285317 0.000000 -0.092704
v 0.094411 0.000000 -0.257586
v 0.075023 0.000000 -0.263885
v 0.106323 0.000000 -0.259186
v 0.086538 0.000000 -0.266339
v 0.118513 0.000000 -0.259806
v 0.098464 0.000000 -0.267881
v 0.130802 0.000000 -0.259256
v 0.110651 0.000000 -0.268301
v 0.142973 0.000000 -0.257369
v 0.122900 0.000000 -0.267392
v 0.154784 0.000000 -0.254015
v 0.134982 0.000000 -0.264983
v 0.165983 0.000000 -0.249125
v 0.146641 0.000000 -0.260952
v 0.176336 0.000000 -0.242705
v 0.157621 0.000000 -0.255256
v 0.066327 0.000000 -0.272181
v 0.077795 0.000000 -0.274597
v 0.056829 0.000000 -0.279848
v 0.089666 0.000000 -0.275965
v 0.068183 0.000000 -0.282099
v 0.046565 0.000000 -0.286627
v 0.101772 0.000000 -0.276054
v 0.079924 0.000000 -0.283153
v 0.057740 0.000000 -0.288564
v 0.035609 0.000000 -0.292254
v 0.113904 0.000000 -0.274651
v 0.091876 0.000000 -0.282765
v 0.069285 0.000000 -0.289149
v 0.046550 0.000000 -0.293716
v 0.024083 0.000000 -0.296482
v 0.125820 0.000000 -0.271585
v 0.103818 0.000000 -0.280724
v 0.081015 0.000000 -0.288133
v 0.057843 0.000000 -0.293672
v 0.034749 0.000000 -0.297308
v 0.012148 0.000000 -0.299109
v 0.137258 0.000000 -0.266759
v 0.115501 0.000000 -0.276875
v 0.092705 0.000000 -0.285317
v 0.069301 0.000000 -0.291886
v 0.045753 0.000000 -0.296491
v 0.022517 0.000000 -0.299154
v 0.000000 0.000000 -0.300000
v 0.110009 -0.000000 0.249285
v 0.122664 -0.000000 0.250299
v 0.135511 -0.000000 0.250238
v 0.148331 -0.000000 0.248916
v 0.160866 -0.000000 0.246176
v 0.172842 -0.000000 0.241916
v 0.183985 -0.000000 0.236101
v 0.113155 -0.000000 0.238158
v 0.126195 -0.000000 0.239433
v 0.129050 -0.000000 0.227376
v 0.139525 -0.000000 0.239739
v 0.142766 -0.000000 0.227911
v 0.145191 -0.000000 0.214969
v 0.152930 -0.000000 0.238885
v 0.156662 -0.000000 0.227399
v 0.159462 -0.000000 0.214658
v 0.161313 -0.000000 0.200924
v 0.166146 -0.000000 0.236695
v 0.170479 -0.000000 0.225657
v 0.173768 -0.000000 0.213236
v 0.175972 -0.000000 0.199684
v 0.177110 -0.000000 0.185300
v 0.178879 -0.000000 0.233036
v 0.183913 -0.000000 0.222531
v 0.187808 -0.000000 0.210542
v 0.190490 -0.000000 0.197298
v 0.191955 -0.000000 0.183090
v 0.192261 -0.000000 0.168248
v 0.190826 -0.000000 0.227839
v 0.196640 -0.000000 0.217924
v 0.201246 -0.000000 0.206457
v 0.204531 -0.000000 0.193635
v 0.206457 -0.000000 0.179731
v 0.207063 -0.000000 0.165072
v 0.206457 -0.000000 0.149999
v 0.194055 -0.000000 0.228785
v 0.201707 -0.000000 0.221118
v 0.208341 -0.000000 0.211811
v 0.213737 -0.000000 0.200925
v 0.217736 -0.000000 0.188618
v 0.220257 -0.000000 0.175136
v 0.221308 -0.000000 0.160789
v 0.220980 -0.000000 0.145918
v 0.219426 -0.000000 0.130859
v 0.211288 -0.000000 0.212973
v 0.218740 -0.000000 0.204256
v 0.224965 -0.000000 0.193973
v 0.229757 -0.000000 0.182243
v 0.232989 -0.000000 0.169276
v 0.234628 -0.000000 0.155356
v 0.234734 -0.000000 0.140812
v 0.233447 -0.000000 0.125981
v 0.230962 -0.000000 0.111180
v 0.227632 -0.000000 0.195406
v 0.234675 -0.000000 0.185713
v 0.240297 -0.000000 0.174585
v 0.244323 -0.000000 0.162194
v 0.246671 -0.000000 0.148792
v 0.247362 -0.000000 0.134684
v 0.246507 -0.000000 0.120198
v 0.244290 -0.000000 0.105653
v 0.240939 1.091896 0.091328
v 0.242706 -0.000000 0.176335
v 0.249143 -0.000000 0.165800
v 0.253998 -0.000000 0.154012
v 0.257140 -0.000000 0.141186
v 0.258541 -0.000000 0.127597
v 0.258274 -0.000000 0.113555
v 0.256498 1.091896 0.099369
v 0.253429 1.091896 0.085324
v 0.256186 -0.000000 0.156106
v 0.261854 -0.000000 0.144914
v 0.265826 -0.000000 0.132689
v 0.268023 -0.000000 0.119672
v 0.268472 -0.000000 0.106145
v 0.267293 1.091896 0.092403
v 0.267841 -0.000000 0.135133
v 0.272627 -0.000000 0.123504
v 0.275657 -0.000000 0.111080
v 0.276907 1.091896 0.098111
v 0.276452 1.091896 0.084871
v 0.277554 -0.000000 0.113858
v 0.281401 1.091896 0.102020
v 0.283487 1.091896 0.089626
v 0.285317 1.050470 0.092704
v -0.203090 -0.000000 0.181658
v -0.200144 -0.000000 0.194007
v -0.196116 -0.000000 0.206206
v -0.190897 -0.000000 0.217990
v -0.184418 -0.000000 0.229065
v -0.176665 -0.000000 0.239138
v -0.167692 -0.000000 0.247939
v -0.191536 -0.000000 0.181211
v -0.188718 -0.000000 0.194007
v -0.176369 -0.000000 0.192996
v -0.184891 -0.000000 0.206780
v -0.172640 -0.000000 0.206206
v -0.159582 -0.000000 0.204514
v -0.179936 -0.000000 0.219264
v -0.167859 -0.000000 0.219264
v -0.154877 -0.000000 0.217989
v -0.141242 -0.000000 0.215506
v -0.173769 -0.000000 0.231156
v -0.161932 -0.000000 0.231866
v -0.149104 -0.000000 0.231156
v -0.135534 -0.000000 0.229064
v -0.121503 -0.000000 0.225701
v -0.166354 -0.000000 0.242135
v -0.154808 -0.000000 0.243677
v -0.142203 -0.000000 0.243677
v -0.128778 -0.000000 0.242135
v -0.114813 -0.000000 0.239137
v -0.100603 -0.000000 0.234842
v -0.157720 -0.000000 0.251892
v -0.146494 -0.000000 0.254357
v -0.134165 -0.000000 0.255195
v -0.120955 -0.000000 0.254357
v -0.107137 -0.000000 0.251892
v -0.093009 -0.000000 0.247938
v -0.078861 -0.000000 0.242704
v -0.157621 -0.000000 0.255256
v -0.147965 -0.000000 0.260163
v -0.137064 -0.000000 0.263596
v -0.125044 -0.000000 0.265365
v -0.112104 -0.000000 0.265365
v -0.098503 -0.000000 0.263596
v -0.084533 -0.000000 0.260162
v -0.070491 -0.000000 0.255255
v -0.056650 -0.000000 0.249123
v -0.137258 -0.000000 0.266759
v -0.126665 -0.000000 0.271152
v -0.114962 -0.000000 0.273894
v -0.102326 -0.000000 0.274827
v -0.088995 -0.000000 0.273894
v -0.075250 -0.000000 0.271151
v -0.061385 -0.000000 0.266758
v -0.047678 -0.000000 0.260951
v -0.034369 -0.000000 0.254013
v -0.115501 -0.000000 0.276875
v -0.104106 -0.000000 0.280577
v -0.091786 -0.000000 0.282485
v -0.078757 -0.000000 0.282485
v -0.065285 -0.000000 0.280577
v -0.051655 -0.000000 0.276874
v -0.038142 -0.000000 0.271584
v -0.024994 -0.000000 0.264982
v -0.012406 -0.000000 0.257368
v -0.092705 -0.000000 0.285317
v -0.080696 -0.000000 0.288183
v -0.067986 -0.000000 0.289158
v -0.054816 -0.000000 0.288183
v -0.041460 -0.000000 0.285317
v -0.028187 -0.000000 0.280723
v -0.015245 -0.000000 0.274650
v -0.002836 -0.000000 0.267391
v 0.008892 -0.000000 0.259255
v -0.069301 -0.000000 0.291886
v -0.056906 -0.000000 0.293818
v -0.044052 -0.000000 0.293818
v -0.030993 -0.000000 0.291886
v -0.017989 -0.000000 0.288133
v -0.005284 -0.000000 0.282765
v 0.006918 -0.000000 0.276053
v 0.018461 -0.000000 0.268300
v 0.029243 -0.000000 0.259805
v -0.045753 -0.000000 0.296491
v -0.033214 -0.000000 0.297448
v -0.020462 -0.000000 0.296491
v -0.007742 -0.000000 0.293672
v 0.004710 -0.000000 0.289148
v 0.016689 -0.000000 0.283152
v 0.028035 -0.000000 0.275965
v 0.038639 -0.000000 0.267881
v 0.048440 -0.000000 0.259185
v -0.022517 -0.000000 0.299154
v -0.010070 -0.000000 0.299154
v 0.002362 -0.000000 0.297308
v 0.014554 -0.000000 0.293716
v 0.026306 -0.000000 0.288564
v 0.037454 -0.000000 0.282099
v 0.047883 -0.000000 0.274597
v 0.057525 -0.000000 0.266338
v 0.066352 -0.000000 0.257585
v -0.235527 0.000000 -0.137012
v -0.246361 0.000000 -0.130394
v -0.256718 0.000000 -0.122793
v -0.266312 0.000000 -0.114189
v -0.274843 0.000000 -0.104605
v -0.282027 0.000000 -0.094119
v -0.287624 0.000000 -0.082865
v -0.231531 0.000000 -0.126162
v -0.242830 0.000000 -0.119528
v -0.238053 0.000000 -0.108096
v -0.253795 0.000000 -0.111941
v -0.249463 0.000000 -0.100467
v -0.243819 0.000000 -0.088571
v -0.264137 0.000000 -0.103371
v -0.260405 0.000000 -0.091885
v -0.255181 0.000000 -0.079932
v -0.248605 0.000000 -0.067733
v -0.273541 0.000000 -0.093831
v -0.270558 0.000000 -0.082354
v -0.265919 0.000000 -0.070373
v -0.259736 0.000000 -0.058114
v -0.252202 0.000000 -0.045808
v -0.281691 0.000000 -0.083386
v -0.279590 0.000000 -0.071929
v -0.275694 0.000000 -0.059941
v -0.270079 0.000000 -0.047649
v -0.262912 0.000000 -0.035295
v -0.254436 0.000000 -0.023107
v -0.288302 0.000000 -0.072160
v -0.287177 0.000000 -0.060722
v -0.284164 0.000000 -0.048737
v -0.279285 0.000000 -0.036433
v -0.272671 0.000000 -0.024053
v -0.264545 0.000000 -0.011838
v -0.255194 0.000000 0.000000
v -0.291471 0.000000 -0.071027
v -0.293154 0.000000 -0.060327
v -0.293051 0.000000 -0.048899
v -0.291018 0.000000 -0.036920
v -0.287019 0.000000 -0.024613
v -0.281134 0.000000 -0.012225
v -0.273551 0.000000 0.000000
v -0.264545 -0.000000 0.011838
v -0.254436 -0.000000 0.023107
v -0.296118 0.000000 -0.048107
v -0.297023 0.000000 -0.036674
v -0.296015 0.000000 -0.024697
v -0.292997 0.000000 -0.012390
v -0.287990 0.000000 0.000000
v -0.281134 -0.000000 0.012225
v -0.272671 -0.000000 0.024053
v -0.262912 -0.000000 0.035294
v -0.252202 -0.000000 0.045808
v -0.299015 0.000000 -0.024289
v -0.299015 0.000000 -0.012307
v -0.297023 0.000000 0.000000
v -0.292997 -0.000000 0.012390
v -0.287019 -0.000000 0.024614
v -0.279285 -0.000000 0.036433
v -0.270079 -0.000000 0.047649
v -0.259736 -0.000000 0.058114
v -0.248605 -0.000000 0.067733
v -0.300000 0.000000 -0.000000
v -0.299015 -0.000000 0.012307
v -0.296014 -0.000000 0.024697
v -0.291018 -0.000000 0.036920
v -0.284164 -0.000000 0.048737
v -0.275694 -0.000000 0.059941
v -0.265919 -0.000000 0.070373
v -0.255181 -0.000000 0.079932
v -0.243819 -0.000000 0.088571
v -0.299015 -0.000000 0.024289
v -0.297023 -0.000000 0.036674
v -0.293050 -0.000000 0.048899
v -0.287177 -0.000000 0.060722
v -0.279589 -0.000000 0.071929
v -0.270558 -0.000000 0.082354
v -0.260405 -0.000000 0.091885
v -0.249463 -0.000000 0.100467
v -0.238053 -0.000000 0.108096
v -0.296118 -0.000000 0.048107
v -0.293154 -0.000000 0.060328
v -0.288302 -0.000000 0.072160
v -0.281691 -0.000000 0.083386
v -0.273541 -0.000000 0.093831
v -0.264137 -0.000000 0.103371
v -0.253795 -0.000000 0.111941
v -0.242830 -0.000000 0.119528
v -0.231531 -0.000000 0.126162
v -0.291471 -0.000000 0.071028
v -0.287624 -0.000000 0.082866
v -0.282027 -0.000000 0.094119
v -0.274843 -0.000000 0.104605
v -0.266312 -0.000000 0.114189
v -0.256718 -0.000000 0.122794
v -0.246360 -0.000000 0.130394
v -0.235527 -0.000000 0.137012
v -0.224474 -0.000000 0.142702
v 0.057525 0.000000 -0.266338
v 0.047883 0.000000 -0.274597
v 0.037454 0.000000 -0.282099
v 0.026306 0.000000 -0.288564
v 0.014554 0.000000 -0.293716
v 0.002362 0.000000 -0.297308
v -0.010070 0.000000 -0.299154
v 0.048440 0.000000 -0.259185
v 0.038639 0.000000 -0.267881
v 0.029243 0.000000 -0.259805
v 0.028035 0.000000 -0.275964
v 0.018461 0.000000 -0.268300
v 0.008892 0.000000 -0.259255
v 0.016689 0.000000 -0.283152
v 0.006918 0.000000 -0.276053
v -0.002836 0.000000 -0.267391
v -0.012406 0.000000 -0.257368
v 0.004710 0.000000 -0.289148
v -0.005284 0.000000 -0.282765
v -0.015245 0.000000 -0.274650
v -0.024994 0.000000 -0.264982
v -0.034369 0.000000 -0.254013
v -0.007742 0.000000 -0.293672
v -0.017989 0.000000 -0.288133
v -0.028187 0.000000 -0.280723
v -0.038142 0.000000 -0.271584
v -0.047678 0.000000 -0.260951
v -0.056650 0.000000 -0.249123
v -0.020462 0.000000 -0.296491
v -0.030993 0.000000 -0.291886
v -0.041460 0.000000 -0.285317
v -0.051654 0.000000 -0.276874
v -0.061385 0.000000 -0.266758
v -0.070491 0.000000 -0.255255
v -0.078861 0.000000 -0.242703
v -0.022517 0.000000 -0.299154
v -0.033214 0.000000 -0.297448
v -0.044052 0.000000 -0.293818
v -0.054816 0.000000 -0.288183
v -0.065285 0.000000 -0.280577
v -0.075249 0.000000 -0.271151
v -0.084533 0.000000 -0.260162
v -0.093009 0.000000 -0.247938
v -0.100603 0.000000 -0.234842
v -0.045753 0.000000 -0.296491
v -0.056905 0.000000 -0.293818
v -0.067985 0.000000 -0.289158
v -0.078757 0.000000 -0.282485
v -0.088994 0.000000 -0.273894
v -0.098502 0.000000 -0.263596
v -0.107137 0.000000 -0.251892
v -0.114813 0.000000 -0.239137
v -0.121503 0.000000 -0.225701
v -0.069300 0.000000 -0.291886
v -0.080696 0.000000 -0.288184
v -0.091785 0.000000 -0.282485
v -0.102325 0.000000 -0.274827
v -0.112103 0.000000 -0.265365
v -0.120955 0.000000 -0.254357
v -0.128777 0.000000 -0.242135
v -0.135534 0.000000 -0.229064
v -0.141242 0.000000 -0.215506
v -0.092705 0.000000 -0.285317
v -0.104105 0.000000 -0.280577
v -0.114962 0.000000 -0.273895
v -0.125043 0.000000 -0.265365
v -0.134165 0.000000 -0.255195
v -0.142203 0.000000 -0.243677
v -0.149104 0.000000 -0.231156
v -0.154877 0.000000 -0.217989
v -0.159582 0.000000 -0.204514
v -0.115501 0.000000 -0.276875
v -0.126665 0.000000 -0.271152
v -0.137064 0.000000 -0.263597
v -0.146493 0.000000 -0.254357
v -0.154808 0.000000 -0.243677
v -0.161932 0.000000 -0.231866
v -0.167859 0.000000 -0.219264
v -0.172640 0.000000 -0.206206
v -0.176369 0.000000 -0.192996
v -0.137258 0.000000 -0.266759
v -0.147965 0.000000 -0.260163
v -0.157720 0.000000 -0.251893
v -0.166354 0.000000 -0.242136
v -0.173769 0.000000 -0.231156
v -0.179936 0.000000 -0.219264
v -0.184891 0.000000 -0.206780
v -0.188718 0.000000 -0.194007
v -0.191536 0.000000 -0.181211
v -0.157621 0.000000 -0.255256
v -0.167691 0.000000 -0.247939
v -0.176665 0.000000 -0.239138
v -0.184418 0.000000 -0.229065
v -0.190897 0.000000 -0.217990
v -0.196115 0.000000 -0.206207
v -0.200144 0.000000 -0.194007
v -0.203090 0.000000 -0.181658
v -0.205086 0.000000 -0.169388
v 0.256498 1.091896 -0.099369
v 0.244290 0.000000 -0.105653
v 0.253429 1.091896 -0.085324
v 0.240939 1.091896 -0.091328
v 0.230962 0.000000 -0.111180
v 0.276907 1.091896 -0.098111
v 0.268472 0.000000 -0.106145
v 0.276452 1.091896 -0.084871
v 0.267293 1.091896 -0.092403
v 0.258274 0.000000 -0.113554
v 0.246507 0.000000 -0.120198
v 0.233447 0.000000 -0.125981
v 0.219426 0.000000 -0.130859
v 0.281401 1.091896 -0.102020
v 0.275657 0.000000 -0.111079
v 0.283487 1.091896 -0.089625
v 0.268023 0.000000 -0.119672
v 0.258541 0.000000 -0.127597
v 0.247362 0.000000 -0.134683
v 0.234734 0.000000 -0.140811
v 0.220980 0.000000 -0.145918
v 0.206457 0.000000 -0.149999
v 0.285317 1.050470 -0.092704
v 0.277554 0.000000 -0.113858
v 0.272627 0.000000 -0.123504
v 0.265826 0.000000 -0.132689
v 0.257140 0.000000 -0.141185
v 0.246671 0.000000 -0.148792
v 0.234628 0.000000 -0.155355
v 0.221308 0.000000 -0.160789
v 0.207063 0.000000 -0.165072
v 0.192261 0.000000 -0.168248
v 0.267842 0.000000 -0.135133
v 0.261854 0.000000 -0.144914
v 0.253998 0.000000 -0.154012
v 0.244323 0.000000 -0.162194
v 0.232989 0.000000 -0.169275
v 0.220257 0.000000 -0.175136
v 0.206457 0.000000 -0.179731
v 0.191955 0.000000 -0.183090
v 0.177110 0.000000 -0.185300
v 0.256186 0.000000 -0.156105
v 0.249143 0.000000 -0.165799
v 0.240297 0.000000 -0.174585
v 0.229757 0.000000 -0.182243
v 0.217736 0.000000 -0.188618
v 0.204531 0.000000 -0.193634
v 0.190491 0.000000 -0.197298
v 0.175972 0.000000 -0.199684
v 0.161313 0.000000 -0.200924
v 0.242706 0.000000 -0.176335
v 0.234675 0.000000 -0.185712
v 0.224965 0.000000 -0.193973
v 0.213737 0.000000 -0.200925
v 0.201246 0.000000 -0.206457
v 0.187808 0.000000 -0.210542
v 0.173768 0.000000 -0.213236
v 0.159462 0.000000 -0.214658
v 0.145191 0.000000 -0.214969
v 0.227632 0.000000 -0.195406
v 0.218740 0.000000 -0.204255
v 0.208341 0.000000 -0.211811
v 0.196640 0.000000 -0.217924
v 0.183913 0.000000 -0.222531
v 0.170479 0.000000 -0.225656
v 0.156662 0.000000 -0.227399
v 0.142766 0.000000 -0.227911
v 0.129050 0.000000 -0.227376
v 0.211288 0.000000 -0.212973
v 0.201707 0.000000 -0.221118
v 0.190827 0.000000 -0.227839
v 0.178879 0.000000 -0.233035
v 0.166146 0.000000 -0.236695
v 0.152930 0.000000 -0.238885
v 0.139525 0.000000 -0.239739
v 0.126195 0.000000 -0.239433
v 0.113155 0.000000 -0.238158
v 0.194055 0.000000 -0.228785
v 0.183985 0.000000 -0.236101
v 0.172842 0.000000 -0.241916
v 0.160866 0.000000 -0.246176
v 0.148331 0.000000 -0.248916
v 0.135511 0.000000 -0.250238
v 0.122664 0.000000 -0.250299
v 0.110009 0.000000 -0.249285
v 0.097723 0.000000 -0.247392
v 0.005359 -0.000000 0.016493
v 0.017342 0.000000 0.000000
v 0.000000 0.000000 0.000000
v 0.011054 -0.000000 0.034022
v 0.023472 -0.000000 0.017053
v 0.017049 -0.000000 0.052471
v 0.029912 -0.000000 0.035164
v 0.023282 -0.000000 0.071656
v 0.036598 -0.000000 0.054186
v 0.029674 -0.000000 0.091328
v 0.043440 -0.000000 0.073905
v 0.036124 -0.000000 0.111179
v 0.050326 -0.000000 0.094030
v 0.042518 -0.000000 0.130859
v 0.057126 -0.000000 0.114216
v 0.048737 -0.000000 0.149999
v 0.063704 -0.000000 0.134079
v 0.054666 -0.000000 0.168247
v 0.069928 -0.000000 0.153234
v 0.060207 -0.000000 0.185300
v 0.075681 -0.000000 0.171324
v 0.065283 -0.000000 0.200923
v 0.080878 -0.000000 0.188061
v 0.069846 -0.000000 0.214969
v 0.085462 -0.000000 0.203239
v 0.073878 -0.000000 0.227376
v 0.089416 -0.000000 0.216748
v 0.077381 -0.000000 0.238158
v 0.092751 -0.000000 0.228566
v 0.095503 -0.000000 0.238746
v 0.035773 0.000000 0.000000
v 0.042686 -0.000000 0.017582
v 0.055172 0.000000 0.000000
v 0.049859 -0.000000 0.036225
v 0.062844 -0.000000 0.018062
v 0.075344 0.000000 0.000000
v 0.057196 -0.000000 0.055752
v 0.070699 -0.000000 0.037168
v 0.083712 1.091896 0.018476
v 0.096029 1.091896 0.000000
v 0.064573 -0.000000 0.075911
v 0.078602 -0.000000 0.057108
v 0.092150 1.091896 0.037955
v 0.071846 -0.000000 0.096373
v 0.086397 1.091896 0.077589
v 0.100490 1.091896 0.058192
v 0.078859 -0.000000 0.116758
v 0.093907 1.091896 0.098250
v 0.085456 -0.000000 0.136657
v 0.100956 -0.000000 0.118681
v 0.116101 1.091896 0.099564
v 0.091504 -0.000000 0.155677
v 0.107382 -0.000000 0.138461
v 0.122985 -0.000000 0.119881
v 0.137970 1.091896 0.100241
v 0.096897 -0.000000 0.173472
v 0.113061 -0.000000 0.157200
v 0.129041 -0.000000 0.139390
v 0.144484 -0.000000 0.120290
v 0.159050 1.091896 0.100241
v 0.101571 -0.000000 0.189778
v 0.117910 -0.000000 0.174577
v 0.134163 -0.000000 0.157718
v 0.149978 -0.000000 0.139390
v 0.165002 -0.000000 0.119881
v 0.178914 1.091896 0.099564
v 0.105503 -0.000000 0.204427
v 0.121898 -0.000000 0.190361
v 0.138306 -0.000000 0.174577
v 0.154384 -0.000000 0.157201
v 0.169777 -0.000000 0.138461
v 0.184148 -0.000000 0.118681
v 0.197214 1.091896 0.098251
v 0.108710 -0.000000 0.217351
v 0.125044 -0.000000 0.204427
v 0.141480 -0.000000 0.189778
v 0.157697 -0.000000 0.173473
v 0.173349 -0.000000 0.155678
v 0.188093 -0.000000 0.136658
v 0.201626 -0.000000 0.116758
v 0.213714 1.091896 0.096374
v 0.111238 -0.000000 0.228566
v 0.127400 -0.000000 0.216748
v 0.143744 -0.000000 0.203239
v 0.159974 -0.000000 0.188062
v 0.175761 -0.000000 0.171325
v 0.190769 -0.000000 0.153235
v 0.204685 -0.000000 0.134080
v 0.217253 -0.000000 0.114217
v 0.228292 1.091896 0.094031
v -0.014030 -0.000000 0.010193
v -0.028941 -0.000000 0.021027
v -0.008965 -0.000000 0.027592
v -0.044635 -0.000000 0.032429
v -0.024200 -0.000000 0.039314
v -0.060954 -0.000000 0.044285
v -0.040225 -0.000000 0.051551
v -0.077689 -0.000000 0.056443
v -0.056864 -0.000000 0.064151
v -0.094575 -0.000000 0.068712
v -0.073877 -0.000000 0.076919
v -0.111315 -0.000000 0.080874
v -0.090973 -0.000000 0.089625
v -0.127597 -0.000000 0.092703
v -0.107832 -0.000000 0.102019
v -0.143120 -0.000000 0.103982
v -0.124125 -0.000000 0.113857
v -0.157626 -0.000000 0.114521
v -0.139552 -0.000000 0.124919
v -0.170916 -0.000000 0.124176
v -0.153864 -0.000000 0.135033
v -0.182864 -0.000000 0.132857
v -0.166882 -0.000000 0.144084
v -0.193418 -0.000000 0.140525
v -0.178508 -0.000000 0.152018
v -0.202590 -0.000000 0.147188
v -0.188718 -0.000000 0.158842
v -0.197549 -0.000000 0.164605
v -0.003531 -0.000000 0.046030
v -0.019045 -0.000000 0.058613
v 0.002241 -0.000000 0.065349
v -0.035349 -0.000000 0.071625
v -0.013503 -0.000000 0.078723
v 0.008296 -0.000000 0.085323
v -0.052241 -0.000000 0.084870
v -0.030024 -0.000000 0.092402
v -0.007622 -0.000000 0.099368
v 0.014554 -0.000000 0.105653
v -0.069455 -0.000000 0.098110
v -0.047094 -0.000000 0.106144
v -0.024291 -0.000000 0.113554
v -0.001479 -0.000000 0.120197
v 0.020917 -0.000000 0.125981
v -0.086675 -0.000000 0.111079
v -0.064423 -0.000000 0.119671
v -0.041459 -0.000000 0.127596
v -0.018223 -0.000000 0.134683
v 0.004829 -0.000000 0.140811
v 0.027271 -0.000000 0.145917
v -0.103562 -0.000000 0.123503
v -0.081675 -0.000000 0.132688
v -0.058815 -0.000000 0.141185
v -0.035406 -0.000000 0.148791
v -0.011917 -0.000000 0.155355
v 0.011188 -0.000000 0.160788
v 0.033494 -0.000000 0.165072
v -0.119782 -0.000000 0.135132
v -0.098502 -0.000000 0.144913
v -0.076010 -0.000000 0.154011
v -0.052701 -0.000000 0.162193
v -0.029034 -0.000000 0.169274
v -0.005490 -0.000000 0.175135
v 0.017475 -0.000000 0.179730
v 0.039473 -0.000000 0.183089
v -0.135039 -0.000000 0.145760
v -0.114569 -0.000000 0.156104
v -0.092693 -0.000000 0.165798
v -0.069755 -0.000000 0.174584
v -0.046187 -0.000000 0.182241
v -0.022466 -0.000000 0.188617
v 0.000931 -0.000000 0.193633
v 0.023571 -0.000000 0.197297
v 0.045106 -0.000000 0.199683
v -0.149103 -0.000000 0.155244
v -0.129597 -0.000000 0.166086
v -0.108541 -0.000000 0.176334
v -0.086223 -0.000000 0.185711
v -0.063026 -0.000000 0.193971
v -0.039405 -0.000000 0.200924
v -0.015837 -0.000000 0.206455
v 0.007221 -0.000000 0.210541
v 0.029374 -0.000000 0.213235
v 0.050318 -0.000000 0.214658
v -0.161820 -0.000000 0.163510
v -0.143376 -0.000000 0.174757
v -0.123294 -0.000000 0.185483
v -0.101800 -0.000000 0.195405
v -0.079221 -0.000000 0.204254
v -0.055968 -0.000000 0.211809
v -0.032500 -0.000000 0.217922
v -0.009279 -0.000000 0.222530
v 0.013272 -0.000000 0.225655
v 0.034804 -0.000000 0.227398
v 0.055060 -0.000000 0.227911
v -0.173120 -0.000000 0.170554
v -0.155782 -0.000000 0.182095
v -0.136771 -0.000000 0.193200
v -0.116252 -0.000000 0.203585
v -0.094491 -0.000000 0.212971
v -0.071846 -0.000000 0.221116
v -0.048739 -0.000000 0.227837
v -0.025617 -0.000000 0.233034
v -0.002913 -0.000000 0.236693
v 0.018995 -0.000000 0.238884
v 0.039805 -0.000000 0.239739
v 0.059308 -0.000000 0.239432
v -0.183005 -0.000000 0.176424
v -0.166771 -0.000000 0.188143
v -0.148873 -0.000000 0.199513
v -0.129423 -0.000000 0.210258
v -0.108627 -0.000000 0.220100
v -0.086785 -0.000000 0.228783
v -0.064268 -0.000000 0.236100
v -0.041493 -0.000000 0.241914
v -0.018884 -0.000000 0.246175
v 0.003168 -0.000000 0.248915
v 0.024330 -0.000000 0.250237
v 0.044352 -0.000000 0.250298
v 0.063065 -0.000000 0.249285
v -0.014030 0.000000 -0.010193
v -0.028941 0.000000 -0.021027
v -0.029013 0.000000 0.000000
v -0.044635 0.000000 -0.032429
v -0.044868 0.000000 -0.010866
v -0.060954 0.000000 -0.044285
v -0.061459 0.000000 -0.022326
v -0.077689 0.000000 -0.056443
v -0.078584 0.000000 -0.034256
v -0.094575 0.000000 -0.068712
v -0.095984 0.000000 -0.046491
v -0.111315 0.000000 -0.080874
v -0.113351 0.000000 -0.058824
v -0.127597 0.000000 -0.092703
v -0.130349 0.000000 -0.071027
v -0.143120 0.000000 -0.103982
v -0.146642 0.000000 -0.082865
v -0.157626 0.000000 -0.114521
v -0.161931 0.000000 -0.094118
v -0.170916 0.000000 -0.124176
v -0.175972 0.000000 -0.104604
v -0.182864 0.000000 -0.132857
v -0.188602 0.000000 -0.114188
v -0.193418 0.000000 -0.140525
v -0.199742 0.000000 -0.122793
v -0.202590 0.000000 -0.147188
v -0.209386 0.000000 -0.130394
v -0.217596 0.000000 -0.137012
v -0.044868 -0.000000 0.010866
v -0.061629 0.000000 0.000000
v -0.061459 -0.000000 0.022326
v -0.079043 0.000000 -0.011486
v -0.079043 -0.000000 0.011486
v -0.078584 -0.000000 0.034256
v -0.096861 0.000000 -0.023457
v -0.097158 0.000000 0.000000
v -0.096861 -0.000000 0.023457
v -0.095984 -0.000000 0.046491
v -0.114772 0.000000 -0.035737
v -0.115503 0.000000 -0.011988
v -0.115503 -0.000000 0.011988
v -0.114772 -0.000000 0.035737
v -0.113351 -0.000000 0.058824
v -0.132427 0.000000 -0.048106
v -0.133723 0.000000 -0.024288
v -0.134163 0.000000 0.000000
v -0.133723 -0.000000 0.024288
v -0.132427 -0.000000 0.048106
v -0.130349 -0.000000 0.071027
v -0.149461 0.000000 -0.060327
v -0.151434 0.000000 -0.036674
v -0.152450 0.000000 -0.012307
v -0.152450 -0.000000 0.012307
v -0.151434 -0.000000 0.036674
v -0.149461 -0.000000 0.060327
v -0.146642 -0.000000 0.082865
v -0.165534 0.000000 -0.072160
v -0.168260 0.000000 -0.048899
v -0.169962 0.000000 -0.024697
v -0.170541 0.000000 0.000000
v -0.169962 -0.000000 0.024697
v -0.168260 -0.000000 0.048899
v -0.165534 -0.000000 0.072160
v -0.161931 -0.000000 0.094118
v -0.180356 0.000000 -0.083386
v -0.183869 0.000000 -0.060721
v -0.186328 0.000000 -0.036920
v -0.187595 0.000000 -0.012390
v -0.187595 -0.000000 0.012390
v -0.186328 -0.000000 0.036920
v -0.183869 -0.000000 0.060721
v -0.180356 -0.000000 0.083386
v -0.175972 -0.000000 0.104604
v -0.193722 0.000000 -0.093830
v -0.198005 0.000000 -0.071929
v -0.201245 0.000000 -0.048737
v -0.203267 0.000000 -0.024613
v -0.203954 0.000000 0.000000
v -0.203267 -0.000000 0.024613
v -0.201245 -0.000000 0.048737
v -0.198005 -0.000000 0.071929
v -0.193722 -0.000000 0.093830
v -0.188602 -0.000000 0.114188
v -0.205514 0.000000 -0.103370
v -0.210510 0.000000 -0.082354
v -0.214506 0.000000 -0.059941
v -0.217300 0.000000 -0.036433
v -0.218738 0.000000 -0.012225
v -0.218738 -0.000000 0.012225
v -0.217300 -0.000000 0.036433
v -0.214506 -0.000000 0.059941
v -0.210510 -0.000000 0.082354
v -0.205514 -0.000000 0.103370
v -0.199742 -0.000000 0.122793
v -0.215705 0.000000 -0.111941
v -0.221323 0.000000 -0.091885
v -0.226009 0.000000 -0.070373
v -0.229545 0.000000 -0.047649
v -0.231748 0.000000 -0.024053
v -0.232496 0.000000 0.000000
v -0.231748 -0.000000 0.024053
v -0.229545 -0.000000 0.047649
v -0.226009 -0.000000 0.070373
v -0.221323 -0.000000 0.091885
v -0.215705 -0.000000 0.111941
v -0.209386 -0.000000 0.130394
v -0.224343 0.000000 -0.119528
v -0.230471 0.000000 -0.100467
v -0.235753 0.000000 -0.079932
v -0.239962 0.000000 -0.058113
v -0.242896 0.000000 -0.035294
v -0.244404 0.000000 -0.011838
v -0.244404 -0.000000 0.011838
v -0.242896 -0.000000 0.035294
v -0.239962 -0.000000 0.058113
v -0.235753 -0.000000 0.079932
v -0.230471 -0.000000 0.100467
v -0.224343 -0.000000 0.119528
v -0.217596 -0.000000 0.137012
v 0.005359 0.000000 -0.016493
v 0.011054 0.000000 -0.034022
v -0.008965 0.000000 -0.027592
v 0.017049 0.000000 -0.052471
v -0.003531 0.000000 -0.046030
v 0.023282 0.000000 -0.071656
v 0.002241 0.000000 -0.065349
v 0.029674 0.000000 -0.091328
v 0.008296 0.000000 -0.085323
v 0.036124 0.000000 -0.111179
v 0.014554 0.000000 -0.105653
v 0.042518 0.000000 -0.130859
v 0.020917 0.000000 -0.125981
v 0.048737 0.000000 -0.149999
v 0.027271 0.000000 -0.145917
v 0.054666 0.000000 -0.168247
v 0.033494 0.000000 -0.165072
v 0.060207 0.000000 -0.185300
v 0.039473 0.000000 -0.183089
v 0.065283 0.000000 -0.200923
v 0.045106 0.000000 -0.199683
v 0.069846 0.000000 -0.214969
v 0.050318 0.000000 -0.214658
v 0.073878 0.000000 -0.227376
v 0.055060 0.000000 -0.227911
v 0.077381 0.000000 -0.238158
v 0.059308 0.000000 -0.239432
v 0.063065 0.000000 -0.249285
v -0.024200 0.000000 -0.039314
v -0.019045 0.000000 -0.058613
v -0.040225 0.000000 -0.051551
v -0.013503 0.000000 -0.078723
v -0.035349 0.000000 -0.071625
v -0.056864 0.000000 -0.064151
v -0.007622 0.000000 -0.099368
v -0.030024 0.000000 -0.092402
v -0.052241 0.000000 -0.084870
v -0.073877 0.000000 -0.076919
v -0.001479 0.000000 -0.120197
v -0.024291 0.000000 -0.113554
v -0.047094 0.000000 -0.106144
v -0.069455 0.000000 -0.098110
v -0.090973 0.000000 -0.089625
v 0.004829 0.000000 -0.140811
v -0.018223 0.000000 -0.134683
v -0.041459 0.000000 -0.127596
v -0.064423 0.000000 -0.119671
v -0.086675 0.000000 -0.111079
v -0.107832 0.000000 -0.102019
v 0.011188 0.000000 -0.160788
v -0.011917 0.000000 -0.155355
v -0.035406 0.000000 -0.148791
v -0.058815 0.000000 -0.141185
v -0.081675 0.000000 -0.132688
v -0.103562 0.000000 -0.123503
v -0.124125 0.000000 -0.113857
v 0.017475 0.000000 -0.179730
v -0.005490 0.000000 -0.175135
v -0.029034 0.000000 -0.169274
v -0.052701 0.000000 -0.162193
v -0.076010 0.000000 -0.154011
v -0.098502 0.000000 -0.144913
v -0.119782 0.000000 -0.135132
v -0.139552 0.000000 -0.124919
v 0.023571 0.000000 -0.197297
v 0.000931 0.000000 -0.193633
v -0.022466 0.000000 -0.188617
v -0.046187 0.000000 -0.182241
v -0.069755 0.000000 -0.174584
v -0.092693 0.000000 -0.165798
v -0.114569 0.000000 -0.156104
v -0.135039 0.000000 -0.145760
v -0.153864 0.000000 -0.135033
v 0.029374 0.000000 -0.213235
v 0.007221 0.000000 -0.210541
v -0.015837 0.000000 -0.206455
v -0.039405 0.000000 -0.200924
v -0.063026 0.000000 -0.193971
v -0.086223 0.000000 -0.185711
v -0.108541 0.000000 -0.176334
v -0.129597 0.000000 -0.166086
v -0.149103 0.000000 -0.155244
v -0.166882 0.000000 -0.144084
v 0.034804 0.000000 -0.227398
v 0.013272 0.000000 -0.225655
v -0.009279 0.000000 -0.222530
v -0.032500 0.000000 -0.217922
v -0.055968 0.000000 -0.211809
v -0.079221 0.000000 -0.204254
v -0.101800 0.000000 -0.195405
v -0.123294 0.000000 -0.185483
v -0.143376 0.000000 -0.174757
v -0.161820 0.000000 -0.163510
v -0.178508 0.000000 -0.152019
v 0.039805 0.000000 -0.239739
v 0.018995 0.000000 -0.238884
v -0.002913 0.000000 -0.236693
v -0.025617 0.000000 -0.233034
v -0.048739 0.000000 -0.227837
v -0.071846 0.000000 -0.221116
v -0.094491 0.000000 -0.212971
v -0.116252 0.000000 -0.203584
v -0.136771 0.000000 -0.193199
v -0.155782 0.000000 -0.182095
v -0.173120 0.000000 -0.170554
v -0.188718 0.000000 -0.158842
v 0.044352 0.000000 -0.250298
v 0.024330 0.000000 -0.250237
v 0.003168 0.000000 -0.248915
v -0.018884 0.000000 -0.246175
v -0.041493 0.000000 -0.241914
v -0.064268 0.000000 -0.236100
v -0.086785 0.000000 -0.228783
v -0.108628 0.000000 -0.220100
v -0.129423 0.000000 -0.210258
v -0.148873 0.000000 -0.199513
v -0.166771 0.000000 -0.188143
v -0.183005 0.000000 -0.176424
v -0.197549 0.000000 -0.164605
v 0.023472 0.000000 -0.017053
v 0.042686 0.000000 -0.017582
v 0.062844 0.000000 -0.018062
v 0.083712 1.091896 -0.018476
v 0.029912 0.000000 -0.035164
v 0.049859 0.000000 -0.036225
v 0.036598 0.000000 -0.054186
v 0.070699 0.000000 -0.037168
v 0.057196 0.000000 -0.055752
v 0.043440 0.000000 -0.073905
v 0.092150 1.091896 -0.037955
v 0.078602 0.000000 -0.057108
v 0.064573 0.000000 -0.075911
v 0.050326 0.000000 -0.094030
v 0.100490 1.091896 -0.058192
v 0.086397 1.091896 -0.077589
v 0.071846 0.000000 -0.096373
v 0.057126 0.000000 -0.114216
v 0.093907 1.091896 -0.098250
v 0.078859 0.000000 -0.116758
v 0.063704 0.000000 -0.134079
v 0.116101 1.091896 -0.099564
v 0.100956 0.000000 -0.118681
v 0.085456 0.000000 -0.136657
v 0.069928 0.000000 -0.153234
v 0.137970 1.091896 -0.100241
v 0.122985 0.000000 -0.119881
v 0.107382 0.000000 -0.138461
v 0.091504 0.000000 -0.155677
v 0.075682 0.000000 -0.171324
v 0.159050 1.091896 -0.100241
v 0.144484 0.000000 -0.120290
v 0.129041 0.000000 -0.139390
v 0.113061 0.000000 -0.157201
v 0.096897 0.000000 -0.173472
v 0.080878 0.000000 -0.188061
v 0.178914 1.091896 -0.099564
v 0.165002 0.000000 -0.119881
v 0.149978 0.000000 -0.139390
v 0.134163 0.000000 -0.157718
v 0.117910 0.000000 -0.174577
v 0.101571 0.000000 -0.189778
v 0.085462 0.000000 -0.203239
v 0.197214 1.091896 -0.098251
v 0.184148 0.000000 -0.118681
v 0.169777 0.000000 -0.138461
v 0.154384 0.000000 -0.157201
v 0.138306 0.000000 -0.174577
v 0.121898 0.000000 -0.190361
v 0.105503 0.000000 -0.204427
v 0.089416 0.000000 -0.216748
v 0.213714 1.091896 -0.096374
v 0.201626 0.000000 -0.116758
v 0.188093 0.000000 -0.136658
v 0.173349 0.000000 -0.155678
v 0.157697 0.000000 -0.173473
v 0.141480 0.000000 -0.189778
v 0.125044 0.000000 -0.204427
v 0.108710 0.000000 -0.217351
v 0.092751 0.000000 -0.228566
v 0.228292 1.091896 -0.094031
v 0.217253 0.000000 -0.114217
v 0.204685 0.000000 -0.134080
v 0.190769 0.000000 -0.153235
v 0.175761 0.000000 -0.171325
v 0.159974 0.000000 -0.188062
v 0.143744 0.000000 -0.203239
v 0.127400 0.000000 -0.216748
v 0.111238 0.000000 -0.228566
v 0.095503 0.000000 -0.238746
usemtl None
s off
f 1 2 3
f 4 5 6
f 7 8 9
f 10 11 12
f 13 1 14
f 15 16 14
f 17 18 15
f 19 20 17
f 21 22 19
f 23 24 21
f 25 26 23
f 27 28 25
f 14 16 13
f 16 29 13
f 15 18 16
f 18 30 16
f 16 30 29
f 30 31 29
f 17 20 18
f 20 32 18
f 18 32 30
f 32 33 30
f 30 33 31
f 33 34 31
f 19 22 20
f 22 35 20
f 20 35 32
f 35 36 32
f 32 36 33
f 36 37 33
f 33 37 34
f 37 38 34
f 21 24 22
f 24 39 22
f 22 39 35
f 39 40 35
f 35 40 36
f 40 41 36
f 36 41 37
f 41 42 37
f 37 42 38
f 42 43 38
f 23 26 24
f 26 44 24
f 24 44 39
f 44 45 39
f 39 45 40
f 45 46 40
f 40 46 41
f 46 47 41
f 41 47 42
f 47 48 42
f 42 48 43
f 48 49 43
f 25 28 26
f 28 50 26
f 26 50 44
f 50 51 44
f 44 51 45
f 51 52 45
f 45 52 46
f 52 53 46
f 46 53 47
f 53 54 47
f 47 54 48
f 54 55 48
f 48 55 49
f 55 56 49
f 57 58 4
f 59 60 57
f 61 62 59
f 63 64 61
f 65 66 63
f 67 68 65
f 69 70 67
f 71 72 69
f 57 60 58
f 60 73 58
f 59 62 60
f 62 74 60
f 60 74 73
f 74 75 73
f 61 64 62
f 64 76 62
f 62 76 74
f 76 77 74
f 74 77 75
f 77 78 75
f 63 66 64
f 66 79 64
f 64 79 76
f 79 80 76
f 76 80 77
f 80 81 77
f 77 81 78
f 81 82 78
f 65 68 66
f 68 83 66
f 66 83 79
f 83 84 79
f 79 84 80
f 84 85 80
f 80 85 81
f 85 86 81
f 81 86 82
f 86 87 82
f 67 70 68
f 70 88 68
f 68 88 83
f 88 89 83
f 83 89 84
f 89 90 84
f 84 90 85
f 90 91 85
f 85 91 86
f 91 92 86
f 86 92 87
f 92 93 87
f 69 72 70
f 72 94 70
f 70 94 88
f 94 95 88
f 88 95 89
f 95 96 89
f 89 96 90
f 96 97 90
f 90 97 91
f 97 98 91
f 91 98 92
f 98 99 92
f 92 99 93
f 99 100 93
f 101 102 7
f 103 104 101
f 105 106 103
f 107 108 105
f 109 110 107
f 111 112 109
f 113 114 111
f 115 116 113
f 101 104 102
f 104 117 102
f 103 106 104
f 106 118 104
f 104 118 117
f 118 119 117
f 105 108 106
f 108 120 106
f 106 120 118
f 120 121 118
f 118 121 119
f 121 122 119
f 107 110 108
f 110 123 108
f 108 123 120
f 123 124 120
f 120 124 121
f 124 125 121
f 121 125 122
f 125 126 122
f 109 112 110
f 112 127 110
f 110 127 123
f 127 128 123
f 123 128 124
f 128 129 124
f 124 129 125
f 129 130 125
f 125 130 126
f 130 131 126
f 111 114 112
f 114 132 112
f 112 132 127
f 132 133 127
f 127 133 128
f 133 134 128
f 128 134 129
f 134 135 129
f 129 135 130
f 135 136 130
f 130 136 131
f 136 137 131
f 113 116 114
f 116 138 114
f 114 138 132
f 138 139 132
f 132 139 133
f 139 140 133
f 133 140 134
f 140 141 134
f 134 141 135
f 141 142 135
f 135 142 136
f 142 143 136
f 136 143 137
f 143 144 137
f 145 146 10
f 147 148 145
f 149 150 147
f 151 152 149
f 153 154 151
f 155 156 153
f 157 158 155
f 159 160 157
f 145 148 146
f 148 161 146
f 147 150 148
f 150 162 148
f 148 162 161
f 162 163 161
f 149 152 150
f 152 164 150
f 150 164 162
f 164 165 162
f 162 165 163
f 165 166 163
f 151 154 152
f 154 167 152
f 152 167 164
f 167 168 164
f 164 168 165
f 168 169 165
f 165 169 166
f 169 170 166
f 153 156 154
f 156 171 154
f 154 171 167
f 171 172 167
f 167 172 168
f 172 173 168
f 168 173 169
f 173 174 169
f 169 174 170
f 174 175 170
f 155 158 156
f 158 176 156
f 156 176 171
f 176 177 171
f 171 177 172
f 177 178 172
f 172 178 173
f 178 179 173
f 173 179 174
f 179 180 174
f 174 180 175
f 180 181 175
f 157 160 158
f 160 182 158
f 158 182 176
f 182 183 176
f 176 183 177
f 183 184 177
f 177 184 178
f 184 185 178
f 178 185 179
f 185 186 179
f 179 186 180
f 186 187 180
f 180 187 181
f 187 188 181
f 2 1 13
f 29 189 13
f 31 190 29
f 34 191 31
f 38 192 34
f 43 193 38
f 49 194 43
f 56 195 49
f 13 189 2
f 189 196 2
f 29 190 189
f 190 197 189
f 189 197 196
f 197 198 196
f 31 191 190
f 191 199 190
f 190 199 197
f 199 200 197
f 197 200 198
f 200 201 198
f 34 192 191
f 192 202 191
f 191 202 199
f 202 203 199
f 199 203 200
f 203 204 200
f 200 204 201
f 204 205 201
f 38 193 192
f 193 206 192
f 192 206 202
f 206 207 202
f 202 207 203
f 207 208 203
f 203 208 204
f 208 209 204
f 204 209 205
f 209 210 205
f 43 194 193
f 194 211 193
f 193 211 206
f 211 212 206
f 206 212 207
f 212 213 207
f 207 213 208
f 213 214 208
f 208 214 209
f 214 215 209
f 209 215 210
f 215 216 210
f 49 195 194
f 195 217 194
f 194 217 211
f 217 218 211
f 211 218 212
f 218 219 212
f 212 219 213
f 219 220 213
f 213 220 214
f 220 221 214
f 214 221 215
f 221 222 215
f 215 222 216
f 222 223 216
f 56 224 195
f 224 225 195
f 195 225 217
f 225 226 217
f 217 226 218
f 226 227 218
f 218 227 219
f 227 228 219
f 219 228 220
f 228 229 220
f 220 229 221
f 229 230 221
f 221 230 222
f 230 231 222
f 222 231 223
f 231 232 223
f 224 233 225
f 233 234 225
f 225 234 226
f 234 235 226
f 226 235 227
f 235 236 227
f 227 236 228
f 236 237 228
f 228 237 229
f 237 238 229
f 229 238 230
f 238 239 230
f 230 239 231
f 239 240 231
f 231 240 232
f 240 241 232
f 233 242 234
f 242 243 234
f 234 243 235
f 243 244 235
f 235 244 236
f 244 245 236
f 236 245 237
f 245 246 237
f 237 246 238
f 246 247 238
f 238 247 239
f 247 248 239
f 239 248 240
f 248 249 240
f 240 249 241
f 249 250 241
f 242 251 243
f 251 252 243
f 243 252 244
f 252 253 244
f 244 253 245
f 253 254 245
f 245 254 246
f 254 255 246
f 246 255 247
f 255 256 247
f 247 256 248
f 256 257 248
f 248 257 249
f 257 258 249
f 249 258 250
f 251 259 252
f 259 260 252
f 252 260 253
f 260 261 253
f 253 261 254
f 261 262 254
f 254 262 255
f 262 263 255
f 255 263 256
f 263 264 256
f 256 264 257
f 259 265 260
f 265 266 260
f 260 266 261
f 266 267 261
f 261 267 262
f 267 268 262
f 262 268 263
f 268 269 263
f 263 269 264
f 265 270 266
f 270 271 266
f 266 271 267
f 271 272 267
f 267 272 268
f 270 273 271
f 58 5 4
f 73 274 58
f 75 275 73
f 78 276 75
f 82 277 78
f 87 278 82
f 93 279 87
f 100 280 93
f 58 274 5
f 274 281 5
f 73 275 274
f 275 282 274
f 274 282 281
f 282 283 281
f 75 276 275
f 276 284 275
f 275 284 282
f 284 285 282
f 282 285 283
f 285 286 283
f 78 277 276
f 277 287 276
f 276 287 284
f 287 288 284
f 284 288 285
f 288 289 285
f 285 289 286
f 289 290 286
f 82 278 277
f 278 291 277
f 277 291 287
f 291 292 287
f 287 292 288
f 292 293 288
f 288 293 289
f 293 294 289
f 289 294 290
f 294 295 290
f 87 279 278
f 279 296 278
f 278 296 291
f 296 297 291
f 291 297 292
f 297 298 292
f 292 298 293
f 298 299 293
f 293 299 294
f 299 300 294
f 294 300 295
f 300 301 295
f 93 280 279
f 280 302 279
f 279 302 296
f 302 303 296
f 296 303 297
f 303 304 297
f 297 304 298
f 304 305 298
f 298 305 299
f 305 306 299
f 299 306 300
f 306 307 300
f 300 307 301
f 307 308 301
f 100 309 280
f 309 310 280
f 280 310 302
f 310 311 302
f 302 311 303
f 311 312 303
f 303 312 304
f 312 313 304
f 304 313 305
f 313 314 305
f 305 314 306
f 314 315 306
f 306 315 307
f 315 316 307
f 307 316 308
f 316 317 308
f 309 318 310
f 318 319 310
f 310 319 311
f 319 320 311
f 311 320 312
f 320 321 312
f 312 321 313
f 321 322 313
f 313 322 314
f 322 323 314
f 314 323 315
f 323 324 315
f 315 324 316
f 324 325 316
f 316 325 317
f 325 326 317
f 318 327 319
f 327 328 319
f 319 328 320
f 328 329 320
f 320 329 321
f 329 330 321
f 321 330 322
f 330 331 322
f 322 331 323
f 331 332 323
f 323 332 324
f 332 333 324
f 324 333 325
f 333 334 325
f 325 334 326
f 334 335 326
f 327 336 328
f 336 337 328
f 328 337 329
f 337 338 329
f 329 338 330
f 338 339 330
f 330 339 331
f 339 340 331
f 331 340 332
f 340 341 332
f 332 341 333
f 341 342 333
f 333 342 334
f 342 343 334
f 334 343 335
f 343 344 335
f 336 345 337
f 345 346 337
f 337 346 338
f 346 347 338
f 338 347 339
f 347 348 339
f 339 348 340
f 348 349 340
f 340 349 341
f 349 350 341
f 341 350 342
f 350 351 342
f 342 351 343
f 351 352 343
f 343 352 344
f 352 353 344
f 345 354 346
f 354 355 346
f 346 355 347
f 355 356 347
f 347 356 348
f 356 357 348
f 348 357 349
f 357 358 349
f 349 358 350
f 358 359 350
f 350 359 351
f 359 360 351
f 351 360 352
f 360 361 352
f 352 361 353
f 361 362 353
f 354 363 355
f 363 364 355
f 355 364 356
f 364 365 356
f 356 365 357
f 365 366 357
f 357 366 358
f 366 367 358
f 358 367 359
f 367 368 359
f 359 368 360
f 368 369 360
f 360 369 361
f 369 370 361
f 361 370 362
f 370 371 362
f 363 27 364
f 27 25 364
f 364 25 365
f 25 23 365
f 365 23 366
f 23 21 366
f 366 21 367
f 21 19 367
f 367 19 368
f 19 17 368
f 368 17 369
f 17 15 369
f 369 15 370
f 15 14 370
f 370 14 371
f 14 1 371
f 102 8 7
f 117 372 102
f 119 373 117
f 122 374 119
f 126 375 122
f 131 376 126
f 137 377 131
f 144 378 137
f 102 372 8
f 372 379 8
f 117 373 372
f 373 380 372
f 372 380 379
f 380 381 379
f 119 374 373
f 374 382 373
f 373 382 380
f 382 383 380
f 380 383 381
f 383 384 381
f 122 375 374
f 375 385 374
f 374 385 382
f 385 386 382
f 382 386 383
f 386 387 383
f 383 387 384
f 387 388 384
f 126 376 375
f 376 389 375
f 375 389 385
f 389 390 385
f 385 390 386
f 390 391 386
f 386 391 387
f 391 392 387
f 387 392 388
f 392 393 388
f 131 377 376
f 377 394 376
f 376 394 389
f 394 395 389
f 389 395 390
f 395 396 390
f 390 396 391
f 396 397 391
f 391 397 392
f 397 398 392
f 392 398 393
f 398 399 393
f 137 378 377
f 378 400 377
f 377 400 394
f 400 401 394
f 394 401 395
f 401 402 395
f 395 402 396
f 402 403 396
f 396 403 397
f 403 404 397
f 397 404 398
f 404 405 398
f 398 405 399
f 405 406 399
f 144 407 378
f 407 408 378
f 378 408 400
f 408 409 400
f 400 409 401
f 409 410 401
f 401 410 402
f 410 411 402
f 402 411 403
f 411 412 403
f 403 412 404
f 412 413 404
f 404 413 405
f 413 414 405
f 405 414 406
f 414 415 406
f 407 416 408
f 416 417 408
f 408 417 409
f 417 418 409
f 409 418 410
f 418 419 410
f 410 419 411
f 419 420 411
f 411 420 412
f 420 421 412
f 412 421 413
f 421 422 413
f 413 422 414
f 422 423 414
f 414 423 415
f 423 424 415
f 416 425 417
f 425 426 417
f 417 426 418
f 426 427 418
f 418 427 419
f 427 428 419
f 419 428 420
f 428 429 420
f 420 429 421
f 429 430 421
f 421 430 422
f 430 431 422
f 422 431 423
f 431 432 423
f 423 432 424
f 432 433 424
f 425 434 426
f 434 435 426
f 426 435 427
f 435 436 427
f 427 436 428
f 436 437 428
f 428 437 429
f 437 438 429
f 429 438 430
f 438 439 430
f 430 439 431
f 439 440 431
f 431 440 432
f 440 441 432
f 432 441 433
f 441 442 433
f 434 443 435
f 443 444 435
f 435 444 436
f 444 445 436
f 436 445 437
f 445 446 437
f 437 446 438
f 446 447 438
f 438 447 439
f 447 448 439
f 439 448 440
f 448 449 440
f 440 449 441
f 449 450 441
f 441 450 442
f 450 451 442
f 443 452 444
f 452 453 444
f 444 453 445
f 453 454 445
f 445 454 446
f 454 455 446
f 446 455 447
f 455 456 447
f 447 456 448
f 456 457 448
f 448 457 449
f 457 458 449
f 449 458 450
f 458 459 450
f 450 459 451
f 459 460 451
f 452 461 453
f 461 462 453
f 453 462 454
f 462 463 454
f 454 463 455
f 463 464 455
f 455 464 456
f 464 465 456
f 456 465 457
f 465 466 457
f 457 466 458
f 466 467 458
f 458 467 459
f 467 468 459
f 459 468 460
f 468 469 460
f 461 71 462
f 71 69 462
f 462 69 463
f 69 67 463
f 463 67 464
f 67 65 464
f 464 65 465
f 65 63 465
f 465 63 466
f 63 61 466
f 466 61 467
f 61 59 467
f 467 59 468
f 59 57 468
f 468 57 469
f 57 4 469
f 146 11 10
f 161 470 146
f 163 471 161
f 166 472 163
f 170 473 166
f 175 474 170
f 181 475 175
f 188 476 181
f 146 470 11
f 470 477 11
f 161 471 470
f 471 478 470
f 470 478 477
f 478 479 477
f 163 472 471
f 472 480 471
f 471 480 478
f 480 481 478
f 478 481 479
f 481 482 479
f 166 473 472
f 473 483 472
f 472 483 480
f 483 484 480
f 480 484 481
f 484 485 481
f 481 485 482
f 485 486 482
f 170 474 473
f 474 487 473
f 473 487 483
f 487 488 483
f 483 488 484
f 488 489 484
f 484 489 485
f 489 490 485
f 485 490 486
f 490 491 486
f 175 475 474
f 475 492 474
f 474 492 487
f 492 493 487
f 487 493 488
f 493 494 488
f 488 494 489
f 494 495 489
f 489 495 490
f 495 496 490
f 490 496 491
f 496 497 491
f 181 476 475
f 476 498 475
f 475 498 492
f 498 499 492
f 492 499 493
f 499 500 493
f 493 500 494
f 500 501 494
f 494 501 495
f 501 502 495
f 495 502 496
f 502 503 496
f 496 503 497
f 503 504 497
f 188 505 476
f 505 506 476
f 476 506 498
f 506 507 498
f 498 507 499
f 507 508 499
f 499 508 500
f 508 509 500
f 500 509 501
f 509 510 501
f 501 510 502
f 510 511 502
f 502 511 503
f 511 512 503
f 503 512 504
f 512 513 504
f 505 514 506
f 514 515 506
f 506 515 507
f 515 516 507
f 507 516 508
f 516 517 508
f 508 517 509
f 517 518 509
f 509 518 510
f 518 519 510
f 510 519 511
f 519 520 511
f 511 520 512
f 520 521 512
f 512 521 513
f 521 522 513
f 514 523 515
f 523 524 515
f 515 524 516
f 524 525 516
f 516 525 517
f 525 526 517
f 517 526 518
f 526 527 518
f 518 527 519
f 527 528 519
f 519 528 520
f 528 529 520
f 520 529 521
f 529 530 521
f 521 530 522
f 530 531 522
f 523 532 524
f 532 533 524
f 524 533 525
f 533 534 525
f 525 534 526
f 534 535 526
f 526 535 527
f 535 536 527
f 527 536 528
f 536 537 528
f 528 537 529
f 537 538 529
f 529 538 530
f 538 539 530
f 530 539 531
f 539 540 531
f 532 541 533
f 541 542 533
f 533 542 534
f 542 543 534
f 534 543 535
f 543 544 535
f 535 544 536
f 544 545 536
f 536 545 537
f 545 546 537
f 537 546 538
f 546 547 538
f 538 547 539
f 547 548 539
f 539 548 540
f 548 549 540
f 541 550 542
f 550 551 542
f 542 551 543
f 551 552 543
f 543 552 544
f 552 553 544
f 544 553 545
f 553 554 545
f 545 554 546
f 554 555 546
f 546 555 547
f 555 556 547
f 547 556 548
f 556 557 548
f 548 557 549
f 557 558 549
f 550 559 551
f 559 560 551
f 551 560 552
f 560 561 552
f 552 561 553
f 561 562 553
f 553 562 554
f 562 563 554
f 554 563 555
f 563 564 555
f 555 564 556
f 564 565 556
f 556 565 557
f 565 566 557
f 557 566 558
f 566 567 558
f 559 115 560
f 115 113 560
f 560 113 561
f 113 111 561
f 561 111 562
f 111 109 562
f 562 109 563
f 109 107 563
f 563 107 564
f 107 105 564
f 564 105 565
f 105 103 565
f 565 103 566
f 103 101 566
f 566 101 567
f 101 7 567
f 568 569 570
f 570 569 571
f 569 572 571
f 573 574 575
f 575 574 576
f 574 577 576
f 576 577 568
f 577 578 568
f 568 578 569
f 578 579 569
f 569 579 572
f 579 580 572
f 581 582 583
f 583 582 573
f 582 584 573
f 573 584 574
f 584 585 574
f 574 585 577
f 585 586 577
f 577 586 578
f 586 587 578
f 578 587 579
f 587 588 579
f 579 588 580
f 588 589 580
f 590 591 581
f 591 592 581
f 581 592 582
f 592 593 582
f 582 593 584
f 593 594 584
f 584 594 585
f 594 595 585
f 585 595 586
f 595 596 586
f 586 596 587
f 596 597 587
f 587 597 588
f 597 598 588
f 588 598 589
f 598 599 589
f 591 600 592
f 600 601 592
f 592 601 593
f 601 602 593
f 593 602 594
f 602 603 594
f 594 603 595
f 603 604 595
f 595 604 596
f 604 605 596
f 596 605 597
f 605 606 597
f 597 606 598
f 606 607 598
f 598 607 599
f 607 608 599
f 600 609 601
f 609 610 601
f 601 610 602
f 610 611 602
f 602 611 603
f 611 612 603
f 603 612 604
f 612 613 604
f 604 613 605
f 613 614 605
f 605 614 606
f 614 615 606
f 606 615 607
f 615 616 607
f 607 616 608
f 616 617 608
f 609 618 610
f 618 619 610
f 610 619 611
f 619 620 611
f 611 620 612
f 620 621 612
f 612 621 613
f 621 622 613
f 613 622 614
f 622 623 614
f 614 623 615
f 623 624 615
f 615 624 616
f 624 625 616
f 616 625 617
f 625 626 617
f 618 627 619
f 627 628 619
f 619 628 620
f 628 629 620
f 620 629 621
f 629 630 621
f 621 630 622
f 630 631 622
f 622 631 623
f 631 632 623
f 623 632 624
f 632 633 624
f 624 633 625
f 633 634 625
f 625 634 626
f 634 635 626
f 627 636 628
f 636 637 628
f 628 637 629
f 637 638 629
f 629 638 630
f 638 639 630
f 630 639 631
f 639 640 631
f 631 640 632
f 640 641 632
f 632 641 633
f 641 642 633
f 633 642 634
f 642 643 634
f 634 643 635
f 643 644 635
f 636 645 637
f 645 646 637
f 637 646 638
f 646 647 638
f 638 647 639
f 647 648 639
f 639 648 640
f 648 649 640
f 640 649 641
f 649 650 641
f 641 650 642
f 650 651 642
f 642 651 643
f 651 652 643
f 643 652 644
f 652 653 644
f 645 159 646
f 159 157 646
f 646 157 647
f 157 155 647
f 647 155 648
f 155 153 648
f 648 153 649
f 153 151 649
f 649 151 650
f 151 149 650
f 650 149 651
f 149 147 651
f 651 147 652
f 147 145 652
f 652 145 653
f 145 10 653
f 654 655 656
f 657 658 654
f 659 660 657
f 661 662 659
f 663 664 661
f 665 666 663
f 667 668 665
f 669 670 667
f 671 672 669
f 673 674 671
f 675 676 673
f 677 678 675
f 679 680 677
f 681 682 679
f 3 683 681
f 654 658 655
f 658 684 655
f 657 660 658
f 660 685 658
f 658 685 684
f 685 686 684
f 659 662 660
f 662 687 660
f 660 687 685
f 687 688 685
f 685 688 686
f 688 689 686
f 661 664 662
f 664 690 662
f 662 690 687
f 690 691 687
f 687 691 688
f 691 692 688
f 688 692 689
f 692 693 689
f 663 666 664
f 666 694 664
f 664 694 690
f 694 695 690
f 690 695 691
f 695 696 691
f 691 696 692
f 665 668 666
f 668 697 666
f 666 697 694
f 697 698 694
f 694 698 695
f 698 699 695
f 695 699 696
f 667 670 668
f 670 700 668
f 668 700 697
f 700 701 697
f 697 701 698
f 669 672 670
f 672 702 670
f 670 702 700
f 702 703 700
f 700 703 701
f 703 704 701
f 671 674 672
f 674 705 672
f 672 705 702
f 705 706 702
f 702 706 703
f 706 707 703
f 703 707 704
f 707 708 704
f 673 676 674
f 676 709 674
f 674 709 705
f 709 710 705
f 705 710 706
f 710 711 706
f 706 711 707
f 711 712 707
f 707 712 708
f 712 713 708
f 675 678 676
f 678 714 676
f 676 714 709
f 714 715 709
f 709 715 710
f 715 716 710
f 710 716 711
f 716 717 711
f 711 717 712
f 717 718 712
f 712 718 713
f 718 719 713
f 677 680 678
f 680 720 678
f 678 720 714
f 720 721 714
f 714 721 715
f 721 722 715
f 715 722 716
f 722 723 716
f 716 723 717
f 723 724 717
f 717 724 718
f 724 725 718
f 718 725 719
f 725 726 719
f 679 682 680
f 682 727 680
f 680 727 720
f 727 728 720
f 720 728 721
f 728 729 721
f 721 729 722
f 729 730 722
f 722 730 723
f 730 731 723
f 723 731 724
f 731 732 724
f 724 732 725
f 732 733 725
f 725 733 726
f 733 734 726
f 681 683 682
f 683 735 682
f 682 735 727
f 735 736 727
f 727 736 728
f 736 737 728
f 728 737 729
f 737 738 729
f 729 738 730
f 738 739 730
f 730 739 731
f 739 740 731
f 731 740 732
f 740 741 732
f 732 741 733
f 741 742 733
f 733 742 734
f 742 743 734
f 3 2 683
f 2 196 683
f 683 196 735
f 196 198 735
f 735 198 736
f 198 201 736
f 736 201 737
f 201 205 737
f 737 205 738
f 205 210 738
f 738 210 739
f 210 216 739
f 739 216 740
f 216 223 740
f 740 223 741
f 223 232 741
f 741 232 742
f 232 241 742
f 742 241 743
f 241 250 743
f 744 654 656
f 745 746 744
f 747 748 745
f 749 750 747
f 751 752 749
f 753 754 751
f 755 756 753
f 757 758 755
f 759 760 757
f 761 762 759
f 763 764 761
f 765 766 763
f 767 768 765
f 769 770 767
f 6 771 769
f 744 746 654
f 746 657 654
f 745 748 746
f 748 772 746
f 746 772 657
f 772 659 657
f 747 750 748
f 750 773 748
f 748 773 772
f 773 774 772
f 772 774 659
f 774 661 659
f 749 752 750
f 752 775 750
f 750 775 773
f 775 776 773
f 773 776 774
f 776 777 774
f 774 777 661
f 777 663 661
f 751 754 752
f 754 778 752
f 752 778 775
f 778 779 775
f 775 779 776
f 779 780 776
f 776 780 777
f 780 781 777
f 777 781 663
f 781 665 663
f 753 756 754
f 756 782 754
f 754 782 778
f 782 783 778
f 778 783 779
f 783 784 779
f 779 784 780
f 784 785 780
f 780 785 781
f 785 786 781
f 781 786 665
f 786 667 665
f 755 758 756
f 758 787 756
f 756 787 782
f 787 788 782
f 782 788 783
f 788 789 783
f 783 789 784
f 789 790 784
f 784 790 785
f 790 791 785
f 785 791 786
f 791 792 786
f 786 792 667
f 792 669 667
f 757 760 758
f 760 793 758
f 758 793 787
f 793 794 787
f 787 794 788
f 794 795 788
f 788 795 789
f 795 796 789
f 789 796 790
f 796 797 790
f 790 797 791
f 797 798 791
f 791 798 792
f 798 799 792
f 792 799 669
f 799 671 669
f 759 762 760
f 762 800 760
f 760 800 793
f 800 801 793
f 793 801 794
f 801 802 794
f 794 802 795
f 802 803 795
f 795 803 796
f 803 804 796
f 796 804 797
f 804 805 797
f 797 805 798
f 805 806 798
f 798 806 799
f 806 807 799
f 799 807 671
f 807 673 671
f 761 764 762
f 764 808 762
f 762 808 800
f 808 809 800
f 800 809 801
f 809 810 801
f 801 810 802
f 810 811 802
f 802 811 803
f 811 812 803
f 803 812 804
f 812 813 804
f 804 813 805
f 813 814 805
f 805 814 806
f 814 815 806
f 806 815 807
f 815 816 807
f 807 816 673
f 816 675 673
f 763 766 764
f 766 817 764
f 764 817 808
f 817 818 808
f 808 818 809
f 818 819 809
f 809 819 810
f 819 820 810
f 810 820 811
f 820 821 811
f 811 821 812
f 821 822 812
f 812 822 813
f 822 823 813
f 813 823 814
f 823 824 814
f 814 824 815
f 824 825 815
f 815 825 816
f 825 826 816
f 816 826 675
f 826 677 675
f 765 768 766
f 768 827 766
f 766 827 817
f 827 828 817
f 817 828 818
f 828 829 818
f 818 829 819
f 829 830 819
f 819 830 820
f 830 831 820
f 820 831 821
f 831 832 821
f 821 832 822
f 832 833 822
f 822 833 823
f 833 834 823
f 823 834 824
f 834 835 824
f 824 835 825
f 835 836 825
f 825 836 826
f 836 837 826
f 826 837 677
f 837 679 677
f 767 770 768
f 770 838 768
f 768 838 827
f 838 839 827
f 827 839 828
f 839 840 828
f 828 840 829
f 840 841 829
f 829 841 830
f 841 842 830
f 830 842 831
f 842 843 831
f 831 843 832
f 843 844 832
f 832 844 833
f 844 845 833
f 833 845 834
f 845 846 834
f 834 846 835
f 846 847 835
f 835 847 836
f 847 848 836
f 836 848 837
f 848 849 837
f 837 849 679
f 849 681 679
f 769 771 770
f 771 850 770
f 770 850 838
f 850 851 838
f 838 851 839
f 851 852 839
f 839 852 840
f 852 853 840
f 840 853 841
f 853 854 841
f 841 854 842
f 854 855 842
f 842 855 843
f 855 856 843
f 843 856 844
f 856 857 844
f 844 857 845
f 857 858 845
f 845 858 846
f 858 859 846
f 846 859 847
f 859 860 847
f 847 860 848
f 860 861 848
f 848 861 849
f 861 862 849
f 849 862 681
f 862 3 681
f 6 5 771
f 5 281 771
f 771 281 850
f 281 283 850
f 850 283 851
f 283 286 851
f 851 286 852
f 286 290 852
f 852 290 853
f 290 295 853
f 853 295 854
f 295 301 854
f 854 301 855
f 301 308 855
f 855 308 856
f 308 317 856
f 856 317 857
f 317 326 857
f 857 326 858
f 326 335 858
f 858 335 859
f 335 344 859
f 859 344 860
f 344 353 860
f 860 353 861
f 353 362 861
f 861 362 862
f 362 371 862
f 862 371 3
f 371 1 3
f 863 744 656
f 864 865 863
f 866 867 864
f 868 869 866
f 870 871 868
f 872 873 870
f 874 875 872
f 876 877 874
f 878 879 876
f 880 881 878
f 882 883 880
f 884 885 882
f 886 887 884
f 888 889 886
f 9 890 888
f 863 865 744
f 865 745 744
f 864 867 865
f 867 891 865
f 865 891 745
f 891 747 745
f 866 869 867
f 869 892 867
f 867 892 891
f 892 893 891
f 891 893 747
f 893 749 747
f 868 871 869
f 871 894 869
f 869 894 892
f 894 895 892
f 892 895 893
f 895 896 893
f 893 896 749
f 896 751 749
f 870 873 871
f 873 897 871
f 871 897 894
f 897 898 894
f 894 898 895
f 898 899 895
f 895 899 896
f 899 900 896
f 896 900 751
f 900 753 751
f 872 875 873
f 875 901 873
f 873 901 897
f 901 902 897
f 897 902 898
f 902 903 898
f 898 903 899
f 903 904 899
f 899 904 900
f 904 905 900
f 900 905 753
f 905 755 753
f 874 877 875
f 877 906 875
f 875 906 901
f 906 907 901
f 901 907 902
f 907 908 902
f 902 908 903
f 908 909 903
f 903 909 904
f 909 910 904
f 904 910 905
f 910 911 905
f 905 911 755
f 911 757 755
f 876 879 877
f 879 912 877
f 877 912 906
f 912 913 906
f 906 913 907
f 913 914 907
f 907 914 908
f 914 915 908
f 908 915 909
f 915 916 909
f 909 916 910
f 916 917 910
f 910 917 911
f 917 918 911
f 911 918 757
f 918 759 757
f 878 881 879
f 881 919 879
f 879 919 912
f 919 920 912
f 912 920 913
f 920 921 913
f 913 921 914
f 921 922 914
f 914 922 915
f 922 923 915
f 915 923 916
f 923 924 916
f 916 924 917
f 924 925 917
f 917 925 918
f 925 926 918
f 918 926 759
f 926 761 759
f 880 883 881
f 883 927 881
f 881 927 919
f 927 928 919
f 919 928 920
f 928 929 920
f 920 929 921
f 929 930 921
f 921 930 922
f 930 931 922
f 922 931 923
f 931 932 923
f 923 932 924
f 932 933 924
f 924 933 925
f 933 934 925
f 925 934 926
f 934 935 926
f 926 935 761
f 935 763 761
f 882 885 883
f 885 936 883
f 883 936 927
f 936 937 927
f 927 937 928
f 937 938 928
f 928 938 929
f 938 939 929
f 929 939 930
f 939 940 930
f 930 940 931
f 940 941 931
f 931 941 932
f 941 942 932
f 932 942 933
f 942 943 933
f 933 943 934
f 943 944 934
f 934 944 935
f 944 945 935
f 935 945 763
f 945 765 763
f 884 887 885
f 887 946 885
f 885 946 936
f 946 947 936
f 936 947 937
f 947 948 937
f 937 948 938
f 948 949 938
f 938 949 939
f 949 950 939
f 939 950 940
f 950 951 940
f 940 951 941
f 951 952 941
f 941 952 942
f 952 953 942
f 942 953 943
f 953 954 943
f 943 954 944
f 954 955 944
f 944 955 945
f 955 956 945
f 945 956 765
f 956 767 765
f 886 889 887
f 889 957 887
f 887 957 946
f 957 958 946
f 946 958 947
f 958 959 947
f 947 959 948
f 959 960 948
f 948 960 949
f 960 961 949
f 949 961 950
f 961 962 950
f 950 962 951
f 962 963 951
f 951 963 952
f 963 964 952
f 952 964 953
f 964 965 953
f 953 965 954
f 965 966 954
f 954 966 955
f 966 967 955
f 955 967 956
f 967 968 956
f 956 968 767
f 968 769 767
f 888 890 889
f 890 969 889
f 889 969 957
f 969 970 957
f 957 970 958
f 970 971 958
f 958 971 959
f 971 972 959
f 959 972 960
f 972 973 960
f 960 973 961
f 973 974 961
f 961 974 962
f 974 975 962
f 962 975 963
f 975 976 963
f 963 976 964
f 976 977 964
f 964 977 965
f 977 978 965
f 965 978 966
f 978 979 966
f 966 979 967
f 979 980 967
f 967 980 968
f 980 981 968
f 968 981 769
f 981 6 769
f 9 8 890
f 8 379 890
f 890 379 969
f 379 381 969
f 969 381 970
f 381 384 970
f 970 384 971
f 384 388 971
f 971 388 972
f 388 393 972
f 972 393 973
f 393 399 973
f 973 399 974
f 399 406 974
f 974 406 975
f 406 415 975
f 975 415 976
f 415 424 976
f 976 424 977
f 424 433 977
f 977 433 978
f 433 442 978
f 978 442 979
f 442 451 979
f 979 451 980
f 451 460 980
f 980 460 981
f 460 469 981
f 981 469 6
f 469 4 6
f 982 863 656
f 983 984 982
f 985 986 983
f 987 988 985
f 989 990 987
f 991 992 989
f 993 994 991
f 995 996 993
f 997 998 995
f 999 1000 997
f 1001 1002 999
f 1003 1004 1001
f 1005 1006 1003
f 1007 1008 1005
f 12 1009 1007
f 982 984 863
f 984 864 863
f 983 986 984
f 986 1010 984
f 984 1010 864
f 1010 866 864
f 985 988 986
f 988 1011 986
f 986 1011 1010
f 1011 1012 1010
f 1010 1012 866
f 1012 868 866
f 987 990 988
f 990 1013 988
f 988 1013 1011
f 1013 1014 1011
f 1011 1014 1012
f 1014 1015 1012
f 1012 1015 868
f 1015 870 868
f 989 992 990
f 992 1016 990
f 990 1016 1013
f 1016 1017 1013
f 1013 1017 1014
f 1017 1018 1014
f 1014 1018 1015
f 1018 1019 1015
f 1015 1019 870
f 1019 872 870
f 991 994 992
f 994 1020 992
f 992 1020 1016
f 1020 1021 1016
f 1016 1021 1017
f 1021 1022 1017
f 1017 1022 1018
f 1022 1023 1018
f 1018 1023 1019
f 1023 1024 1019
f 1019 1024 872
f 1024 874 872
f 993 996 994
f 996 1025 994
f 994 1025 1020
f 1025 1026 1020
f 1020 1026 1021
f 1026 1027 1021
f 1021 1027 1022
f 1027 1028 1022
f 1022 1028 1023
f 1028 1029 1023
f 1023 1029 1024
f 1029 1030 1024
f 1024 1030 874
f 1030 876 874
f 995 998 996
f 998 1031 996
f 996 1031 1025
f 1031 1032 1025
f 1025 1032 1026
f 1032 1033 1026
f 1026 1033 1027
f 1033 1034 1027
f 1027 1034 1028
f 1034 1035 1028
f 1028 1035 1029
f 1035 1036 1029
f 1029 1036 1030
f 1036 1037 1030
f 1030 1037 876
f 1037 878 876
f 997 1000 998
f 1000 1038 998
f 998 1038 1031
f 1038 1039 1031
f 1031 1039 1032
f 1039 1040 1032
f 1032 1040 1033
f 1040 1041 1033
f 1033 1041 1034
f 1041 1042 1034
f 1034 1042 1035
f 1042 1043 1035
f 1035 1043 1036
f 1043 1044 1036
f 1036 1044 1037
f 1044 1045 1037
f 1037 1045 878
f 1045 880 878
f 999 1002 1000
f 1002 1046 1000
f 1000 1046 1038
f 1046 1047 1038
f 1038 1047 1039
f 1047 1048 1039
f 1039 1048 1040
f 1048 1049 1040
f 1040 1049 1041
f 1049 1050 1041
f 1041 1050 1042
f 1050 1051 1042
f 1042 1051 1043
f 1051 1052 1043
f 1043 1052 1044
f 1052 1053 1044
f 1044 1053 1045
f 1053 1054 1045
f 1045 1054 880
f 1054 882 880
f 1001 1004 1002
f 1004 1055 1002
f 1002 1055 1046
f 1055 1056 1046
f 1046 1056 1047
f 1056 1057 1047
f 1047 1057 1048
f 1057 1058 1048
f 1048 1058 1049
f 1058 1059 1049
f 1049 1059 1050
f 1059 1060 1050
f 1050 1060 1051
f 1060 1061 1051
f 1051 1061 1052
f 1061 1062 1052
f 1052 1062 1053
f 1062 1063 1053
f 1053 1063 1054
f 1063 1064 1054
f 1054 1064 882
f 1064 884 882
f 1003 1006 1004
f 1006 1065 1004
f 1004 1065 1055
f 1065 1066 1055
f 1055 1066 1056
f 1066 1067 1056
f 1056 1067 1057
f 1067 1068 1057
f 1057 1068 1058
f 1068 1069 1058
f 1058 1069 1059
f 1069 1070 1059
f 1059 1070 1060
f 1070 1071 1060
f 1060 1071 1061
f 1071 1072 1061
f 1061 1072 1062
f 1072 1073 1062
f 1062 1073 1063
f 1073 1074 1063
f 1063 1074 1064
f 1074 1075 1064
f 1064 1075 884
f 1075 886 884
f 1005 1008 1006
f 1008 1076 1006
f 1006 1076 1065
f 1076 1077 1065
f 1065 1077 1066
f 1077 1078 1066
f 1066 1078 1067
f 1078 1079 1067
f 1067 1079 1068
f 1079 1080 1068
f 1068 1080 1069
f 1080 1081 1069
f 1069 1081 1070
f 1081 1082 1070
f 1070 1082 1071
f 1082 1083 1071
f 1071 1083 1072
f 1083 1084 1072
f 1072 1084 1073
f 1084 1085 1073
f 1073 1085 1074
f 1085 1086 1074
f 1074 1086 1075
f 1086 1087 1075
f 1075 1087 886
f 1087 888 886
f 1007 1009 1008
f 1009 1088 1008
f 1008 1088 1076
f 1088 1089 1076
f 1076 1089 1077
f 1089 1090 1077
f 1077 1090 1078
f 1090 1091 1078
f 1078 1091 1079
f 1091 1092 1079
f 1079 1092 1080
f 1092 1093 1080
f 1080 1093 1081
f 1093 1094 1081
f 1081 1094 1082
f 1094 1095 1082
f 1082 1095 1083
f 1095 1096 1083
f 1083 1096 1084
f 1096 1097 1084
f 1084 1097 1085
f 1097 1098 1085
f 1085 1098 1086
f 1098 1099 1086
f 1086 1099 1087
f 1099 1100 1087
f 1087 1100 888
f 1100 9 888
f 12 11 1009
f 11 477 1009
f 1009 477 1088
f 477 479 1088
f 1088 479 1089
f 479 482 1089
f 1089 482 1090
f 482 486 1090
f 1090 486 1091
f 486 491 1091
f 1091 491 1092
f 491 497 1092
f 1092 497 1093
f 497 504 1093
f 1093 504 1094
f 504 513 1094
f 1094 513 1095
f 513 522 1095
f 1095 522 1096
f 522 531 1096
f 1096 531 1097
f 531 540 1097
f 1097 540 1098
f 540 549 1098
f 1098 549 1099
f 549 558 1099
f 1099 558 1100
f 558 567 1100
f 1100 567 9
f 567 7 9
f 655 982 656
f 684 1101 655
f 686 1102 684
f 689 1103 686
f 693 1104 689
f 655 1101 982
f 1101 983 982
f 684 1102 1101
f 1102 1105 1101
f 1101 1105 983
f 1105 985 983
f 686 1103 1102
f 1103 1106 1102
f 1102 1106 1105
f 1106 1107 1105
f 1105 1107 985
f 1107 987 985
f 689 1104 1103
f 1104 1108 1103
f 1103 1108 1106
f 1108 1109 1106
f 1106 1109 1107
f 1109 1110 1107
f 1107 1110 987
f 1110 989 987
f 1104 1111 1108
f 1111 1112 1108
f 1108 1112 1109
f 1112 1113 1109
f 1109 1113 1110
f 1113 1114 1110
f 1110 1114 989
f 1114 991 989
f 1111 1115 1112
f 1115 1116 1112
f 1112 1116 1113
f 1116 1117 1113
f 1113 1117 1114
f 1117 1118 1114
f 1114 1118 991
f 1118 993 991
f 1116 1119 1117
f 1119 1120 1117
f 1117 1120 1118
f 1120 1121 1118
f 1118 1121 993
f 1121 995 993
f 1122 1123 1119
f 1119 1123 1120
f 1123 1124 1120
f 1120 1124 1121
f 1124 1125 1121
f 1121 1125 995
f 1125 997 995
f 1126 1127 1122
f 1122 1127 1123
f 1127 1128 1123
f 1123 1128 1124
f 1128 1129 1124
f 1124 1129 1125
f 1129 1130 1125
f 1125 1130 997
f 1130 999 997
f 1131 1132 1126
f 1126 1132 1127
f 1132 1133 1127
f 1127 1133 1128
f 1133 1134 1128
f 1128 1134 1129
f 1134 1135 1129
f 1129 1135 1130
f 1135 1136 1130
f 1130 1136 999
f 1136 1001 999
f 1137 1138 1131
f 1131 1138 1132
f 1138 1139 1132
f 1132 1139 1133
f 1139 1140 1133
f 1133 1140 1134
f 1140 1141 1134
f 1134 1141 1135
f 1141 1142 1135
f 1135 1142 1136
f 1142 1143 1136
f 1136 1143 1001
f 1143 1003 1001
f 1144 1145 1137
f 1137 1145 1138
f 1145 1146 1138
f 1138 1146 1139
f 1146 1147 1139
f 1139 1147 1140
f 1147 1148 1140
f 1140 1148 1141
f 1148 1149 1141
f 1141 1149 1142
f 1149 1150 1142
f 1142 1150 1143
f 1150 1151 1143
f 1143 1151 1003
f 1151 1005 1003
f 1152 1153 1144
f 1144 1153 1145
f 1153 1154 1145
f 1145 1154 1146
f 1154 1155 1146
f 1146 1155 1147
f 1155 1156 1147
f 1147 1156 1148
f 1156 1157 1148
f 1148 1157 1149
f 1157 1158 1149
f 1149 1158 1150
f 1158 1159 1150
f 1150 1159 1151
f 1159 1160 1151
f 1151 1160 1005
f 1160 1007 1005
f 1161 1162 1152
f 1152 1162 1153
f 1162 1163 1153
f 1153 1163 1154
f 1163 1164 1154
f 1154 1164 1155
f 1164 1165 1155
f 1155 1165 1156
f 1165 1166 1156
f 1156 1166 1157
f 1166 1167 1157
f 1157 1167 1158
f 1167 1168 1158
f 1158 1168 1159
f 1168 1169 1159
f 1159 1169 1160
f 1169 1170 1160
f 1160 1170 1007
f 1170 12 1007
f 571 572 1161
f 1161 572 1162
f 572 580 1162
f 1162 580 1163
f 580 589 1163
f 1163 589 1164
f 589 599 1164
f 1164 599 1165
f 599 608 1165
f 1165 608 1166
f 608 617 1166
f 1166 617 1167
f 617 626 1167
f 1167 626 1168
f 626 635 1168
f 1168 635 1169
f 635 644 1169
f 1169 644 1170
f 644 653 1170
f 1170 653 12
f 653 10 12
