# Blender v2.72 (sub 0) OBJ File: ''
# www.blender.org
mtllib trianglefan.mtl
o Circle_Circle.001
v -0.000001 0.000000 -0.100000
v -0.004907 0.000000 -0.099879
v -0.009802 0.000000 -0.099518
v -0.014674 0.000000 -0.098917
v -0.019510 0.000000 -0.098078
v -0.024299 0.000000 -0.097003
v -0.029029 0.000000 -0.095694
v -0.033690 0.000000 -0.094154
v -0.038269 0.000000 -0.092388
v -0.042756 0.000000 -0.090399
v -0.047140 0.000000 -0.088192
v -0.051411 0.000000 -0.085773
v -0.055558 0.000000 -0.083147
v -0.059571 0.000000 -0.080320
v -0.063440 0.000000 -0.077301
v -0.067157 0.000000 -0.074095
v -0.070711 0.000000 -0.070710
v -0.074096 0.000000 -0.067156
v -0.077302 0.000000 -0.063439
v -0.080321 0.000000 -0.059570
v -0.083148 0.000000 -0.055557
v -0.085774 0.000000 -0.051410
v -0.088193 0.000000 -0.047139
v -0.090400 0.000000 -0.042755
v -0.092389 0.000000 -0.038268
v -0.094155 0.000000 -0.033689
v -0.095695 0.000000 -0.029028
v -0.097004 0.000000 -0.024298
v -0.098079 0.000000 -0.019509
v -0.098918 0.000000 -0.014673
v -0.099519 0.000000 -0.009801
v -0.099880 0.000000 -0.004906
v -0.100001 0.000000 0.000000
v -0.099880 0.000000 0.004907
v -0.099519 0.000000 0.009802
v -0.098918 0.000000 0.014673
v -0.098079 0.000000 0.019509
v -0.097004 0.000000 0.024298
v -0.095695 0.000000 0.029029
v -0.094155 0.000000 0.033689
v -0.092389 0.000000 0.038269
v -0.090400 0.000000 0.042756
v -0.088193 0.000000 0.047140
v -0.085774 0.000000 0.051411
v -0.083148 0.000000 0.055557
v -0.080321 0.000000 0.059570
v -0.077302 0.000000 0.063440
v -0.074096 0.000000 0.067156
v -0.070711 0.000000 0.070711
v -0.067157 0.000000 0.074095
v -0.063440 0.000000 0.077301
v -0.059571 0.000000 0.080321
v -0.055558 0.000000 0.083147
v -0.051411 0.000000 0.085773
v -0.047140 0.000000 0.088192
v -0.042756 0.000000 0.090399
v -0.038269 0.000000 0.092388
v -0.033690 0.000000 0.094155
v -0.029029 0.000000 0.095694
v -0.024299 0.000000 0.097003
v -0.019510 0.000000 0.098079
v -0.014674 0.000000 0.098918
v -0.009803 0.000000 0.099519
v -0.004908 0.000000 0.099880
v -0.000001 0.000000 0.100000
v 0.004906 0.000000 0.099880
v 0.009801 0.000000 0.099519
v 0.014672 0.000000 0.098918
v 0.019508 0.000000 0.098079
v 0.024297 0.000000 0.097004
v 0.029028 0.000000 0.095694
v 0.033688 0.000000 0.094155
v 0.038267 0.000000 0.092388
v 0.042755 0.000000 0.090399
v 0.047139 0.000000 0.088193
v 0.051409 0.000000 0.085773
v 0.055556 0.000000 0.083147
v 0.059569 0.000000 0.080321
v 0.063438 0.000000 0.077302
v 0.067155 0.000000 0.074096
v 0.070710 0.000000 0.070711
v 0.074094 0.000000 0.067156
v 0.077300 0.000000 0.063440
v 0.080320 0.000000 0.059571
v 0.083146 0.000000 0.055558
v 0.085772 0.000000 0.051411
v 0.088191 0.000000 0.047140
v 0.090398 0.000000 0.042756
v 0.092387 0.000000 0.038269
v 0.094154 0.000000 0.033690
v 0.095693 0.000000 0.029029
v 0.097002 0.000000 0.024299
v 0.098078 0.000000 0.019510
v 0.098917 0.000000 0.014674
v 0.099518 0.000000 0.009802
v 0.099879 0.000000 0.004907
v 0.099999 0.000000 0.000001
v 0.099879 0.000000 -0.004906
v 0.099518 0.000000 -0.009801
v 0.098917 0.000000 -0.014673
v 0.098078 0.000000 -0.019509
v 0.097002 0.000000 -0.024298
v 0.095693 0.000000 -0.029028
v 0.094154 0.000000 -0.033689
v 0.092387 0.000000 -0.038268
v 0.090398 0.000000 -0.042755
v 0.088191 0.000000 -0.047139
v 0.085772 0.000000 -0.051410
v 0.083146 0.000000 -0.055557
v 0.080320 0.000000 -0.059570
v 0.077300 0.000000 -0.063439
v 0.074094 0.000000 -0.067156
v 0.070710 0.000000 -0.070710
v 0.067155 0.000000 -0.074095
v 0.063439 0.000000 -0.077301
v 0.059569 0.000000 -0.080320
v 0.055556 0.000000 -0.083147
v 0.051409 0.000000 -0.085773
v 0.047139 0.000000 -0.088192
v 0.042755 0.000000 -0.090399
v 0.038267 0.000000 -0.092388
v 0.033688 0.000000 -0.094154
v 0.029028 0.000000 -0.095694
v 0.024297 0.000000 -0.097003
v 0.019508 0.000000 -0.098078
v 0.014672 0.000000 -0.098917
v 0.009801 0.000000 -0.099518
v 0.004906 0.000000 -0.099879
v -0.000001 0.000000 -0.115436
v -0.005665 0.000000 -0.115297
v -0.011315 0.000000 -0.114880
v -0.016939 0.000000 -0.114187
v -0.022521 0.000000 -0.113218
v -0.028049 0.000000 -0.111977
v -0.033510 0.000000 -0.110465
v -0.038890 0.000000 -0.108688
v -0.044176 0.000000 -0.106649
v -0.049356 0.000000 -0.104353
v -0.054417 0.000000 -0.101805
v -0.059347 0.000000 -0.099013
v -0.064134 0.000000 -0.095981
v -0.068766 0.000000 -0.092719
v -0.073233 0.000000 -0.089233
v -0.077523 0.000000 -0.085532
v -0.081627 0.000000 -0.081626
v -0.085533 0.000000 -0.077522
v -0.089234 0.000000 -0.073232
v -0.092720 0.000000 -0.068765
v -0.095983 0.000000 -0.064133
v -0.099014 0.000000 -0.059346
v -0.101807 0.000000 -0.054416
v -0.104354 0.000000 -0.049355
v -0.106650 0.000000 -0.044175
v -0.108689 0.000000 -0.038889
v -0.110466 0.000000 -0.033509
v -0.111978 0.000000 -0.028048
v -0.113219 0.000000 -0.022520
v -0.114188 0.000000 -0.016938
v -0.114881 0.000000 -0.011314
v -0.115298 0.000000 -0.005664
v -0.115437 0.000000 0.000000
v -0.115298 0.000000 0.005665
v -0.114881 0.000000 0.011315
v -0.114188 0.000000 0.016938
v -0.113219 0.000000 0.022521
v -0.111978 0.000000 0.028049
v -0.110466 0.000000 0.033510
v -0.108689 0.000000 0.038890
v -0.106650 0.000000 0.044176
v -0.104354 0.000000 0.049356
v -0.101806 0.000000 0.054417
v -0.099014 0.000000 0.059347
v -0.095983 0.000000 0.064133
v -0.092720 0.000000 0.068766
v -0.089234 0.000000 0.073232
v -0.085533 0.000000 0.077523
v -0.081627 0.000000 0.081626
v -0.077523 0.000000 0.085533
v -0.073233 0.000000 0.089234
v -0.068766 0.000000 0.092720
v -0.064134 0.000000 0.095982
v -0.059347 0.000000 0.099013
v -0.054417 0.000000 0.101806
v -0.049356 0.000000 0.104354
v -0.044176 0.000000 0.106650
v -0.038890 0.000000 0.108689
v -0.033510 0.000000 0.110466
v -0.028050 0.000000 0.111977
v -0.022521 0.000000 0.113219
v -0.016939 0.000000 0.114187
v -0.011316 0.000000 0.114881
v -0.005665 0.000000 0.115298
v -0.000001 0.000000 0.115437
v 0.005663 0.000000 0.115298
v 0.011314 0.000000 0.114881
v 0.016937 0.000000 0.114187
v 0.022520 0.000000 0.113219
v 0.028048 0.000000 0.111977
v 0.033509 0.000000 0.110466
v 0.038888 0.000000 0.108689
v 0.044175 0.000000 0.106650
v 0.049354 0.000000 0.104354
v 0.054415 0.000000 0.101806
v 0.059345 0.000000 0.099014
v 0.064132 0.000000 0.095982
v 0.068764 0.000000 0.092720
v 0.073231 0.000000 0.089234
v 0.077521 0.000000 0.085533
v 0.081625 0.000000 0.081627
v 0.085532 0.000000 0.077523
v 0.089233 0.000000 0.073233
v 0.092719 0.000000 0.068766
v 0.095981 0.000000 0.064134
v 0.099012 0.000000 0.059347
v 0.101805 0.000000 0.054417
v 0.104352 0.000000 0.049356
v 0.106649 0.000000 0.044176
v 0.108688 0.000000 0.038890
v 0.110465 0.000000 0.033510
v 0.111976 0.000000 0.028049
v 0.113218 0.000000 0.022521
v 0.114186 0.000000 0.016939
v 0.114880 0.000000 0.011315
v 0.115297 0.000000 0.005665
v 0.115436 0.000000 0.000001
v 0.115297 0.000000 -0.005664
v 0.114880 0.000000 -0.011314
v 0.114186 0.000000 -0.016938
v 0.113218 0.000000 -0.022520
v 0.111976 0.000000 -0.028048
v 0.110465 0.000000 -0.033509
v 0.108688 0.000000 -0.038889
v 0.106649 0.000000 -0.044175
v 0.104353 0.000000 -0.049355
v 0.101805 0.000000 -0.054416
v 0.099012 0.000000 -0.059346
v 0.095981 0.000000 -0.064133
v 0.092719 0.000000 -0.068765
v 0.089233 0.000000 -0.073232
v 0.085532 0.000000 -0.077522
v 0.081625 0.000000 -0.081626
v 0.077522 0.000000 -0.085532
v 0.073231 0.000000 -0.089233
v 0.068765 0.000000 -0.092719
v 0.064132 0.000000 -0.095982
v 0.059345 0.000000 -0.099013
v 0.054416 0.000000 -0.101806
v 0.049355 0.000000 -0.104353
v 0.044175 0.000000 -0.106649
v 0.038888 0.000000 -0.108688
v 0.033509 0.000000 -0.110465
v 0.028048 0.000000 -0.111977
v 0.022520 0.000000 -0.113218
v 0.016937 0.000000 -0.114187
v 0.011314 0.000000 -0.114880
v 0.005663 0.000000 -0.115297
v -0.000001 0.000000 -0.129775
v -0.006368 0.000000 -0.129619
v -0.012721 0.000000 -0.129150
v -0.019043 0.000000 -0.128371
v -0.025319 0.000000 -0.127281
v -0.031534 0.000000 -0.125886
v -0.037672 0.000000 -0.124187
v -0.043721 0.000000 -0.122189
v -0.049664 0.000000 -0.119897
v -0.055487 0.000000 -0.117315
v -0.061176 0.000000 -0.114451
v -0.066719 0.000000 -0.111312
v -0.072100 0.000000 -0.107904
v -0.077308 0.000000 -0.104236
v -0.082329 0.000000 -0.100317
v -0.087153 0.000000 -0.096157
v -0.091766 0.000000 -0.091765
v -0.096158 0.000000 -0.087152
v -0.100318 0.000000 -0.082328
v -0.104237 0.000000 -0.077307
v -0.107905 0.000000 -0.072099
v -0.111313 0.000000 -0.066718
v -0.114452 0.000000 -0.061175
v -0.117316 0.000000 -0.055486
v -0.119898 0.000000 -0.049663
v -0.122190 0.000000 -0.043720
v -0.124188 0.000000 -0.037671
v -0.125887 0.000000 -0.031532
v -0.127283 0.000000 -0.025318
v -0.128371 0.000000 -0.019042
v -0.129151 0.000000 -0.012720
v -0.129620 0.000000 -0.006367
v -0.129776 0.000000 0.000000
v -0.129620 0.000000 0.006368
v -0.129151 0.000000 0.012721
v -0.128371 0.000000 0.019042
v -0.127283 0.000000 0.025318
v -0.125887 0.000000 0.031533
v -0.124188 0.000000 0.037672
v -0.122190 0.000000 0.043720
v -0.119897 0.000000 0.049663
v -0.117316 0.000000 0.055487
v -0.114452 0.000000 0.061176
v -0.111313 0.000000 0.066718
v -0.107905 0.000000 0.072100
v -0.104237 0.000000 0.077308
v -0.100318 0.000000 0.082329
v -0.096158 0.000000 0.087152
v -0.091766 0.000000 0.091765
v -0.087153 0.000000 0.096158
v -0.082329 0.000000 0.100318
v -0.077308 0.000000 0.104237
v -0.072100 0.000000 0.107905
v -0.066719 0.000000 0.111312
v -0.061176 0.000000 0.114452
v -0.055487 0.000000 0.117316
v -0.049664 0.000000 0.119897
v -0.043721 0.000000 0.122190
v -0.037673 0.000000 0.124188
v -0.031534 0.000000 0.125887
v -0.025319 0.000000 0.127282
v -0.019043 0.000000 0.128371
v -0.012721 0.000000 0.129151
v -0.006369 0.000000 0.129619
v -0.000001 0.000000 0.129776
v 0.006367 0.000000 0.129619
v 0.012719 0.000000 0.129151
v 0.019041 0.000000 0.128371
v 0.025317 0.000000 0.127282
v 0.031532 0.000000 0.125887
v 0.037671 0.000000 0.124188
v 0.043719 0.000000 0.122190
v 0.049662 0.000000 0.119897
v 0.055485 0.000000 0.117316
v 0.061175 0.000000 0.114452
v 0.066717 0.000000 0.111313
v 0.072098 0.000000 0.107905
v 0.077306 0.000000 0.104237
v 0.082328 0.000000 0.100318
v 0.087151 0.000000 0.096158
v 0.091764 0.000000 0.091766
v 0.096156 0.000000 0.087153
v 0.100317 0.000000 0.082329
v 0.104236 0.000000 0.077308
v 0.107903 0.000000 0.072100
v 0.111311 0.000000 0.066719
v 0.114451 0.000000 0.061176
v 0.117315 0.000000 0.055487
v 0.119896 0.000000 0.049664
v 0.122189 0.000000 0.043721
v 0.124187 0.000000 0.037672
v 0.125886 0.000000 0.031533
v 0.127281 0.000000 0.025319
v 0.128370 0.000000 0.019043
v 0.129150 0.000000 0.012721
v 0.129619 0.000000 0.006368
v 0.129775 0.000000 0.000001
v 0.129619 0.000000 -0.006367
v 0.129150 0.000000 -0.012720
v 0.128370 0.000000 -0.019042
v 0.127281 0.000000 -0.025317
v 0.125886 0.000000 -0.031532
v 0.124187 0.000000 -0.037671
v 0.122189 0.000000 -0.043720
v 0.119896 0.000000 -0.049663
v 0.117315 0.000000 -0.055486
v 0.114451 0.000000 -0.061175
v 0.111312 0.000000 -0.066718
v 0.107904 0.000000 -0.072099
v 0.104236 0.000000 -0.077307
v 0.100317 0.000000 -0.082328
v 0.096157 0.000000 -0.087152
v 0.091764 0.000000 -0.091765
v 0.087151 0.000000 -0.096157
v 0.082328 0.000000 -0.100317
v 0.077306 0.000000 -0.104236
v 0.072099 0.000000 -0.107904
v 0.066717 0.000000 -0.111312
v 0.061175 0.000000 -0.114451
v 0.055485 0.000000 -0.117315
v 0.049662 0.000000 -0.119897
v 0.043719 0.000000 -0.122189
v 0.037671 0.000000 -0.124187
v 0.031532 0.000000 -0.125886
v 0.025317 0.000000 -0.127282
v 0.019041 0.000000 -0.128371
v 0.012719 0.000000 -0.129150
v 0.006367 0.000000 -0.129619
v -0.000001 0.000000 -0.143120
v -0.007023 0.000000 -0.142948
v -0.014029 0.000000 -0.142431
v -0.021001 0.000000 -0.141571
v -0.027922 0.000000 -0.140370
v -0.034776 0.000000 -0.138831
v -0.041546 0.000000 -0.136957
v -0.048217 0.000000 -0.134754
v -0.054771 0.000000 -0.132226
v -0.061193 0.000000 -0.129379
v -0.067467 0.000000 -0.126221
v -0.073579 0.000000 -0.122758
v -0.079514 0.000000 -0.119000
v -0.085257 0.000000 -0.114955
v -0.090795 0.000000 -0.110633
v -0.096115 0.000000 -0.106045
v -0.101202 0.000000 -0.101201
v -0.106046 0.000000 -0.096114
v -0.110634 0.000000 -0.090794
v -0.114956 0.000000 -0.085256
v -0.119001 0.000000 -0.079513
v -0.122759 0.000000 -0.073578
v -0.126222 0.000000 -0.067466
v -0.129380 0.000000 -0.061192
v -0.132227 0.000000 -0.054769
v -0.134755 0.000000 -0.048215
v -0.136959 0.000000 -0.041545
v -0.138832 0.000000 -0.034775
v -0.140371 0.000000 -0.027921
v -0.141572 0.000000 -0.021000
v -0.142432 0.000000 -0.014028
v -0.142949 0.000000 -0.007022
v -0.143121 0.000000 0.000000
v -0.142949 0.000000 0.007023
v -0.142432 0.000000 0.014029
v -0.141572 0.000000 0.021001
v -0.140371 0.000000 0.027922
v -0.138832 0.000000 0.034776
v -0.136958 0.000000 0.041546
v -0.134755 0.000000 0.048216
v -0.132227 0.000000 0.054770
v -0.129380 0.000000 0.061192
v -0.126222 0.000000 0.067467
v -0.122759 0.000000 0.073579
v -0.119001 0.000000 0.079514
v -0.114956 0.000000 0.085257
v -0.110634 0.000000 0.090795
v -0.106046 0.000000 0.096114
v -0.101202 0.000000 0.101202
v -0.096115 0.000000 0.106046
v -0.090795 0.000000 0.110634
v -0.085257 0.000000 0.114956
v -0.079514 0.000000 0.119001
v -0.073579 0.000000 0.122759
v -0.067467 0.000000 0.126221
v -0.061193 0.000000 0.129380
v -0.054771 0.000000 0.132226
v -0.048217 0.000000 0.134755
v -0.041547 0.000000 0.136958
v -0.034776 0.000000 0.138832
v -0.027922 0.000000 0.140371
v -0.021001 0.000000 0.141572
v -0.014029 0.000000 0.142432
v -0.007023 0.000000 0.142949
v -0.000001 0.000000 0.143121
v 0.007022 0.000000 0.142949
v 0.014027 0.000000 0.142432
v 0.020999 0.000000 0.141572
v 0.027921 0.000000 0.140371
v 0.034775 0.000000 0.138832
v 0.041545 0.000000 0.136958
v 0.048215 0.000000 0.134755
v 0.054769 0.000000 0.132227
v 0.061191 0.000000 0.129380
v 0.067466 0.000000 0.126222
v 0.073578 0.000000 0.122759
v 0.079513 0.000000 0.119001
v 0.085256 0.000000 0.114956
v 0.090794 0.000000 0.110634
v 0.096113 0.000000 0.106046
v 0.101201 0.000000 0.101202
v 0.106044 0.000000 0.096115
v 0.110633 0.000000 0.090795
v 0.114955 0.000000 0.085258
v 0.118999 0.000000 0.079514
v 0.122758 0.000000 0.073579
v 0.126220 0.000000 0.067467
v 0.129379 0.000000 0.061193
v 0.132225 0.000000 0.054771
v 0.134754 0.000000 0.048217
v 0.136957 0.000000 0.041546
v 0.138831 0.000000 0.034776
v 0.140370 0.000000 0.027922
v 0.141571 0.000000 0.021001
v 0.142431 0.000000 0.014029
v 0.142948 0.000000 0.007023
v 0.143120 0.000000 0.000001
v 0.142948 0.000000 -0.007022
v 0.142431 0.000000 -0.014028
v 0.141571 0.000000 -0.021000
v 0.140370 0.000000 -0.027921
v 0.138831 0.000000 -0.034775
v 0.136957 0.000000 -0.041545
v 0.134754 0.000000 -0.048215
v 0.132226 0.000000 -0.054769
v 0.129379 0.000000 -0.061192
v 0.126220 0.000000 -0.067466
v 0.122758 0.000000 -0.073578
v 0.119000 0.000000 -0.079513
v 0.114955 0.000000 -0.085257
v 0.110633 0.000000 -0.090794
v 0.106045 0.000000 -0.096114
v 0.101201 0.000000 -0.101201
v 0.096113 0.000000 -0.106045
v 0.090794 0.000000 -0.110633
v 0.085256 0.000000 -0.114955
v 0.079513 0.000000 -0.119000
v 0.073578 0.000000 -0.122758
v 0.067466 0.000000 -0.126221
v 0.061191 0.000000 -0.129379
v 0.054769 0.000000 -0.132226
v 0.048215 0.000000 -0.134754
v 0.041545 0.000000 -0.136958
v 0.034775 0.000000 -0.138831
v 0.027920 0.000000 -0.140370
v 0.020999 0.000000 -0.141571
v 0.014027 0.000000 -0.142431
v 0.007022 0.000000 -0.142948
v -0.000001 0.000000 -0.160027
v -0.007853 0.000000 -0.159834
v -0.015686 0.000000 -0.159256
v -0.023481 0.000000 -0.158295
v -0.031220 0.000000 -0.156952
v -0.038884 0.000000 -0.155231
v -0.046454 0.000000 -0.153136
v -0.053912 0.000000 -0.150672
v -0.061240 0.000000 -0.147846
v -0.068421 0.000000 -0.144663
v -0.075437 0.000000 -0.141131
v -0.082271 0.000000 -0.137260
v -0.088907 0.000000 -0.133057
v -0.095329 0.000000 -0.128535
v -0.101521 0.000000 -0.123702
v -0.107468 0.000000 -0.118572
v -0.113157 0.000000 -0.113156
v -0.118573 0.000000 -0.107467
v -0.123703 0.000000 -0.101520
v -0.128536 0.000000 -0.095328
v -0.133058 0.000000 -0.088906
v -0.137261 0.000000 -0.082270
v -0.141132 0.000000 -0.075436
v -0.144664 0.000000 -0.068420
v -0.147847 0.000000 -0.061239
v -0.150673 0.000000 -0.053911
v -0.153137 0.000000 -0.046453
v -0.155232 0.000000 -0.038883
v -0.156953 0.000000 -0.031219
v -0.158296 0.000000 -0.023480
v -0.159257 0.000000 -0.015685
v -0.159835 0.000000 -0.007852
v -0.160028 0.000000 0.000000
v -0.159835 0.000000 0.007853
v -0.159257 0.000000 0.015686
v -0.158296 0.000000 0.023481
v -0.156953 0.000000 0.031220
v -0.155232 0.000000 0.038884
v -0.153137 0.000000 0.046454
v -0.150673 0.000000 0.053912
v -0.147846 0.000000 0.061240
v -0.144664 0.000000 0.068421
v -0.141132 0.000000 0.075437
v -0.137261 0.000000 0.082271
v -0.133058 0.000000 0.088907
v -0.128536 0.000000 0.095329
v -0.123703 0.000000 0.101521
v -0.118573 0.000000 0.107468
v -0.113157 0.000000 0.113157
v -0.107468 0.000000 0.118573
v -0.101521 0.000000 0.123703
v -0.095329 0.000000 0.128535
v -0.088907 0.000000 0.133058
v -0.082271 0.000000 0.137260
v -0.075437 0.000000 0.141132
v -0.068421 0.000000 0.144663
v -0.061241 0.000000 0.147846
v -0.053912 0.000000 0.150673
v -0.046454 0.000000 0.153137
v -0.038884 0.000000 0.155232
v -0.031221 0.000000 0.156953
v -0.023482 0.000000 0.158296
v -0.015686 0.000000 0.159257
v -0.007853 0.000000 0.159835
v -0.000001 0.000000 0.160028
v 0.007851 0.000000 0.159835
v 0.015684 0.000000 0.159257
v 0.023480 0.000000 0.158296
v 0.031219 0.000000 0.156953
v 0.038882 0.000000 0.155232
v 0.046452 0.000000 0.153137
v 0.053911 0.000000 0.150673
v 0.061239 0.000000 0.147846
v 0.068419 0.000000 0.144664
v 0.075435 0.000000 0.141132
v 0.082269 0.000000 0.137261
v 0.088905 0.000000 0.133058
v 0.095327 0.000000 0.128536
v 0.101519 0.000000 0.123703
v 0.107467 0.000000 0.118573
v 0.113155 0.000000 0.113157
v 0.118571 0.000000 0.107468
v 0.123702 0.000000 0.101521
v 0.128534 0.000000 0.095329
v 0.133057 0.000000 0.088907
v 0.137259 0.000000 0.082271
v 0.141131 0.000000 0.075437
v 0.144662 0.000000 0.068421
v 0.147845 0.000000 0.061241
v 0.150672 0.000000 0.053912
v 0.153136 0.000000 0.046454
v 0.155231 0.000000 0.038884
v 0.156952 0.000000 0.031220
v 0.158295 0.000000 0.023482
v 0.159256 0.000000 0.015686
v 0.159834 0.000000 0.007853
v 0.160027 0.000000 0.000001
v 0.159834 0.000000 -0.007852
v 0.159256 0.000000 -0.015685
v 0.158295 0.000000 -0.023480
v 0.156952 0.000000 -0.031219
v 0.155231 0.000000 -0.038883
v 0.153136 0.000000 -0.046453
v 0.150672 0.000000 -0.053911
v 0.147845 0.000000 -0.061239
v 0.144662 0.000000 -0.068420
v 0.141131 0.000000 -0.075436
v 0.137259 0.000000 -0.082270
v 0.133057 0.000000 -0.088906
v 0.128534 0.000000 -0.095328
v 0.123702 0.000000 -0.101520
v 0.118572 0.000000 -0.107468
v 0.113156 0.000000 -0.113156
v 0.107467 0.000000 -0.118572
v 0.101519 0.000000 -0.123702
v 0.095327 0.000000 -0.128535
v 0.088906 0.000000 -0.133058
v 0.082270 0.000000 -0.137260
v 0.075435 0.000000 -0.141131
v 0.068420 0.000000 -0.144663
v 0.061239 0.000000 -0.147846
v 0.053911 0.000000 -0.150673
v 0.046452 0.000000 -0.153136
v 0.038882 0.000000 -0.155231
v 0.031219 0.000000 -0.156952
v 0.023480 0.000000 -0.158295
v 0.015684 0.000000 -0.159256
v 0.007851 0.000000 -0.159834
v -0.000001 0.000000 -0.179668
v -0.008817 0.000000 -0.179452
v -0.017611 0.000000 -0.178803
v -0.026363 0.000000 -0.177724
v -0.035052 0.000000 -0.176216
v -0.043657 0.000000 -0.174284
v -0.052156 0.000000 -0.171932
v -0.060529 0.000000 -0.169166
v -0.068757 0.000000 -0.165992
v -0.076819 0.000000 -0.162418
v -0.084696 0.000000 -0.158453
v -0.092369 0.000000 -0.154107
v -0.099819 0.000000 -0.149389
v -0.107029 0.000000 -0.144311
v -0.113981 0.000000 -0.138885
v -0.120659 0.000000 -0.133125
v -0.127046 0.000000 -0.127045
v -0.133126 0.000000 -0.120658
v -0.138886 0.000000 -0.113980
v -0.144312 0.000000 -0.107028
v -0.149390 0.000000 -0.099818
v -0.154107 0.000000 -0.092368
v -0.158454 0.000000 -0.084695
v -0.162419 0.000000 -0.076818
v -0.165993 0.000000 -0.068756
v -0.169167 0.000000 -0.060528
v -0.171933 0.000000 -0.052155
v -0.174285 0.000000 -0.043656
v -0.176217 0.000000 -0.035051
v -0.177725 0.000000 -0.026362
v -0.178804 0.000000 -0.017610
v -0.179453 0.000000 -0.008816
v -0.179669 0.000000 0.000000
v -0.179453 0.000000 0.008816
v -0.178804 0.000000 0.017611
v -0.177725 0.000000 0.026363
v -0.176217 0.000000 0.035052
v -0.174285 0.000000 0.043656
v -0.171933 0.000000 0.052155
v -0.169167 0.000000 0.060529
v -0.165993 0.000000 0.068757
v -0.162419 0.000000 0.076819
v -0.158454 0.000000 0.084696
v -0.154107 0.000000 0.092369
v -0.149390 0.000000 0.099819
v -0.144312 0.000000 0.107029
v -0.138886 0.000000 0.113981
v -0.133126 0.000000 0.120658
v -0.127046 0.000000 0.127045
v -0.120659 0.000000 0.133126
v -0.113981 0.000000 0.138886
v -0.107029 0.000000 0.144311
v -0.099819 0.000000 0.149389
v -0.092369 0.000000 0.154107
v -0.084696 0.000000 0.158454
v -0.076819 0.000000 0.162419
v -0.068757 0.000000 0.165992
v -0.060529 0.000000 0.169166
v -0.052156 0.000000 0.171932
v -0.043657 0.000000 0.174284
v -0.035052 0.000000 0.176217
v -0.026364 0.000000 0.177724
v -0.017611 0.000000 0.178804
v -0.008817 0.000000 0.179453
v -0.000001 0.000000 0.179669
v 0.008815 0.000000 0.179453
v 0.017610 0.000000 0.178804
v 0.026362 0.000000 0.177724
v 0.035051 0.000000 0.176217
v 0.043655 0.000000 0.174285
v 0.052154 0.000000 0.171933
v 0.060528 0.000000 0.169166
v 0.068755 0.000000 0.165993
v 0.076817 0.000000 0.162419
v 0.084694 0.000000 0.158454
v 0.092367 0.000000 0.154108
v 0.099817 0.000000 0.149390
v 0.107027 0.000000 0.144312
v 0.113979 0.000000 0.138886
v 0.120657 0.000000 0.133126
v 0.127044 0.000000 0.127046
v 0.133125 0.000000 0.120659
v 0.138885 0.000000 0.113981
v 0.144310 0.000000 0.107029
v 0.149388 0.000000 0.099819
v 0.154106 0.000000 0.092369
v 0.158453 0.000000 0.084696
v 0.162418 0.000000 0.076819
v 0.165991 0.000000 0.068757
v 0.169165 0.000000 0.060529
v 0.171931 0.000000 0.052156
v 0.174283 0.000000 0.043657
v 0.176216 0.000000 0.035052
v 0.177723 0.000000 0.026364
v 0.178803 0.000000 0.017611
v 0.179452 0.000000 0.008817
v 0.179668 0.000000 0.000001
v 0.179452 0.000000 -0.008815
v 0.178803 0.000000 -0.017610
v 0.177723 0.000000 -0.026362
v 0.176216 0.000000 -0.035051
v 0.174284 0.000000 -0.043655
v 0.171932 0.000000 -0.052155
v 0.169165 0.000000 -0.060528
v 0.165992 0.000000 -0.068756
v 0.162418 0.000000 -0.076818
v 0.158453 0.000000 -0.084695
v 0.154106 0.000000 -0.092368
v 0.149388 0.000000 -0.099818
v 0.144311 0.000000 -0.107028
v 0.138885 0.000000 -0.113980
v 0.133125 0.000000 -0.120658
v 0.127044 0.000000 -0.127045
v 0.120657 0.000000 -0.133125
v 0.113980 0.000000 -0.138885
v 0.107028 0.000000 -0.144311
v 0.099818 0.000000 -0.149389
v 0.092367 0.000000 -0.154107
v 0.084694 0.000000 -0.158453
v 0.076817 0.000000 -0.162418
v 0.068755 0.000000 -0.165992
v 0.060528 0.000000 -0.169166
v 0.052154 0.000000 -0.171932
v 0.043655 0.000000 -0.174284
v 0.035051 0.000000 -0.176216
v 0.026362 0.000000 -0.177724
v 0.017610 0.000000 -0.178803
v 0.008815 0.000000 -0.179452
v -0.000001 0.000000 -0.200573
v -0.009842 0.000000 -0.200331
v -0.019660 0.000000 -0.199607
v -0.029431 0.000000 -0.198402
v -0.039130 0.000000 -0.196719
v -0.048736 0.000000 -0.194562
v -0.058224 0.000000 -0.191936
v -0.067572 0.000000 -0.188848
v -0.076757 0.000000 -0.185305
v -0.085757 0.000000 -0.181315
v -0.094550 0.000000 -0.176889
v -0.103116 0.000000 -0.172037
v -0.111433 0.000000 -0.166770
v -0.119482 0.000000 -0.161101
v -0.127243 0.000000 -0.155045
v -0.134697 0.000000 -0.148614
v -0.141827 0.000000 -0.141826
v -0.148615 0.000000 -0.134696
v -0.155046 0.000000 -0.127242
v -0.161102 0.000000 -0.119481
v -0.166771 0.000000 -0.111432
v -0.172038 0.000000 -0.103115
v -0.176890 0.000000 -0.094549
v -0.181316 0.000000 -0.085756
v -0.185306 0.000000 -0.076756
v -0.188849 0.000000 -0.067571
v -0.191937 0.000000 -0.058223
v -0.194563 0.000000 -0.048735
v -0.196720 0.000000 -0.039129
v -0.198403 0.000000 -0.029430
v -0.199608 0.000000 -0.019659
v -0.200332 0.000000 -0.009841
v -0.200574 0.000000 0.000000
v -0.200332 0.000000 0.009842
v -0.199608 0.000000 0.019660
v -0.198403 0.000000 0.029431
v -0.196720 0.000000 0.039130
v -0.194563 0.000000 0.048736
v -0.191937 0.000000 0.058224
v -0.188849 0.000000 0.067571
v -0.185306 0.000000 0.076756
v -0.181316 0.000000 0.085756
v -0.176890 0.000000 0.094550
v -0.172038 0.000000 0.103115
v -0.166771 0.000000 0.111433
v -0.161102 0.000000 0.119482
v -0.155046 0.000000 0.127242
v -0.148615 0.000000 0.134697
v -0.141827 0.000000 0.141827
v -0.134697 0.000000 0.148615
v -0.127243 0.000000 0.155045
v -0.119482 0.000000 0.161102
v -0.111433 0.000000 0.166771
v -0.103116 0.000000 0.172037
v -0.094550 0.000000 0.176890
v -0.085757 0.000000 0.181316
v -0.076757 0.000000 0.185305
v -0.067572 0.000000 0.188848
v -0.058224 0.000000 0.191937
v -0.048736 0.000000 0.194562
v -0.039131 0.000000 0.196719
v -0.029431 0.000000 0.198402
v -0.019661 0.000000 0.199607
v -0.009843 0.000000 0.200332
v -0.000001 0.000000 0.200573
v 0.009841 0.000000 0.200332
v 0.019659 0.000000 0.199607
v 0.029429 0.000000 0.198402
v 0.039129 0.000000 0.196719
v 0.048734 0.000000 0.194562
v 0.058222 0.000000 0.191937
v 0.067570 0.000000 0.188849
v 0.076755 0.000000 0.185306
v 0.085755 0.000000 0.181316
v 0.094548 0.000000 0.176890
v 0.103114 0.000000 0.172038
v 0.111431 0.000000 0.166771
v 0.119480 0.000000 0.161102
v 0.127241 0.000000 0.155046
v 0.134696 0.000000 0.148616
v 0.141825 0.000000 0.141827
v 0.148614 0.000000 0.134697
v 0.155044 0.000000 0.127243
v 0.161101 0.000000 0.119482
v 0.166769 0.000000 0.111433
v 0.172036 0.000000 0.103116
v 0.176889 0.000000 0.094550
v 0.181315 0.000000 0.085757
v 0.185304 0.000000 0.076757
v 0.188847 0.000000 0.067572
v 0.191936 0.000000 0.058224
v 0.194561 0.000000 0.048736
v 0.196718 0.000000 0.039131
v 0.198401 0.000000 0.029431
v 0.199607 0.000000 0.019660
v 0.200331 0.000000 0.009842
v 0.200572 0.000000 0.000001
v 0.200331 0.000000 -0.009841
v 0.199607 0.000000 -0.019659
v 0.198401 0.000000 -0.029430
v 0.196718 0.000000 -0.039129
v 0.194561 0.000000 -0.048735
v 0.191936 0.000000 -0.058223
v 0.188848 0.000000 -0.067571
v 0.185305 0.000000 -0.076756
v 0.181315 0.000000 -0.085756
v 0.176889 0.000000 -0.094549
v 0.172037 0.000000 -0.103115
v 0.166770 0.000000 -0.111432
v 0.161101 0.000000 -0.119481
v 0.155044 0.000000 -0.127242
v 0.148614 0.000000 -0.134696
v 0.141826 0.000000 -0.141826
v 0.134696 0.000000 -0.148615
v 0.127241 0.000000 -0.155045
v 0.119480 0.000000 -0.161102
v 0.111432 0.000000 -0.166770
v 0.103114 0.000000 -0.172037
v 0.094549 0.000000 -0.176889
v 0.085755 0.000000 -0.181316
v 0.076755 0.000000 -0.185305
v 0.067570 0.000000 -0.188848
v 0.058222 0.000000 -0.191936
v 0.048734 0.000000 -0.194562
v 0.039129 0.000000 -0.196719
v 0.029429 0.000000 -0.198402
v 0.019658 0.000000 -0.199607
v 0.009840 0.000000 -0.200331
v -0.000001 0.000000 -0.221161
v -0.010852 0.000000 -0.220895
v -0.021678 0.000000 -0.220096
v -0.032452 0.000000 -0.218768
v -0.043147 0.000000 -0.216912
v -0.053738 0.000000 -0.214533
v -0.064200 0.000000 -0.211638
v -0.074508 0.000000 -0.208233
v -0.084635 0.000000 -0.204326
v -0.094559 0.000000 -0.199927
v -0.104255 0.000000 -0.195047
v -0.113700 0.000000 -0.189696
v -0.122871 0.000000 -0.183889
v -0.131746 0.000000 -0.177638
v -0.140304 0.000000 -0.170960
v -0.148524 0.000000 -0.163870
v -0.156386 0.000000 -0.156385
v -0.163871 0.000000 -0.148523
v -0.170961 0.000000 -0.140303
v -0.177639 0.000000 -0.131745
v -0.183890 0.000000 -0.122871
v -0.189697 0.000000 -0.113699
v -0.195048 0.000000 -0.104255
v -0.199928 0.000000 -0.094558
v -0.204327 0.000000 -0.084635
v -0.208234 0.000000 -0.074507
v -0.211639 0.000000 -0.064199
v -0.214534 0.000000 -0.053738
v -0.216913 0.000000 -0.043146
v -0.218768 0.000000 -0.032451
v -0.220097 0.000000 -0.021677
v -0.220896 0.000000 -0.010851
v -0.221162 0.000000 0.000000
v -0.220896 0.000000 0.010852
v -0.220097 0.000000 0.021678
v -0.218768 0.000000 0.032452
v -0.216913 0.000000 0.043147
v -0.214534 0.000000 0.053738
v -0.211639 0.000000 0.064200
v -0.208234 0.000000 0.074508
v -0.204327 0.000000 0.084635
v -0.199928 0.000000 0.094559
v -0.195048 0.000000 0.104255
v -0.189697 0.000000 0.113700
v -0.183890 0.000000 0.122871
v -0.177639 0.000000 0.131746
v -0.170961 0.000000 0.140304
v -0.163871 0.000000 0.148523
v -0.156386 0.000000 0.156385
v -0.148524 0.000000 0.163870
v -0.140304 0.000000 0.170961
v -0.131746 0.000000 0.177639
v -0.122871 0.000000 0.183889
v -0.113701 0.000000 0.189697
v -0.104256 0.000000 0.195047
v -0.094560 0.000000 0.199928
v -0.084636 0.000000 0.204327
v -0.074508 0.000000 0.208234
v -0.064201 0.000000 0.211639
v -0.053739 0.000000 0.214534
v -0.043147 0.000000 0.216912
v -0.032452 0.000000 0.218768
v -0.021679 0.000000 0.220097
v -0.010853 0.000000 0.220896
v -0.000001 0.000000 0.221162
v 0.010851 0.000000 0.220896
v 0.021677 0.000000 0.220097
v 0.032450 0.000000 0.218768
v 0.043145 0.000000 0.216913
v 0.053737 0.000000 0.214534
v 0.064199 0.000000 0.211639
v 0.074506 0.000000 0.208234
v 0.084634 0.000000 0.204327
v 0.094558 0.000000 0.199928
v 0.104254 0.000000 0.195048
v 0.113699 0.000000 0.189697
v 0.122870 0.000000 0.183890
v 0.131745 0.000000 0.177639
v 0.140302 0.000000 0.170961
v 0.148522 0.000000 0.163871
v 0.156384 0.000000 0.156386
v 0.163869 0.000000 0.148524
v 0.170959 0.000000 0.140304
v 0.177638 0.000000 0.131747
v 0.183888 0.000000 0.122872
v 0.189696 0.000000 0.113701
v 0.195046 0.000000 0.104256
v 0.199927 0.000000 0.094560
v 0.204326 0.000000 0.084636
v 0.208233 0.000000 0.074508
v 0.211638 0.000000 0.064201
v 0.214533 0.000000 0.053739
v 0.216911 0.000000 0.043147
v 0.218767 0.000000 0.032452
v 0.220096 0.000000 0.021678
v 0.220895 0.000000 0.010853
v 0.221161 0.000000 0.000001
v 0.220895 0.000000 -0.010851
v 0.220096 0.000000 -0.021677
v 0.218767 0.000000 -0.032451
v 0.216912 0.000000 -0.043146
v 0.214533 0.000000 -0.053737
v 0.211638 0.000000 -0.064199
v 0.208233 0.000000 -0.074507
v 0.204326 0.000000 -0.084635
v 0.199927 0.000000 -0.094558
v 0.195047 0.000000 -0.104255
v 0.189696 0.000000 -0.113699
v 0.183889 0.000000 -0.122871
v 0.177638 0.000000 -0.131746
v 0.170960 0.000000 -0.140303
v 0.163869 0.000000 -0.148523
v 0.156384 0.000000 -0.156385
v 0.148522 0.000000 -0.163870
v 0.140303 0.000000 -0.170960
v 0.131745 0.000000 -0.177639
v 0.122870 0.000000 -0.183889
v 0.113699 0.000000 -0.189697
v 0.104254 0.000000 -0.195047
v 0.094558 0.000000 -0.199928
v 0.084634 0.000000 -0.204327
v 0.074506 0.000000 -0.208233
v 0.064199 0.000000 -0.211638
v 0.053737 0.000000 -0.214534
v 0.043145 0.000000 -0.216912
v 0.032450 0.000000 -0.218768
v 0.021676 0.000000 -0.220096
v 0.010851 0.000000 -0.220895
v -0.000001 0.000000 -0.243639
v -0.011955 0.000000 -0.243346
v -0.023881 0.000000 -0.242466
v -0.035750 0.000000 -0.241003
v -0.047532 0.000000 -0.238958
v -0.059200 0.000000 -0.236338
v -0.070725 0.000000 -0.233148
v -0.082080 0.000000 -0.229397
v -0.093238 0.000000 -0.225094
v -0.104170 0.000000 -0.220247
v -0.114852 0.000000 -0.214871
v -0.125256 0.000000 -0.208977
v -0.135360 0.000000 -0.202579
v -0.145137 0.000000 -0.195693
v -0.154564 0.000000 -0.188336
v -0.163619 0.000000 -0.180525
v -0.172280 0.000000 -0.172279
v -0.180526 0.000000 -0.163618
v -0.188337 0.000000 -0.154563
v -0.195694 0.000000 -0.145136
v -0.202580 0.000000 -0.135359
v -0.208977 0.000000 -0.125256
v -0.214872 0.000000 -0.114851
v -0.220248 0.000000 -0.104169
v -0.225094 0.000000 -0.093237
v -0.229398 0.000000 -0.082079
v -0.233149 0.000000 -0.070725
v -0.236339 0.000000 -0.059199
v -0.238959 0.000000 -0.047531
v -0.241003 0.000000 -0.035749
v -0.242467 0.000000 -0.023880
v -0.243347 0.000000 -0.011954
v -0.243640 0.000000 0.000000
v -0.243347 0.000000 0.011955
v -0.242467 0.000000 0.023881
v -0.241003 0.000000 0.035750
v -0.238959 0.000000 0.047532
v -0.236339 0.000000 0.059200
v -0.233149 0.000000 0.070725
v -0.229398 0.000000 0.082080
v -0.225094 0.000000 0.093237
v -0.220248 0.000000 0.104170
v -0.214872 0.000000 0.114851
v -0.208977 0.000000 0.125256
v -0.202580 0.000000 0.135359
v -0.195694 0.000000 0.145136
v -0.188337 0.000000 0.154564
v -0.180526 0.000000 0.163619
v -0.172280 0.000000 0.172280
v -0.163619 0.000000 0.180525
v -0.154564 0.000000 0.188336
v -0.145137 0.000000 0.195694
v -0.135360 0.000000 0.202579
v -0.125257 0.000000 0.208977
v -0.114852 0.000000 0.214871
v -0.104170 0.000000 0.220248
v -0.093238 0.000000 0.225094
v -0.082081 0.000000 0.229398
v -0.070726 0.000000 0.233149
v -0.059201 0.000000 0.236338
v -0.047533 0.000000 0.238959
v -0.035750 0.000000 0.241003
v -0.023882 0.000000 0.242467
v -0.011956 0.000000 0.243347
v -0.000001 0.000000 0.243640
v 0.011954 0.000000 0.243347
v 0.023880 0.000000 0.242467
v 0.035748 0.000000 0.241003
v 0.047531 0.000000 0.238959
v 0.059199 0.000000 0.236339
v 0.070724 0.000000 0.233149
v 0.082079 0.000000 0.229398
v 0.093236 0.000000 0.225095
v 0.104168 0.000000 0.220249
v 0.114850 0.000000 0.214872
v 0.125255 0.000000 0.208978
v 0.135358 0.000000 0.202580
v 0.145135 0.000000 0.195694
v 0.154562 0.000000 0.188337
v 0.163617 0.000000 0.180526
v 0.172278 0.000000 0.172280
v 0.180524 0.000000 0.163619
v 0.188335 0.000000 0.154564
v 0.195692 0.000000 0.145137
v 0.202578 0.000000 0.135360
v 0.208976 0.000000 0.125257
v 0.214870 0.000000 0.114852
v 0.220247 0.000000 0.104170
v 0.225093 0.000000 0.093238
v 0.229397 0.000000 0.082081
v 0.233148 0.000000 0.070726
v 0.236338 0.000000 0.059200
v 0.238958 0.000000 0.047533
v 0.241002 0.000000 0.035750
v 0.242466 0.000000 0.023882
v 0.243346 0.000000 0.011956
v 0.243639 0.000000 0.000001
v 0.243346 0.000000 -0.011954
v 0.242466 0.000000 -0.023880
v 0.241002 0.000000 -0.035749
v 0.238958 0.000000 -0.047531
v 0.236338 0.000000 -0.059199
v 0.233148 0.000000 -0.070724
v 0.229397 0.000000 -0.082079
v 0.225093 0.000000 -0.093237
v 0.220247 0.000000 -0.104169
v 0.214871 0.000000 -0.114851
v 0.208976 0.000000 -0.125256
v 0.202579 0.000000 -0.135359
v 0.195693 0.000000 -0.145136
v 0.188336 0.000000 -0.154563
v 0.180525 0.000000 -0.163618
v 0.172279 0.000000 -0.172279
v 0.163618 0.000000 -0.180525
v 0.154563 0.000000 -0.188336
v 0.145135 0.000000 -0.195693
v 0.135358 0.000000 -0.202579
v 0.125255 0.000000 -0.208977
v 0.114850 0.000000 -0.214871
v 0.104169 0.000000 -0.220248
v 0.093236 0.000000 -0.225094
v 0.082079 0.000000 -0.229398
v 0.070724 0.000000 -0.233149
v 0.059199 0.000000 -0.236338
v 0.047531 0.000000 -0.238958
v 0.035748 0.000000 -0.241003
v 0.023880 0.000000 -0.242466
v 0.011954 0.000000 -0.243346
v -0.000001 0.000000 -0.272920
v -0.013392 0.000000 -0.272592
v -0.026751 0.000000 -0.271606
v -0.040046 0.000000 -0.269966
v -0.053245 0.000000 -0.267676
v -0.066315 0.000000 -0.264741
v -0.079225 0.000000 -0.261168
v -0.091945 0.000000 -0.256966
v -0.104443 0.000000 -0.252145
v -0.116689 0.000000 -0.246717
v -0.128654 0.000000 -0.240694
v -0.140310 0.000000 -0.234092
v -0.151627 0.000000 -0.226925
v -0.162579 0.000000 -0.219211
v -0.173140 0.000000 -0.210970
v -0.183283 0.000000 -0.202221
v -0.192985 0.000000 -0.192984
v -0.202221 0.000000 -0.183282
v -0.210971 0.000000 -0.173139
v -0.219212 0.000000 -0.162578
v -0.226926 0.000000 -0.151626
v -0.234092 0.000000 -0.140309
v -0.240695 0.000000 -0.128653
v -0.246718 0.000000 -0.116688
v -0.252146 0.000000 -0.104442
v -0.256967 0.000000 -0.091944
v -0.261169 0.000000 -0.079224
v -0.264742 0.000000 -0.066314
v -0.267677 0.000000 -0.053244
v -0.269967 0.000000 -0.040045
v -0.271607 0.000000 -0.026750
v -0.272592 0.000000 -0.013391
v -0.272921 0.000000 0.000000
v -0.272592 0.000000 0.013392
v -0.271607 0.000000 0.026751
v -0.269967 0.000000 0.040046
v -0.267677 0.000000 0.053245
v -0.264742 0.000000 0.066315
v -0.261169 0.000000 0.079225
v -0.256967 0.000000 0.091945
v -0.252146 0.000000 0.104443
v -0.246718 0.000000 0.116689
v -0.240695 0.000000 0.128654
v -0.234092 0.000000 0.140310
v -0.226926 0.000000 0.151627
v -0.219212 0.000000 0.162579
v -0.210971 0.000000 0.173139
v -0.202221 0.000000 0.183282
v -0.192985 0.000000 0.192984
v -0.183283 0.000000 0.202221
v -0.173140 0.000000 0.210971
v -0.162579 0.000000 0.219212
v -0.151627 0.000000 0.226925
v -0.140310 0.000000 0.234092
v -0.128655 0.000000 0.240695
v -0.116689 0.000000 0.246717
v -0.104443 0.000000 0.252146
v -0.091945 0.000000 0.256967
v -0.079225 0.000000 0.261169
v -0.066315 0.000000 0.264742
v -0.053245 0.000000 0.267677
v -0.040047 0.000000 0.269967
v -0.026752 0.000000 0.271607
v -0.013393 0.000000 0.272592
v -0.000001 0.000000 0.272921
v 0.013391 0.000000 0.272592
v 0.026750 0.000000 0.271607
v 0.040045 0.000000 0.269967
v 0.053243 0.000000 0.267677
v 0.066313 0.000000 0.264742
v 0.079223 0.000000 0.261169
v 0.091943 0.000000 0.256967
v 0.104441 0.000000 0.252146
v 0.116687 0.000000 0.246718
v 0.128653 0.000000 0.240695
v 0.140308 0.000000 0.234092
v 0.151625 0.000000 0.226926
v 0.162577 0.000000 0.219213
v 0.173138 0.000000 0.210971
v 0.183281 0.000000 0.202222
v 0.192983 0.000000 0.192985
v 0.202220 0.000000 0.183283
v 0.210969 0.000000 0.173140
v 0.219211 0.000000 0.162580
v 0.226924 0.000000 0.151628
v 0.234091 0.000000 0.140310
v 0.240693 0.000000 0.128655
v 0.246716 0.000000 0.116689
v 0.252145 0.000000 0.104443
v 0.256966 0.000000 0.091945
v 0.261168 0.000000 0.079225
v 0.264741 0.000000 0.066315
v 0.267676 0.000000 0.053245
v 0.269966 0.000000 0.040047
v 0.271606 0.000000 0.026752
v 0.272591 0.000000 0.013392
v 0.272920 0.000000 0.000001
v 0.272591 0.000000 -0.013391
v 0.271606 0.000000 -0.026750
v 0.269966 0.000000 -0.040045
v 0.267676 0.000000 -0.053244
v 0.264741 0.000000 -0.066314
v 0.261168 0.000000 -0.079224
v 0.256966 0.000000 -0.091944
v 0.252145 0.000000 -0.104442
v 0.246717 0.000000 -0.116688
v 0.240694 0.000000 -0.128654
v 0.234091 0.000000 -0.140309
v 0.226925 0.000000 -0.151626
v 0.219211 0.000000 -0.162578
v 0.210970 0.000000 -0.173139
v 0.202220 0.000000 -0.183282
v 0.192983 0.000000 -0.192984
v 0.183282 0.000000 -0.202221
v 0.173138 0.000000 -0.210970
v 0.162578 0.000000 -0.219212
v 0.151626 0.000000 -0.226925
v 0.140308 0.000000 -0.234092
v 0.128653 0.000000 -0.240694
v 0.116688 0.000000 -0.246717
v 0.104441 0.000000 -0.252146
v 0.091943 0.000000 -0.256967
v 0.079223 0.000000 -0.261168
v 0.066313 0.000000 -0.264741
v 0.053243 0.000000 -0.267676
v 0.040045 0.000000 -0.269966
v 0.026750 0.000000 -0.271606
v 0.013390 0.000000 -0.272592
v -0.000001 0.000000 -0.302749
v -0.014856 0.000000 -0.302385
v -0.029675 0.000000 -0.301292
v -0.044423 0.000000 -0.299473
v -0.059064 0.000000 -0.296932
v -0.073563 0.000000 -0.293676
v -0.087884 0.000000 -0.289713
v -0.101994 0.000000 -0.285052
v -0.115858 0.000000 -0.279704
v -0.129443 0.000000 -0.273682
v -0.142716 0.000000 -0.267001
v -0.155645 0.000000 -0.259677
v -0.168199 0.000000 -0.251727
v -0.180348 0.000000 -0.243170
v -0.192063 0.000000 -0.234028
v -0.203315 0.000000 -0.224323
v -0.214077 0.000000 -0.214076
v -0.224323 0.000000 -0.203314
v -0.234029 0.000000 -0.192062
v -0.243171 0.000000 -0.180347
v -0.251728 0.000000 -0.168198
v -0.259678 0.000000 -0.155644
v -0.267002 0.000000 -0.142715
v -0.273683 0.000000 -0.129442
v -0.279705 0.000000 -0.115857
v -0.285053 0.000000 -0.101993
v -0.289714 0.000000 -0.087883
v -0.293677 0.000000 -0.073562
v -0.296933 0.000000 -0.059063
v -0.299473 0.000000 -0.044422
v -0.301292 0.000000 -0.029674
v -0.302386 0.000000 -0.014855
v -0.302750 0.000000 0.000000
v -0.302386 0.000000 0.014856
v -0.301292 0.000000 0.029675
v -0.299473 0.000000 0.044423
v -0.296933 0.000000 0.059064
v -0.293677 0.000000 0.073563
v -0.289714 0.000000 0.087884
v -0.285053 0.000000 0.101994
v -0.279705 0.000000 0.115858
v -0.273683 0.000000 0.129443
v -0.267002 0.000000 0.142716
v -0.259678 0.000000 0.155645
v -0.251728 0.000000 0.168199
v -0.243171 0.000000 0.180348
v -0.234029 0.000000 0.192063
v -0.224323 0.000000 0.203315
v -0.214077 0.000000 0.214077
v -0.203315 0.000000 0.224323
v -0.192063 0.000000 0.234029
v -0.180348 0.000000 0.243171
v -0.168199 0.000000 0.251727
v -0.155645 0.000000 0.259677
v -0.142716 0.000000 0.267002
v -0.129443 0.000000 0.273683
v -0.115858 0.000000 0.279704
v -0.101994 0.000000 0.285052
v -0.087884 0.000000 0.289714
v -0.073563 0.000000 0.293677
v -0.059064 0.000000 0.296933
v -0.044424 0.000000 0.299473
v -0.029676 0.000000 0.301292
v -0.014856 0.000000 0.302385
v -0.000001 0.000000 0.302750
v 0.014854 0.000000 0.302385
v 0.029674 0.000000 0.301292
v 0.044421 0.000000 0.299473
v 0.059062 0.000000 0.296933
v 0.073561 0.000000 0.293677
v 0.087882 0.000000 0.289714
v 0.101992 0.000000 0.285053
v 0.115856 0.000000 0.279705
v 0.129441 0.000000 0.273683
v 0.142714 0.000000 0.267002
v 0.155643 0.000000 0.259678
v 0.168198 0.000000 0.251728
v 0.180346 0.000000 0.243172
v 0.192061 0.000000 0.234030
v 0.203313 0.000000 0.224324
v 0.214075 0.000000 0.214077
v 0.224322 0.000000 0.203315
v 0.234028 0.000000 0.192063
v 0.243170 0.000000 0.180349
v 0.251726 0.000000 0.168200
v 0.259676 0.000000 0.155646
v 0.267000 0.000000 0.142716
v 0.273682 0.000000 0.129443
v 0.279703 0.000000 0.115858
v 0.285051 0.000000 0.101994
v 0.289713 0.000000 0.087885
v 0.293676 0.000000 0.073563
v 0.296932 0.000000 0.059064
v 0.299472 0.000000 0.044423
v 0.301291 0.000000 0.029675
v 0.302385 0.000000 0.014856
v 0.302749 0.000000 0.000001
v 0.302385 0.000000 -0.014855
v 0.301291 0.000000 -0.029674
v 0.299472 0.000000 -0.044422
v 0.296932 0.000000 -0.059063
v 0.293676 0.000000 -0.073562
v 0.289713 0.000000 -0.087883
v 0.285052 0.000000 -0.101993
v 0.279704 0.000000 -0.115857
v 0.273682 0.000000 -0.129442
v 0.267001 0.000000 -0.142715
v 0.259677 0.000000 -0.155644
v 0.251727 0.000000 -0.168198
v 0.243170 0.000000 -0.180348
v 0.234028 0.000000 -0.192062
v 0.224322 0.000000 -0.203314
v 0.214076 0.000000 -0.214076
v 0.203314 0.000000 -0.224323
v 0.192062 0.000000 -0.234029
v 0.180347 0.000000 -0.243171
v 0.168198 0.000000 -0.251727
v 0.155644 0.000000 -0.259677
v 0.142714 0.000000 -0.267001
v 0.129441 0.000000 -0.273683
v 0.115856 0.000000 -0.279704
v 0.101992 0.000000 -0.285052
v 0.087882 0.000000 -0.289713
v 0.073561 0.000000 -0.293677
v 0.059062 0.000000 -0.296932
v 0.044421 0.000000 -0.299473
v 0.029673 0.000000 -0.301292
v 0.014854 0.000000 -0.302385
v -0.000000 0.000000 -0.329371
v -0.016162 0.000000 -0.328974
v -0.032285 0.000000 -0.327785
v -0.048329 0.000000 -0.325806
v -0.064258 0.000000 -0.323042
v -0.080031 0.000000 -0.319500
v -0.095612 0.000000 -0.315188
v -0.110962 0.000000 -0.310117
v -0.126045 0.000000 -0.304299
v -0.140825 0.000000 -0.297748
v -0.155265 0.000000 -0.290479
v -0.169331 0.000000 -0.282511
v -0.182989 0.000000 -0.273862
v -0.196207 0.000000 -0.264553
v -0.208952 0.000000 -0.254607
v -0.221193 0.000000 -0.244048
v -0.232901 0.000000 -0.232900
v -0.244049 0.000000 -0.221192
v -0.254608 0.000000 -0.208951
v -0.264554 0.000000 -0.196206
v -0.273863 0.000000 -0.182989
v -0.282512 0.000000 -0.169330
v -0.290480 0.000000 -0.155264
v -0.297749 0.000000 -0.140824
v -0.304300 0.000000 -0.126045
v -0.310118 0.000000 -0.110961
v -0.315189 0.000000 -0.095611
v -0.319501 0.000000 -0.080030
v -0.323043 0.000000 -0.064257
v -0.325807 0.000000 -0.048328
v -0.327786 0.000000 -0.032284
v -0.328975 0.000000 -0.016161
v -0.329372 0.000000 0.000000
v -0.328975 0.000000 0.016162
v -0.327786 0.000000 0.032284
v -0.325807 0.000000 0.048329
v -0.323043 0.000000 0.064258
v -0.319501 0.000000 0.080031
v -0.315189 0.000000 0.095612
v -0.310118 0.000000 0.110962
v -0.304300 0.000000 0.126045
v -0.297749 0.000000 0.140825
v -0.290480 0.000000 0.155265
v -0.282512 0.000000 0.169331
v -0.273863 0.000000 0.182989
v -0.264554 0.000000 0.196207
v -0.254608 0.000000 0.208951
v -0.244049 0.000000 0.221193
v -0.232901 0.000000 0.232901
v -0.221193 0.000000 0.244048
v -0.208952 0.000000 0.254608
v -0.196207 0.000000 0.264554
v -0.182990 0.000000 0.273862
v -0.169331 0.000000 0.282511
v -0.155265 0.000000 0.290480
v -0.140825 0.000000 0.297748
v -0.126046 0.000000 0.304300
v -0.110963 0.000000 0.310118
v -0.095612 0.000000 0.315189
v -0.080032 0.000000 0.319501
v -0.064258 0.000000 0.323043
v -0.048330 0.000000 0.325807
v -0.032285 0.000000 0.327786
v -0.016163 0.000000 0.328975
v -0.000001 0.000000 0.329372
v 0.016160 0.000000 0.328975
v 0.032283 0.000000 0.327786
v 0.048328 0.000000 0.325807
v 0.064256 0.000000 0.323043
v 0.080030 0.000000 0.319501
v 0.095610 0.000000 0.315189
v 0.110961 0.000000 0.310118
v 0.126044 0.000000 0.304300
v 0.140823 0.000000 0.297749
v 0.155263 0.000000 0.290480
v 0.169329 0.000000 0.282512
v 0.182988 0.000000 0.273863
v 0.196205 0.000000 0.264554
v 0.208950 0.000000 0.254608
v 0.221191 0.000000 0.244049
v 0.232899 0.000000 0.232902
v 0.244047 0.000000 0.221193
v 0.254606 0.000000 0.208952
v 0.264552 0.000000 0.196207
v 0.273861 0.000000 0.182990
v 0.282510 0.000000 0.169332
v 0.290479 0.000000 0.155266
v 0.297747 0.000000 0.140825
v 0.304299 0.000000 0.126046
v 0.310117 0.000000 0.110963
v 0.315188 0.000000 0.095612
v 0.319500 0.000000 0.080032
v 0.323042 0.000000 0.064258
v 0.325806 0.000000 0.048330
v 0.327785 0.000000 0.032285
v 0.328974 0.000000 0.016162
v 0.329371 0.000000 0.000001
v 0.328974 0.000000 -0.016161
v 0.327785 0.000000 -0.032283
v 0.325806 0.000000 -0.048328
v 0.323042 0.000000 -0.064257
v 0.319500 0.000000 -0.080030
v 0.315188 0.000000 -0.095611
v 0.310117 0.000000 -0.110961
v 0.304299 0.000000 -0.126045
v 0.297748 0.000000 -0.140824
v 0.290479 0.000000 -0.155264
v 0.282511 0.000000 -0.169330
v 0.273862 0.000000 -0.182989
v 0.264553 0.000000 -0.196206
v 0.254607 0.000000 -0.208951
v 0.244047 0.000000 -0.221192
v 0.232900 0.000000 -0.232901
v 0.221192 0.000000 -0.244048
v 0.208950 0.000000 -0.254607
v 0.196206 0.000000 -0.264554
v 0.182988 0.000000 -0.273862
v 0.169330 0.000000 -0.282511
v 0.155264 0.000000 -0.290480
v 0.140823 0.000000 -0.297748
v 0.126044 0.000000 -0.304300
v 0.110961 0.000000 -0.310118
v 0.095610 0.000000 -0.315189
v 0.080030 0.000000 -0.319500
v 0.064256 0.000000 -0.323042
v 0.048328 0.000000 -0.325806
v 0.032283 0.000000 -0.327785
v 0.016160 0.000000 -0.328974
v -0.000000 0.000000 -0.342704
v -0.016816 0.000000 -0.342292
v -0.033591 0.000000 -0.341054
v -0.050286 0.000000 -0.338995
v -0.066859 0.000000 -0.336119
v -0.083271 0.000000 -0.332434
v -0.099482 0.000000 -0.327947
v -0.115454 0.000000 -0.322671
v -0.131148 0.000000 -0.316618
v -0.146526 0.000000 -0.309801
v -0.161550 0.000000 -0.302238
v -0.176186 0.000000 -0.293947
v -0.190397 0.000000 -0.284948
v -0.204149 0.000000 -0.275263
v -0.217410 0.000000 -0.264914
v -0.230147 0.000000 -0.253927
v -0.242329 0.000000 -0.242328
v -0.253928 0.000000 -0.230146
v -0.264915 0.000000 -0.217409
v -0.275263 0.000000 -0.204149
v -0.284949 0.000000 -0.190396
v -0.293948 0.000000 -0.176185
v -0.302239 0.000000 -0.161549
v -0.309802 0.000000 -0.146525
v -0.316618 0.000000 -0.131147
v -0.322672 0.000000 -0.115453
v -0.327948 0.000000 -0.099481
v -0.332435 0.000000 -0.083270
v -0.336120 0.000000 -0.066858
v -0.338996 0.000000 -0.050285
v -0.341055 0.000000 -0.033591
v -0.342292 0.000000 -0.016815
v -0.342705 0.000000 0.000000
v -0.342292 0.000000 0.016816
v -0.341055 0.000000 0.033591
v -0.338996 0.000000 0.050286
v -0.336120 0.000000 0.066859
v -0.332435 0.000000 0.083271
v -0.327948 0.000000 0.099482
v -0.322672 0.000000 0.115454
v -0.316618 0.000000 0.131148
v -0.309802 0.000000 0.146526
v -0.302239 0.000000 0.161550
v -0.293948 0.000000 0.176186
v -0.284949 0.000000 0.190397
v -0.275263 0.000000 0.204149
v -0.264915 0.000000 0.217410
v -0.253928 0.000000 0.230147
v -0.242329 0.000000 0.242329
v -0.230147 0.000000 0.253927
v -0.217410 0.000000 0.264914
v -0.204149 0.000000 0.275263
v -0.190397 0.000000 0.284949
v -0.176186 0.000000 0.293948
v -0.161551 0.000000 0.302239
v -0.146526 0.000000 0.309801
v -0.131148 0.000000 0.316618
v -0.115455 0.000000 0.322672
v -0.099483 0.000000 0.327948
v -0.083271 0.000000 0.332434
v -0.066859 0.000000 0.336120
v -0.050286 0.000000 0.338996
v -0.033592 0.000000 0.341055
v -0.016817 0.000000 0.342292
v -0.000001 0.000000 0.342705
v 0.016815 0.000000 0.342292
v 0.033590 0.000000 0.341055
v 0.050284 0.000000 0.338996
v 0.066857 0.000000 0.336120
v 0.083269 0.000000 0.332435
v 0.099481 0.000000 0.327948
v 0.115452 0.000000 0.322672
v 0.131146 0.000000 0.316619
v 0.146524 0.000000 0.309802
v 0.161549 0.000000 0.302239
v 0.176184 0.000000 0.293948
v 0.190395 0.000000 0.284949
v 0.204148 0.000000 0.275264
v 0.217408 0.000000 0.264915
v 0.230145 0.000000 0.253928
v 0.242327 0.000000 0.242330
v 0.253926 0.000000 0.230147
v 0.264913 0.000000 0.217411
v 0.275262 0.000000 0.204150
v 0.284947 0.000000 0.190398
v 0.293946 0.000000 0.176187
v 0.302238 0.000000 0.161551
v 0.309800 0.000000 0.146526
v 0.316617 0.000000 0.131148
v 0.322671 0.000000 0.115455
v 0.327947 0.000000 0.099483
v 0.332433 0.000000 0.083271
v 0.336119 0.000000 0.066859
v 0.338995 0.000000 0.050286
v 0.341054 0.000000 0.033592
v 0.342291 0.000000 0.016817
v 0.342704 0.000000 0.000001
v 0.342291 0.000000 -0.016815
v 0.341054 0.000000 -0.033590
v 0.338995 0.000000 -0.050285
v 0.336119 0.000000 -0.066858
v 0.332434 0.000000 -0.083270
v 0.327948 0.000000 -0.099481
v 0.322671 0.000000 -0.115453
v 0.316617 0.000000 -0.131147
v 0.309801 0.000000 -0.146525
v 0.302238 0.000000 -0.161550
v 0.293947 0.000000 -0.176185
v 0.284948 0.000000 -0.190396
v 0.275262 0.000000 -0.204149
v 0.264914 0.000000 -0.217409
v 0.253927 0.000000 -0.230146
v 0.242328 0.000000 -0.242329
v 0.230146 0.000000 -0.253927
v 0.217409 0.000000 -0.264914
v 0.204148 0.000000 -0.275263
v 0.190396 0.000000 -0.284949
v 0.176184 0.000000 -0.293948
v 0.161549 0.000000 -0.302238
v 0.146524 0.000000 -0.309801
v 0.131146 0.000000 -0.316618
v 0.115453 0.000000 -0.322672
v 0.099481 0.000000 -0.327948
v 0.083269 0.000000 -0.332434
v 0.066857 0.000000 -0.336119
v 0.050284 0.000000 -0.338995
v 0.033590 0.000000 -0.341054
v 0.016814 0.000000 -0.342292
usemtl None
s off
f 209 81 208
f 14 13 142
f 101 100 229
f 182 54 181
f 249 121 248
f 135 7 134
f 74 73 202
f 27 26 155
f 222 94 221
f 175 47 174
f 114 113 242
f 195 67 194
f 148 20 147
f 87 86 215
f 40 39 168
f 107 106 235
f 60 59 188
f 127 126 255
f 141 13 140
f 80 79 208
f 33 32 161
f 100 99 228
f 53 52 181
f 120 119 248
f 6 5 134
f 73 72 201
f 93 92 221
f 154 26 153
f 174 46 173
f 241 113 240
f 194 66 193
f 147 19 146
f 86 85 214
f 39 38 167
f 234 106 233
f 59 58 187
f 254 126 253
f 12 11 140
f 79 78 207
f 32 31 160
f 227 99 226
f 180 52 179
f 247 119 246
f 133 5 132
f 200 72 199
f 153 25 152
f 220 92 219
f 45 44 173
f 112 111 240
f 65 64 193
f 146 18 145
f 85 84 213
f 166 38 165
f 105 104 233
f 186 58 185
f 253 125 252
f 139 11 138
f 78 77 206
f 159 31 158
f 98 97 226
f 51 50 179
f 246 118 245
f 71 70 199
f 4 3 132
f 24 23 152
f 91 90 219
f 44 43 172
f 111 110 239
f 64 63 192
f 145 17 144
f 212 84 211
f 232 104 231
f 37 36 165
f 185 57 184
f 124 123 252
f 138 10 137
f 205 77 204
f 158 30 157
f 225 97 224
f 178 50 177
f 245 117 244
f 131 3 130
f 198 70 197
f 23 22 151
f 218 90 217
f 171 43 170
f 110 109 238
f 191 63 190
f 144 16 143
f 83 82 211
f 36 35 164
f 103 102 231
f 184 56 183
f 251 123 250
f 9 8 137
f 76 75 204
f 157 29 156
f 96 95 224
f 49 48 177
f 116 115 244
f 69 68 197
f 150 22 149
f 89 88 217
f 42 41 170
f 237 109 236
f 62 61 190
f 129 1 256
f 210 82 209
f 15 14 143
f 2 1 130
f 163 35 162
f 230 102 229
f 55 54 183
f 250 122 249
f 8 7 136
f 75 74 203
f 28 27 156
f 95 94 223
f 176 48 175
f 243 115 242
f 68 67 196
f 21 20 149
f 216 88 215
f 108 107 236
f 169 41 168
f 189 61 188
f 128 127 256
f 162 34 161
f 127 255 256
f 61 60 188
f 41 40 168
f 107 235 236
f 88 87 215
f 20 148 149
f 67 195 196
f 115 114 242
f 48 47 175
f 94 222 223
f 27 155 156
f 74 202 203
f 7 135 136
f 122 121 249
f 54 182 183
f 102 101 229
f 35 34 162
f 1 129 130
f 14 142 143
f 82 81 209
f 1 128 256
f 61 189 190
f 109 108 236
f 41 169 170
f 88 216 217
f 22 21 149
f 68 196 197
f 115 243 244
f 48 176 177
f 95 223 224
f 29 28 156
f 75 203 204
f 8 136 137
f 123 122 250
f 56 55 183
f 102 230 231
f 35 163 164
f 82 210 211
f 16 15 143
f 63 62 190
f 109 237 238
f 43 42 170
f 90 89 217
f 22 150 151
f 70 69 197
f 3 2 130
f 117 116 244
f 50 49 177
f 97 96 224
f 30 29 157
f 77 76 204
f 10 9 137
f 123 251 252
f 57 56 184
f 36 164 165
f 104 103 231
f 84 83 211
f 17 16 144
f 63 191 192
f 110 238 239
f 43 171 172
f 90 218 219
f 23 151 152
f 3 131 132
f 70 198 199
f 118 117 245
f 50 178 179
f 97 225 226
f 31 30 158
f 77 205 206
f 11 10 138
f 125 124 252
f 58 57 185
f 104 232 233
f 38 37 165
f 84 212 213
f 18 17 145
f 64 192 193
f 111 239 240
f 44 172 173
f 92 91 219
f 25 24 152
f 72 71 199
f 5 4 132
f 119 118 246
f 52 51 179
f 99 98 226
f 31 159 160
f 78 206 207
f 11 139 140
f 126 125 253
f 58 186 187
f 106 105 233
f 38 166 167
f 85 213 214
f 19 18 146
f 66 65 193
f 113 112 240
f 46 45 173
f 26 25 153
f 92 220 221
f 72 200 201
f 5 133 134
f 119 247 248
f 52 180 181
f 99 227 228
f 32 160 161
f 79 207 208
f 13 12 140
f 126 254 255
f 59 187 188
f 106 234 235
f 39 167 168
f 86 214 215
f 20 19 147
f 67 66 194
f 113 241 242
f 47 46 174
f 94 93 221
f 26 154 155
f 73 201 202
f 7 6 134
f 121 120 248
f 54 53 181
f 100 228 229
f 34 33 161
f 81 80 208
f 13 141 142
f 194 193 321
f 220 348 349
f 154 153 281
f 247 375 376
f 180 308 309
f 207 335 336
f 141 140 268
f 234 362 363
f 167 295 296
f 195 194 322
f 222 221 349
f 154 282 283
f 249 248 376
f 182 181 309
f 209 208 336
f 141 269 270
f 235 363 364
f 169 168 296
f 195 323 324
f 222 350 351
f 155 283 284
f 250 249 377
f 182 310 311
f 210 209 337
f 142 270 271
f 237 236 364
f 169 297 298
f 196 324 325
f 129 257 258
f 223 351 352
f 157 156 284
f 251 250 378
f 184 183 311
f 210 338 339
f 144 143 271
f 237 365 366
f 171 170 298
f 198 197 325
f 131 130 258
f 225 224 352
f 158 157 285
f 251 379 380
f 185 184 312
f 212 211 339
f 145 144 272
f 238 366 367
f 171 299 300
f 198 326 327
f 131 259 260
f 225 353 354
f 159 158 286
f 253 252 380
f 186 185 313
f 212 340 341
f 146 145 273
f 239 367 368
f 172 300 301
f 200 199 327
f 133 132 260
f 159 287 288
f 227 226 354
f 254 253 381
f 186 314 315
f 213 341 342
f 147 146 274
f 241 240 368
f 174 173 301
f 200 328 329
f 133 261 262
f 227 355 356
f 160 288 289
f 255 254 382
f 187 315 316
f 214 342 343
f 148 147 275
f 241 369 370
f 175 174 302
f 201 329 330
f 135 134 262
f 228 356 357
f 162 161 289
f 255 383 384
f 189 188 316
f 216 215 343
f 148 276 277
f 243 242 370
f 176 175 303
f 202 330 331
f 135 263 264
f 230 229 357
f 163 162 290
f 129 256 384
f 189 317 318
f 216 344 345
f 150 149 277
f 243 371 372
f 176 304 305
f 203 331 332
f 136 264 265
f 230 358 359
f 163 291 292
f 191 190 318
f 218 217 345
f 150 278 279
f 245 244 372
f 178 177 305
f 138 137 265
f 205 204 332
f 232 231 359
f 164 292 293
f 191 319 320
f 218 346 347
f 151 279 280
f 246 245 373
f 178 306 307
f 205 333 334
f 139 138 266
f 232 360 361
f 166 165 293
f 192 320 321
f 219 347 348
f 153 152 280
f 247 246 374
f 180 179 307
f 206 334 335
f 139 267 268
f 234 233 361
f 166 294 295
f 333 461 462
f 266 394 395
f 360 488 489
f 294 293 421
f 320 448 449
f 347 475 476
f 281 280 408
f 375 374 502
f 308 307 435
f 334 462 463
f 267 395 396
f 362 361 489
f 294 422 423
f 322 321 449
f 348 476 477
f 282 281 409
f 375 503 504
f 308 436 437
f 269 268 396
f 335 463 464
f 362 490 491
f 295 423 424
f 323 322 450
f 350 349 477
f 282 410 411
f 377 376 504
f 310 309 437
f 337 336 464
f 269 397 398
f 363 491 492
f 297 296 424
f 323 451 452
f 350 478 479
f 283 411 412
f 378 377 505
f 310 438 439
f 338 337 465
f 270 398 399
f 365 364 492
f 297 425 426
f 324 452 453
f 257 385 386
f 352 351 479
f 285 284 412
f 379 378 506
f 312 311 439
f 338 466 467
f 271 399 400
f 365 493 494
f 299 298 426
f 326 325 453
f 259 258 386
f 353 352 480
f 286 285 413
f 379 507 508
f 313 312 440
f 340 339 467
f 273 272 400
f 366 494 495
f 299 427 428
f 326 454 455
f 259 387 388
f 353 481 482
f 287 286 414
f 381 380 508
f 314 313 441
f 340 468 469
f 274 273 401
f 367 495 496
f 300 428 429
f 328 327 455
f 261 260 388
f 355 354 482
f 287 415 416
f 382 381 509
f 314 442 443
f 341 469 470
f 275 274 402
f 369 368 496
f 302 301 429
f 328 456 457
f 261 389 390
f 356 355 483
f 288 416 417
f 383 382 510
f 315 443 444
f 342 470 471
f 276 275 403
f 369 497 498
f 303 302 430
f 329 457 458
f 263 262 390
f 356 484 485
f 290 289 417
f 383 511 512
f 317 316 444
f 344 343 471
f 276 404 405
f 371 370 498
f 304 303 431
f 330 458 459
f 263 391 392
f 291 290 418
f 358 357 485
f 257 384 512
f 317 445 446
f 344 472 473
f 278 277 405
f 371 499 500
f 304 432 433
f 331 459 460
f 264 392 393
f 358 486 487
f 291 419 420
f 319 318 446
f 346 345 473
f 278 406 407
f 373 372 500
f 306 305 433
f 333 332 460
f 266 265 393
f 360 359 487
f 292 420 421
f 319 447 448
f 347 346 474
f 279 407 408
f 374 373 501
f 306 434 435
f 474 473 601
f 406 534 535
f 501 500 628
f 434 433 561
f 461 460 588
f 394 393 521
f 488 487 615
f 420 548 549
f 447 575 576
f 475 474 602
f 407 535 536
f 502 501 629
f 434 562 563
f 461 589 590
f 394 522 523
f 422 421 549
f 488 616 617
f 448 576 577
f 475 603 604
f 409 408 536
f 503 502 630
f 436 435 563
f 462 590 591
f 395 523 524
f 490 489 617
f 422 550 551
f 450 449 577
f 476 604 605
f 410 409 537
f 503 631 632
f 436 564 565
f 463 591 592
f 397 396 524
f 490 618 619
f 423 551 552
f 451 450 578
f 478 477 605
f 410 538 539
f 505 504 632
f 438 437 565
f 465 464 592
f 397 525 526
f 491 619 620
f 425 424 552
f 451 579 580
f 478 606 607
f 411 539 540
f 506 505 633
f 438 566 567
f 466 465 593
f 398 526 527
f 493 492 620
f 425 553 554
f 452 580 581
f 385 513 514
f 480 479 607
f 413 412 540
f 507 506 634
f 440 439 567
f 399 527 528
f 466 594 595
f 493 621 622
f 427 426 554
f 454 453 581
f 387 386 514
f 481 480 608
f 414 413 541
f 507 635 636
f 441 440 568
f 468 467 595
f 401 400 528
f 494 622 623
f 427 555 556
f 454 582 583
f 387 515 516
f 481 609 610
f 414 542 543
f 509 508 636
f 442 441 569
f 468 596 597
f 402 401 529
f 495 623 624
f 428 556 557
f 456 455 583
f 389 388 516
f 483 482 610
f 415 543 544
f 509 637 638
f 442 570 571
f 469 597 598
f 403 402 530
f 497 496 624
f 430 429 557
f 456 584 585
f 389 517 518
f 484 483 611
f 416 544 545
f 511 510 638
f 443 571 572
f 470 598 599
f 404 403 531
f 497 625 626
f 431 430 558
f 457 585 586
f 391 390 518
f 484 612 613
f 418 417 545
f 511 639 640
f 445 444 572
f 472 471 599
f 404 532 533
f 499 498 626
f 431 559 560
f 459 458 586
f 391 519 520
f 486 485 613
f 419 418 546
f 385 512 640
f 445 573 574
f 472 600 601
f 406 405 533
f 499 627 628
f 432 560 561
f 459 587 588
f 392 520 521
f 486 614 615
f 420 419 547
f 447 446 574
f 614 613 741
f 547 546 674
f 513 640 768
f 573 701 702
f 600 728 729
f 534 533 661
f 627 755 756
f 560 688 689
f 587 715 716
f 520 648 649
f 614 742 743
f 547 675 676
f 575 574 702
f 602 601 729
f 534 662 663
f 629 628 756
f 562 561 689
f 589 588 716
f 522 521 649
f 616 615 743
f 548 676 677
f 575 703 704
f 603 602 730
f 536 535 663
f 630 629 757
f 562 690 691
f 589 717 718
f 523 522 650
f 616 744 745
f 550 549 677
f 576 704 705
f 603 731 732
f 537 536 664
f 631 630 758
f 564 563 691
f 590 718 719
f 523 651 652
f 618 617 745
f 550 678 679
f 578 577 705
f 604 732 733
f 538 537 665
f 631 759 760
f 564 692 693
f 591 719 720
f 525 524 652
f 618 746 747
f 551 679 680
f 579 578 706
f 606 605 733
f 538 666 667
f 633 632 760
f 566 565 693
f 593 592 720
f 525 653 654
f 553 552 680
f 619 747 748
f 579 707 708
f 606 734 735
f 539 667 668
f 633 761 762
f 566 694 695
f 594 593 721
f 526 654 655
f 621 620 748
f 553 681 682
f 580 708 709
f 513 641 642
f 608 607 735
f 541 540 668
f 635 634 762
f 567 695 696
f 594 722 723
f 527 655 656
f 621 749 750
f 555 554 682
f 582 581 709
f 515 514 642
f 609 608 736
f 542 541 669
f 635 763 764
f 569 568 696
f 596 595 723
f 529 528 656
f 622 750 751
f 555 683 684
f 515 643 644
f 582 710 711
f 609 737 738
f 543 542 670
f 637 636 764
f 570 569 697
f 596 724 725
f 530 529 657
f 623 751 752
f 556 684 685
f 584 583 711
f 517 516 644
f 610 738 739
f 543 671 672
f 637 765 766
f 570 698 699
f 531 530 658
f 597 725 726
f 625 624 752
f 558 557 685
f 584 712 713
f 517 645 646
f 612 611 739
f 545 544 672
f 639 638 766
f 571 699 700
f 598 726 727
f 532 531 659
f 625 753 754
f 559 558 686
f 585 713 714
f 519 518 646
f 612 740 741
f 545 673 674
f 639 767 768
f 573 572 700
f 600 599 727
f 532 660 661
f 627 626 754
f 559 687 688
f 587 586 714
f 519 647 648
f 753 881 882
f 687 686 814
f 647 646 774
f 713 841 842
f 740 868 869
f 673 801 802
f 767 895 896
f 701 700 828
f 728 727 855
f 660 788 789
f 755 754 882
f 688 687 815
f 715 714 842
f 647 775 776
f 742 741 869
f 675 674 802
f 641 768 896
f 701 829 830
f 662 661 789
f 728 856 857
f 755 883 884
f 688 816 817
f 715 843 844
f 648 776 777
f 742 870 871
f 675 803 804
f 703 702 830
f 730 729 857
f 662 790 791
f 757 756 884
f 690 689 817
f 717 716 844
f 650 649 777
f 744 743 871
f 676 804 805
f 703 831 832
f 731 730 858
f 663 791 792
f 758 757 885
f 690 818 819
f 717 845 846
f 651 650 778
f 744 872 873
f 678 677 805
f 704 832 833
f 731 859 860
f 665 664 792
f 759 758 886
f 692 691 819
f 718 846 847
f 651 779 780
f 746 745 873
f 678 806 807
f 706 705 833
f 732 860 861
f 666 665 793
f 759 887 888
f 692 820 821
f 719 847 848
f 653 652 780
f 746 874 875
f 679 807 808
f 707 706 834
f 734 733 861
f 666 794 795
f 761 760 888
f 694 693 821
f 721 720 848
f 653 781 782
f 747 875 876
f 681 680 808
f 707 835 836
f 734 862 863
f 667 795 796
f 761 889 890
f 694 822 823
f 722 721 849
f 654 782 783
f 749 748 876
f 681 809 810
f 708 836 837
f 641 769 770
f 736 735 863
f 669 668 796
f 763 762 890
f 695 823 824
f 722 850 851
f 655 783 784
f 749 877 878
f 683 682 810
f 710 709 837
f 643 642 770
f 737 736 864
f 670 669 797
f 763 891 892
f 697 696 824
f 724 723 851
f 657 656 784
f 683 811 812
f 750 878 879
f 710 838 839
f 643 771 772
f 737 865 866
f 671 670 798
f 765 764 892
f 697 825 826
f 724 852 853
f 658 657 785
f 751 879 880
f 684 812 813
f 712 711 839
f 645 644 772
f 738 866 867
f 671 799 800
f 765 893 894
f 698 826 827
f 725 853 854
f 659 658 786
f 753 752 880
f 686 685 813
f 712 840 841
f 645 773 774
f 740 739 867
f 673 672 800
f 767 766 894
f 700 699 827
f 726 854 855
f 660 659 787
f 826 954 955
f 874 873 1001
f 853 981 982
f 787 786 914
f 814 813 941
f 840 968 969
f 773 901 902
f 887 1015 1016
f 868 867 995
f 801 800 928
f 828 827 955
f 854 982 983
f 788 787 915
f 874 1002 1003
f 815 814 942
f 841 969 970
f 775 774 902
f 889 888 1016
f 868 996 997
f 801 929 930
f 829 828 956
f 856 855 983
f 788 916 917
f 875 1003 1004
f 816 815 943
f 843 842 970
f 775 903 904
f 889 1017 1018
f 870 869 997
f 803 802 930
f 829 957 958
f 856 984 985
f 790 789 917
f 877 876 1004
f 816 944 945
f 843 971 972
f 776 904 905
f 891 890 1018
f 870 998 999
f 803 931 932
f 831 830 958
f 858 857 985
f 790 918 919
f 877 1005 1006
f 818 817 945
f 778 777 905
f 845 844 972
f 891 1019 1020
f 804 932 933
f 831 959 960
f 859 858 986
f 791 919 920
f 878 1006 1007
f 818 946 947
f 845 973 974
f 779 778 906
f 893 892 1020
f 806 805 933
f 832 960 961
f 793 792 920
f 880 879 1007
f 859 987 988
f 820 819 947
f 846 974 975
f 779 907 908
f 893 1021 1022
f 806 934 935
f 834 833 961
f 881 880 1008
f 860 988 989
f 794 793 921
f 820 948 949
f 847 975 976
f 781 780 908
f 895 894 1022
f 807 935 936
f 835 834 962
f 881 1009 1010
f 862 861 989
f 794 922 923
f 822 821 949
f 849 848 976
f 781 909 910
f 895 1023 1024
f 809 808 936
f 835 963 964
f 883 882 1010
f 862 990 991
f 795 923 924
f 822 950 951
f 850 849 977
f 782 910 911
f 769 896 1024
f 809 937 938
f 836 964 965
f 769 897 898
f 883 1011 1012
f 864 863 991
f 797 796 924
f 824 823 951
f 850 978 979
f 783 911 912
f 811 810 938
f 838 837 965
f 771 770 898
f 885 884 1012
f 865 864 992
f 798 797 925
f 825 824 952
f 852 851 979
f 785 784 912
f 872 871 999
f 811 939 940
f 838 966 967
f 771 899 900
f 886 885 1013
f 865 993 994
f 799 798 926
f 825 953 954
f 872 1000 1001
f 852 980 981
f 786 785 913
f 812 940 941
f 840 839 967
f 773 772 900
f 887 886 1014
f 866 994 995
f 799 927 928
f 987 986 1114
f 919 1047 1048
f 1014 1013 1141
f 946 1074 1075
f 973 1101 1102
f 907 906 1034
f 1000 1128 1129
f 934 933 1061
f 960 1088 1089
f 987 1115 1116
f 921 920 1048
f 1015 1014 1142
f 948 947 1075
f 974 1102 1103
f 907 1035 1036
f 1002 1001 1129
f 934 1062 1063
f 962 961 1089
f 988 1116 1117
f 922 921 1049
f 1015 1143 1144
f 948 1076 1077
f 909 908 1036
f 975 1103 1104
f 1002 1130 1131
f 935 1063 1064
f 963 962 1090
f 990 989 1117
f 922 1050 1051
f 1017 1016 1144
f 950 949 1077
f 977 976 1104
f 909 1037 1038
f 1003 1131 1132
f 937 936 1064
f 963 1091 1092
f 923 1051 1052
f 990 1118 1119
f 1017 1145 1146
f 950 1078 1079
f 978 977 1105
f 910 1038 1039
f 1005 1004 1132
f 937 1065 1066
f 964 1092 1093
f 897 1025 1026
f 992 991 1119
f 925 924 1052
f 1019 1018 1146
f 952 951 1079
f 978 1106 1107
f 911 1039 1040
f 1005 1133 1134
f 939 938 1066
f 966 965 1093
f 899 898 1026
f 993 992 1120
f 926 925 1053
f 1019 1147 1148
f 953 952 1080
f 980 979 1107
f 913 912 1040
f 1006 1134 1135
f 939 1067 1068
f 966 1094 1095
f 899 1027 1028
f 993 1121 1122
f 927 926 1054
f 1021 1020 1148
f 953 1081 1082
f 980 1108 1109
f 914 913 1041
f 1008 1007 1135
f 940 1068 1069
f 968 967 1095
f 901 900 1028
f 994 1122 1123
f 927 1055 1056
f 1021 1149 1150
f 954 1082 1083
f 981 1109 1110
f 915 914 1042
f 1009 1008 1136
f 942 941 1069
f 968 1096 1097
f 901 1029 1030
f 996 995 1123
f 929 928 1056
f 1023 1022 1150
f 956 955 1083
f 982 1110 1111
f 916 915 1043
f 1009 1137 1138
f 943 942 1070
f 969 1097 1098
f 903 902 1030
f 996 1124 1125
f 929 1057 1058
f 1023 1151 1152
f 957 956 1084
f 984 983 1111
f 916 1044 1045
f 1011 1010 1138
f 943 1071 1072
f 971 970 1098
f 903 1031 1032
f 998 997 1125
f 931 930 1058
f 897 1024 1152
f 957 1085 1086
f 984 1112 1113
f 918 917 1045
f 1011 1139 1140
f 944 1072 1073
f 971 1099 1100
f 904 1032 1033
f 998 1126 1127
f 931 1059 1060
f 959 958 1086
f 986 985 1113
f 918 1046 1047
f 1013 1012 1140
f 946 945 1073
f 973 972 1100
f 906 905 1033
f 1000 999 1127
f 932 1060 1061
f 959 1087 1088
f 1126 1254 1255
f 1059 1187 1188
f 1087 1086 1214
f 1114 1113 1241
f 1046 1174 1175
f 1141 1140 1268
f 1074 1073 1201
f 1101 1100 1228
f 1034 1033 1161
f 1128 1127 1255
f 1060 1188 1189
f 1088 1087 1215
f 1115 1114 1242
f 1047 1175 1176
f 1142 1141 1269
f 1074 1202 1203
f 1101 1229 1230
f 1035 1034 1162
f 1128 1256 1257
f 1062 1061 1189
f 1088 1216 1217
f 1115 1243 1244
f 1049 1048 1176
f 1143 1142 1270
f 1076 1075 1203
f 1102 1230 1231
f 1035 1163 1164
f 1130 1129 1257
f 1062 1190 1191
f 1090 1089 1217
f 1116 1244 1245
f 1050 1049 1177
f 1143 1271 1272
f 1076 1204 1205
f 1103 1231 1232
f 1037 1036 1164
f 1130 1258 1259
f 1063 1191 1192
f 1091 1090 1218
f 1118 1117 1245
f 1050 1178 1179
f 1145 1144 1272
f 1078 1077 1205
f 1105 1104 1232
f 1037 1165 1166
f 1131 1259 1260
f 1065 1064 1192
f 1092 1091 1219
f 1118 1246 1247
f 1051 1179 1180
f 1145 1273 1274
f 1078 1206 1207
f 1106 1105 1233
f 1038 1166 1167
f 1133 1132 1260
f 1066 1065 1193
f 1092 1220 1221
f 1025 1153 1154
f 1120 1119 1247
f 1053 1052 1180
f 1147 1146 1274
f 1080 1079 1207
f 1039 1167 1168
f 1106 1234 1235
f 1133 1261 1262
f 1067 1066 1194
f 1094 1093 1221
f 1027 1026 1154
f 1121 1120 1248
f 1054 1053 1181
f 1147 1275 1276
f 1081 1080 1208
f 1108 1107 1235
f 1041 1040 1168
f 1134 1262 1263
f 1067 1195 1196
f 1094 1222 1223
f 1027 1155 1156
f 1055 1054 1182
f 1121 1249 1250
f 1149 1148 1276
f 1081 1209 1210
f 1108 1236 1237
f 1042 1041 1169
f 1136 1135 1263
f 1068 1196 1197
f 1096 1095 1223
f 1029 1028 1156
f 1122 1250 1251
f 1055 1183 1184
f 1149 1277 1278
f 1082 1210 1211
f 1109 1237 1238
f 1043 1042 1170
f 1137 1136 1264
f 1070 1069 1197
f 1096 1224 1225
f 1029 1157 1158
f 1124 1123 1251
f 1057 1056 1184
f 1151 1150 1278
f 1084 1083 1211
f 1110 1238 1239
f 1044 1043 1171
f 1137 1265 1266
f 1071 1070 1198
f 1097 1225 1226
f 1031 1030 1158
f 1124 1252 1253
f 1057 1185 1186
f 1151 1279 1280
f 1085 1084 1212
f 1112 1111 1239
f 1044 1172 1173
f 1139 1138 1266
f 1072 1071 1199
f 1099 1098 1226
f 1031 1159 1160
f 1126 1125 1253
f 1059 1058 1186
f 1025 1152 1280
f 1085 1213 1214
f 1112 1240 1241
f 1046 1045 1173
f 1139 1267 1268
f 1072 1200 1201
f 1099 1227 1228
f 1032 1160 1161
f 1267 1266 1394
f 1200 1199 1327
f 1227 1226 1354
f 1159 1287 1288
f 1254 1253 1381
f 1187 1186 1314
f 1153 1280 1408
f 1213 1341 1342
f 1240 1368 1369
f 1174 1173 1301
f 1267 1395 1396
f 1200 1328 1329
f 1227 1355 1356
f 1160 1288 1289
f 1254 1382 1383
f 1187 1315 1316
f 1215 1214 1342
f 1242 1241 1369
f 1174 1302 1303
f 1269 1268 1396
f 1202 1201 1329
f 1229 1228 1356
f 1162 1161 1289
f 1256 1255 1383
f 1188 1316 1317
f 1216 1215 1343
f 1243 1242 1370
f 1175 1303 1304
f 1270 1269 1397
f 1202 1330 1331
f 1229 1357 1358
f 1162 1290 1291
f 1256 1384 1385
f 1190 1189 1317
f 1216 1344 1345
f 1243 1371 1372
f 1177 1176 1304
f 1271 1270 1398
f 1204 1203 1331
f 1230 1358 1359
f 1163 1291 1292
f 1258 1257 1385
f 1190 1318 1319
f 1218 1217 1345
f 1244 1372 1373
f 1178 1177 1305
f 1271 1399 1400
f 1204 1332 1333
f 1231 1359 1360
f 1165 1164 1292
f 1258 1386 1387
f 1191 1319 1320
f 1219 1218 1346
f 1246 1245 1373
f 1178 1306 1307
f 1273 1272 1400
f 1206 1205 1333
f 1233 1232 1360
f 1165 1293 1294
f 1259 1387 1388
f 1193 1192 1320
f 1220 1219 1347
f 1246 1374 1375
f 1179 1307 1308
f 1273 1401 1402
f 1206 1334 1335
f 1234 1233 1361
f 1166 1294 1295
f 1261 1260 1388
f 1194 1193 1321
f 1220 1348 1349
f 1153 1281 1282
f 1248 1247 1375
f 1181 1180 1308
f 1275 1274 1402
f 1208 1207 1335
f 1234 1362 1363
f 1167 1295 1296
f 1261 1389 1390
f 1195 1194 1322
f 1222 1221 1349
f 1155 1154 1282
f 1249 1248 1376
f 1182 1181 1309
f 1275 1403 1404
f 1208 1336 1337
f 1236 1235 1363
f 1169 1168 1296
f 1262 1390 1391
f 1195 1323 1324
f 1222 1350 1351
f 1155 1283 1284
f 1249 1377 1378
f 1183 1182 1310
f 1277 1276 1404
f 1210 1209 1337
f 1236 1364 1365
f 1170 1169 1297
f 1264 1263 1391
f 1196 1324 1325
f 1224 1223 1351
f 1157 1156 1284
f 1250 1378 1379
f 1183 1311 1312
f 1277 1405 1406
f 1210 1338 1339
f 1171 1170 1298
f 1237 1365 1366
f 1265 1264 1392
f 1198 1197 1325
f 1224 1352 1353
f 1157 1285 1286
f 1252 1251 1379
f 1185 1184 1312
f 1279 1278 1406
f 1212 1211 1339
f 1238 1366 1367
f 1172 1171 1299
f 1265 1393 1394
f 1199 1198 1326
f 1225 1353 1354
f 1159 1158 1286
f 1185 1313 1314
f 1252 1380 1381
f 1279 1407 1408
f 1212 1340 1341
f 1240 1239 1367
f 1172 1300 1301
f 1407 1406 1534
f 1340 1339 1467
f 1366 1494 1495
f 1300 1299 1427
f 1393 1521 1522
f 1327 1326 1454
f 1354 1353 1481
f 1287 1286 1414
f 1380 1508 1509
f 1313 1441 1442
f 1407 1535 1536
f 1340 1468 1469
f 1368 1367 1495
f 1300 1428 1429
f 1395 1394 1522
f 1327 1455 1456
f 1355 1354 1482
f 1287 1415 1416
f 1382 1381 1509
f 1315 1314 1442
f 1281 1408 1536
f 1341 1469 1470
f 1302 1301 1429
f 1368 1496 1497
f 1395 1523 1524
f 1328 1456 1457
f 1355 1483 1484
f 1288 1416 1417
f 1382 1510 1511
f 1315 1443 1444
f 1343 1342 1470
f 1370 1369 1497
f 1302 1430 1431
f 1397 1396 1524
f 1330 1329 1457
f 1357 1356 1484
f 1290 1289 1417
f 1316 1444 1445
f 1384 1383 1511
f 1344 1343 1471
f 1371 1370 1498
f 1303 1431 1432
f 1398 1397 1525
f 1330 1458 1459
f 1357 1485 1486
f 1290 1418 1419
f 1384 1512 1513
f 1318 1317 1445
f 1344 1472 1473
f 1371 1499 1500
f 1305 1304 1432
f 1399 1398 1526
f 1332 1331 1459
f 1358 1486 1487
f 1291 1419 1420
f 1386 1385 1513
f 1318 1446 1447
f 1346 1345 1473
f 1372 1500 1501
f 1306 1305 1433
f 1399 1527 1528
f 1332 1460 1461
f 1359 1487 1488
f 1293 1292 1420
f 1386 1514 1515
f 1319 1447 1448
f 1347 1346 1474
f 1374 1373 1501
f 1306 1434 1435
f 1401 1400 1528
f 1334 1333 1461
f 1361 1360 1488
f 1293 1421 1422
f 1387 1515 1516
f 1321 1320 1448
f 1348 1347 1475
f 1374 1502 1503
f 1307 1435 1436
f 1401 1529 1530
f 1334 1462 1463
f 1362 1361 1489
f 1294 1422 1423
f 1389 1388 1516
f 1322 1321 1449
f 1348 1476 1477
f 1281 1409 1410
f 1376 1375 1503
f 1309 1308 1436
f 1403 1402 1530
f 1336 1335 1463
f 1362 1490 1491
f 1295 1423 1424
f 1389 1517 1518
f 1323 1322 1450
f 1350 1349 1477
f 1283 1282 1410
f 1377 1376 1504
f 1310 1309 1437
f 1403 1531 1532
f 1336 1464 1465
f 1364 1363 1491
f 1297 1296 1424
f 1390 1518 1519
f 1323 1451 1452
f 1350 1478 1479
f 1283 1411 1412
f 1377 1505 1506
f 1311 1310 1438
f 1405 1404 1532
f 1338 1337 1465
f 1364 1492 1493
f 1298 1297 1425
f 1392 1391 1519
f 1324 1452 1453
f 1352 1351 1479
f 1285 1284 1412
f 1378 1506 1507
f 1311 1439 1440
f 1405 1533 1534
f 1338 1466 1467
f 1365 1493 1494
f 1299 1298 1426
f 1393 1392 1520
f 1326 1325 1453
f 1352 1480 1481
f 1285 1413 1414
f 1380 1379 1507
f 1313 1312 1440
f 1480 1479 1607
f 1413 1412 1540
f 1506 1634 1635
f 1439 1567 1568
f 1533 1661 1662
f 1466 1594 1595
f 1493 1621 1622
f 1427 1426 1554
f 1521 1520 1648
f 1454 1453 1581
f 1480 1608 1609
f 1413 1541 1542
f 1508 1507 1635
f 1441 1440 1568
f 1535 1534 1662
f 1468 1467 1595
f 1494 1622 1623
f 1428 1427 1555
f 1521 1649 1650
f 1455 1454 1582
f 1482 1481 1609
f 1415 1414 1542
f 1508 1636 1637
f 1441 1569 1570
f 1535 1663 1664
f 1469 1468 1596
f 1496 1495 1623
f 1428 1556 1557
f 1523 1522 1650
f 1455 1583 1584
f 1483 1482 1610
f 1415 1543 1544
f 1510 1509 1637
f 1443 1442 1570
f 1409 1536 1664
f 1469 1597 1598
f 1496 1624 1625
f 1430 1429 1557
f 1523 1651 1652
f 1456 1584 1585
f 1483 1611 1612
f 1416 1544 1545
f 1510 1638 1639
f 1443 1571 1572
f 1471 1470 1598
f 1498 1497 1625
f 1430 1558 1559
f 1525 1524 1652
f 1458 1457 1585
f 1485 1484 1612
f 1418 1417 1545
f 1512 1511 1639
f 1444 1572 1573
f 1471 1599 1600
f 1499 1498 1626
f 1431 1559 1560
f 1526 1525 1653
f 1458 1586 1587
f 1485 1613 1614
f 1418 1546 1547
f 1512 1640 1641
f 1446 1445 1573
f 1472 1600 1601
f 1433 1432 1560
f 1499 1627 1628
f 1527 1526 1654
f 1460 1459 1587
f 1486 1614 1615
f 1419 1547 1548
f 1514 1513 1641
f 1446 1574 1575
f 1474 1473 1601
f 1500 1628 1629
f 1434 1433 1561
f 1527 1655 1656
f 1460 1588 1589
f 1487 1615 1616
f 1421 1420 1548
f 1447 1575 1576
f 1514 1642 1643
f 1475 1474 1602
f 1502 1501 1629
f 1434 1562 1563
f 1529 1528 1656
f 1461 1589 1590
f 1489 1488 1616
f 1421 1549 1550
f 1515 1643 1644
f 1449 1448 1576
f 1476 1475 1603
f 1502 1630 1631
f 1435 1563 1564
f 1529 1657 1658
f 1462 1590 1591
f 1490 1489 1617
f 1422 1550 1551
f 1517 1516 1644
f 1450 1449 1577
f 1476 1604 1605
f 1409 1537 1538
f 1504 1503 1631
f 1437 1436 1564
f 1531 1530 1658
f 1464 1463 1591
f 1490 1618 1619
f 1424 1423 1551
f 1517 1645 1646
f 1451 1450 1578
f 1411 1410 1538
f 1478 1477 1605
f 1505 1504 1632
f 1438 1437 1565
f 1531 1659 1660
f 1464 1592 1593
f 1492 1491 1619
f 1425 1424 1552
f 1518 1646 1647
f 1451 1579 1580
f 1478 1606 1607
f 1411 1539 1540
f 1505 1633 1634
f 1439 1438 1566
f 1533 1532 1660
f 1466 1465 1593
f 1492 1620 1621
f 1426 1425 1553
f 1520 1519 1647
f 1452 1580 1581
f 322 194 321
f 221 220 349
f 282 154 281
f 248 247 376
f 181 180 309
f 208 207 336
f 269 141 268
f 235 234 363
f 168 167 296
f 323 195 322
f 350 222 349
f 155 154 283
f 377 249 376
f 310 182 309
f 337 209 336
f 142 141 270
f 236 235 364
f 297 169 296
f 196 195 324
f 223 222 351
f 156 155 284
f 378 250 377
f 183 182 311
f 338 210 337
f 143 142 271
f 365 237 364
f 170 169 298
f 197 196 325
f 130 129 258
f 224 223 352
f 285 157 284
f 379 251 378
f 312 184 311
f 211 210 339
f 272 144 271
f 238 237 366
f 299 171 298
f 326 198 325
f 259 131 258
f 353 225 352
f 286 158 285
f 252 251 380
f 313 185 312
f 340 212 339
f 273 145 272
f 239 238 367
f 172 171 300
f 199 198 327
f 132 131 260
f 226 225 354
f 287 159 286
f 381 253 380
f 314 186 313
f 213 212 341
f 274 146 273
f 240 239 368
f 173 172 301
f 328 200 327
f 261 133 260
f 160 159 288
f 355 227 354
f 382 254 381
f 187 186 315
f 214 213 342
f 275 147 274
f 369 241 368
f 302 174 301
f 201 200 329
f 134 133 262
f 228 227 356
f 161 160 289
f 383 255 382
f 188 187 316
f 215 214 343
f 276 148 275
f 242 241 370
f 303 175 302
f 202 201 330
f 263 135 262
f 229 228 357
f 290 162 289
f 256 255 384
f 317 189 316
f 344 216 343
f 149 148 277
f 371 243 370
f 304 176 303
f 203 202 331
f 136 135 264
f 358 230 357
f 291 163 290
f 257 129 384
f 190 189 318
f 217 216 345
f 278 150 277
f 244 243 372
f 177 176 305
f 204 203 332
f 137 136 265
f 231 230 359
f 164 163 292
f 319 191 318
f 346 218 345
f 151 150 279
f 373 245 372
f 306 178 305
f 266 138 265
f 333 205 332
f 360 232 359
f 165 164 293
f 192 191 320
f 219 218 347
f 152 151 280
f 374 246 373
f 179 178 307
f 206 205 334
f 267 139 266
f 233 232 361
f 294 166 293
f 193 192 321
f 220 219 348
f 281 153 280
f 375 247 374
f 308 180 307
f 207 206 335
f 140 139 268
f 362 234 361
f 167 166 295
f 334 333 462
f 267 266 395
f 361 360 489
f 422 294 421
f 321 320 449
f 348 347 476
f 409 281 408
f 503 375 502
f 436 308 435
f 335 334 463
f 268 267 396
f 490 362 489
f 295 294 423
f 450 322 449
f 349 348 477
f 410 282 409
f 376 375 504
f 309 308 437
f 397 269 396
f 336 335 464
f 363 362 491
f 296 295 424
f 451 323 450
f 478 350 477
f 283 282 411
f 505 377 504
f 438 310 437
f 465 337 464
f 270 269 398
f 364 363 492
f 425 297 424
f 324 323 452
f 351 350 479
f 284 283 412
f 506 378 505
f 311 310 439
f 466 338 465
f 271 270 399
f 493 365 492
f 298 297 426
f 325 324 453
f 258 257 386
f 480 352 479
f 413 285 412
f 507 379 506
f 440 312 439
f 339 338 467
f 272 271 400
f 366 365 494
f 427 299 426
f 454 326 453
f 387 259 386
f 481 353 480
f 414 286 413
f 380 379 508
f 441 313 440
f 468 340 467
f 401 273 400
f 367 366 495
f 300 299 428
f 327 326 455
f 260 259 388
f 354 353 482
f 415 287 414
f 509 381 508
f 442 314 441
f 341 340 469
f 402 274 401
f 368 367 496
f 301 300 429
f 456 328 455
f 389 261 388
f 483 355 482
f 288 287 416
f 510 382 509
f 315 314 443
f 342 341 470
f 403 275 402
f 497 369 496
f 430 302 429
f 329 328 457
f 262 261 390
f 484 356 483
f 289 288 417
f 511 383 510
f 316 315 444
f 343 342 471
f 404 276 403
f 370 369 498
f 431 303 430
f 330 329 458
f 391 263 390
f 357 356 485
f 418 290 417
f 384 383 512
f 445 317 444
f 472 344 471
f 277 276 405
f 499 371 498
f 432 304 431
f 331 330 459
f 264 263 392
f 419 291 418
f 486 358 485
f 385 257 512
f 318 317 446
f 345 344 473
f 406 278 405
f 372 371 500
f 305 304 433
f 332 331 460
f 265 264 393
f 359 358 487
f 292 291 420
f 447 319 446
f 474 346 473
f 279 278 407
f 501 373 500
f 434 306 433
f 461 333 460
f 394 266 393
f 488 360 487
f 293 292 421
f 320 319 448
f 475 347 474
f 280 279 408
f 502 374 501
f 307 306 435
f 602 474 601
f 407 406 535
f 629 501 628
f 562 434 561
f 589 461 588
f 522 394 521
f 616 488 615
f 421 420 549
f 448 447 576
f 603 475 602
f 408 407 536
f 630 502 629
f 435 434 563
f 462 461 590
f 395 394 523
f 550 422 549
f 489 488 617
f 449 448 577
f 476 475 604
f 537 409 536
f 631 503 630
f 564 436 563
f 463 462 591
f 396 395 524
f 618 490 617
f 423 422 551
f 578 450 577
f 477 476 605
f 538 410 537
f 504 503 632
f 437 436 565
f 464 463 592
f 525 397 524
f 491 490 619
f 424 423 552
f 579 451 578
f 606 478 605
f 411 410 539
f 633 505 632
f 566 438 565
f 593 465 592
f 398 397 526
f 492 491 620
f 553 425 552
f 452 451 580
f 479 478 607
f 412 411 540
f 634 506 633
f 439 438 567
f 594 466 593
f 399 398 527
f 621 493 620
f 426 425 554
f 453 452 581
f 386 385 514
f 608 480 607
f 541 413 540
f 635 507 634
f 568 440 567
f 400 399 528
f 467 466 595
f 494 493 622
f 555 427 554
f 582 454 581
f 515 387 514
f 609 481 608
f 542 414 541
f 508 507 636
f 569 441 568
f 596 468 595
f 529 401 528
f 495 494 623
f 428 427 556
f 455 454 583
f 388 387 516
f 482 481 610
f 415 414 543
f 637 509 636
f 570 442 569
f 469 468 597
f 530 402 529
f 496 495 624
f 429 428 557
f 584 456 583
f 517 389 516
f 611 483 610
f 416 415 544
f 510 509 638
f 443 442 571
f 470 469 598
f 531 403 530
f 625 497 624
f 558 430 557
f 457 456 585
f 390 389 518
f 612 484 611
f 417 416 545
f 639 511 638
f 444 443 572
f 471 470 599
f 532 404 531
f 498 497 626
f 559 431 558
f 458 457 586
f 519 391 518
f 485 484 613
f 546 418 545
f 512 511 640
f 573 445 572
f 600 472 599
f 405 404 533
f 627 499 626
f 432 431 560
f 587 459 586
f 392 391 520
f 614 486 613
f 547 419 546
f 513 385 640
f 446 445 574
f 473 472 601
f 534 406 533
f 500 499 628
f 433 432 561
f 460 459 588
f 393 392 521
f 487 486 615
f 548 420 547
f 575 447 574
f 742 614 741
f 675 547 674
f 641 513 768
f 574 573 702
f 601 600 729
f 662 534 661
f 628 627 756
f 561 560 689
f 588 587 716
f 521 520 649
f 615 614 743
f 548 547 676
f 703 575 702
f 730 602 729
f 535 534 663
f 757 629 756
f 690 562 689
f 717 589 716
f 650 522 649
f 744 616 743
f 549 548 677
f 576 575 704
f 731 603 730
f 664 536 663
f 758 630 757
f 563 562 691
f 590 589 718
f 651 523 650
f 617 616 745
f 678 550 677
f 577 576 705
f 604 603 732
f 665 537 664
f 759 631 758
f 692 564 691
f 591 590 719
f 524 523 652
f 746 618 745
f 551 550 679
f 706 578 705
f 605 604 733
f 666 538 665
f 632 631 760
f 565 564 693
f 592 591 720
f 653 525 652
f 619 618 747
f 552 551 680
f 707 579 706
f 734 606 733
f 539 538 667
f 761 633 760
f 694 566 693
f 721 593 720
f 526 525 654
f 681 553 680
f 620 619 748
f 580 579 708
f 607 606 735
f 540 539 668
f 634 633 762
f 567 566 695
f 722 594 721
f 527 526 655
f 749 621 748
f 554 553 682
f 581 580 709
f 514 513 642
f 736 608 735
f 669 541 668
f 763 635 762
f 568 567 696
f 595 594 723
f 528 527 656
f 622 621 750
f 683 555 682
f 710 582 709
f 643 515 642
f 737 609 736
f 670 542 669
f 636 635 764
f 697 569 696
f 724 596 723
f 657 529 656
f 623 622 751
f 556 555 684
f 516 515 644
f 583 582 711
f 610 609 738
f 671 543 670
f 765 637 764
f 698 570 697
f 597 596 725
f 658 530 657
f 624 623 752
f 557 556 685
f 712 584 711
f 645 517 644
f 611 610 739
f 544 543 672
f 638 637 766
f 571 570 699
f 659 531 658
f 598 597 726
f 753 625 752
f 686 558 685
f 585 584 713
f 518 517 646
f 740 612 739
f 673 545 672
f 767 639 766
f 572 571 700
f 599 598 727
f 660 532 659
f 626 625 754
f 687 559 686
f 586 585 714
f 647 519 646
f 613 612 741
f 546 545 674
f 640 639 768
f 701 573 700
f 728 600 727
f 533 532 661
f 755 627 754
f 560 559 688
f 715 587 714
f 520 519 648
f 754 753 882
f 815 687 814
f 775 647 774
f 714 713 842
f 741 740 869
f 674 673 802
f 768 767 896
f 829 701 828
f 856 728 855
f 661 660 789
f 883 755 882
f 816 688 815
f 843 715 842
f 648 647 776
f 870 742 869
f 803 675 802
f 769 641 896
f 702 701 830
f 790 662 789
f 729 728 857
f 756 755 884
f 689 688 817
f 716 715 844
f 649 648 777
f 743 742 871
f 676 675 804
f 831 703 830
f 858 730 857
f 663 662 791
f 885 757 884
f 818 690 817
f 845 717 844
f 778 650 777
f 872 744 871
f 677 676 805
f 704 703 832
f 859 731 858
f 664 663 792
f 886 758 885
f 691 690 819
f 718 717 846
f 779 651 778
f 745 744 873
f 806 678 805
f 705 704 833
f 732 731 860
f 793 665 792
f 887 759 886
f 820 692 819
f 719 718 847
f 652 651 780
f 874 746 873
f 679 678 807
f 834 706 833
f 733 732 861
f 794 666 793
f 760 759 888
f 693 692 821
f 720 719 848
f 781 653 780
f 747 746 875
f 680 679 808
f 835 707 834
f 862 734 861
f 667 666 795
f 889 761 888
f 822 694 821
f 849 721 848
f 654 653 782
f 748 747 876
f 809 681 808
f 708 707 836
f 735 734 863
f 668 667 796
f 762 761 890
f 695 694 823
f 850 722 849
f 655 654 783
f 877 749 876
f 682 681 810
f 709 708 837
f 642 641 770
f 864 736 863
f 797 669 796
f 891 763 890
f 696 695 824
f 723 722 851
f 656 655 784
f 750 749 878
f 811 683 810
f 838 710 837
f 771 643 770
f 865 737 864
f 798 670 797
f 764 763 892
f 825 697 824
f 852 724 851
f 785 657 784
f 684 683 812
f 751 750 879
f 711 710 839
f 644 643 772
f 738 737 866
f 799 671 798
f 893 765 892
f 698 697 826
f 725 724 853
f 786 658 785
f 752 751 880
f 685 684 813
f 840 712 839
f 773 645 772
f 739 738 867
f 672 671 800
f 766 765 894
f 699 698 827
f 726 725 854
f 787 659 786
f 881 753 880
f 814 686 813
f 713 712 841
f 646 645 774
f 868 740 867
f 801 673 800
f 895 767 894
f 828 700 827
f 727 726 855
f 788 660 787
f 827 826 955
f 1002 874 1001
f 854 853 982
f 915 787 914
f 942 814 941
f 841 840 969
f 774 773 902
f 888 887 1016
f 996 868 995
f 929 801 928
f 956 828 955
f 855 854 983
f 916 788 915
f 875 874 1003
f 943 815 942
f 842 841 970
f 903 775 902
f 1017 889 1016
f 869 868 997
f 802 801 930
f 957 829 956
f 984 856 983
f 789 788 917
f 876 875 1004
f 944 816 943
f 971 843 970
f 776 775 904
f 890 889 1018
f 998 870 997
f 931 803 930
f 830 829 958
f 857 856 985
f 918 790 917
f 1005 877 1004
f 817 816 945
f 844 843 972
f 777 776 905
f 1019 891 1018
f 871 870 999
f 804 803 932
f 959 831 958
f 986 858 985
f 791 790 919
f 878 877 1006
f 946 818 945
f 906 778 905
f 973 845 972
f 892 891 1020
f 805 804 933
f 832 831 960
f 987 859 986
f 792 791 920
f 879 878 1007
f 819 818 947
f 846 845 974
f 907 779 906
f 1021 893 1020
f 934 806 933
f 833 832 961
f 921 793 920
f 1008 880 1007
f 860 859 988
f 948 820 947
f 847 846 975
f 780 779 908
f 894 893 1022
f 807 806 935
f 962 834 961
f 1009 881 1008
f 861 860 989
f 922 794 921
f 821 820 949
f 848 847 976
f 909 781 908
f 1023 895 1022
f 808 807 936
f 963 835 962
f 882 881 1010
f 990 862 989
f 795 794 923
f 950 822 949
f 977 849 976
f 782 781 910
f 896 895 1024
f 937 809 936
f 836 835 964
f 1011 883 1010
f 863 862 991
f 796 795 924
f 823 822 951
f 978 850 977
f 783 782 911
f 897 769 1024
f 810 809 938
f 837 836 965
f 770 769 898
f 884 883 1012
f 992 864 991
f 925 797 924
f 952 824 951
f 851 850 979
f 784 783 912
f 939 811 938
f 966 838 965
f 899 771 898
f 1013 885 1012
f 993 865 992
f 926 798 925
f 953 825 952
f 980 852 979
f 913 785 912
f 1000 872 999
f 812 811 940
f 839 838 967
f 772 771 900
f 1014 886 1013
f 866 865 994
f 927 799 926
f 826 825 954
f 873 872 1001
f 853 852 981
f 914 786 913
f 813 812 941
f 968 840 967
f 901 773 900
f 1015 887 1014
f 867 866 995
f 800 799 928
f 1115 987 1114
f 920 919 1048
f 1142 1014 1141
f 947 946 1075
f 974 973 1102
f 1035 907 1034
f 1001 1000 1129
f 1062 934 1061
f 961 960 1089
f 988 987 1116
f 1049 921 1048
f 1143 1015 1142
f 1076 948 1075
f 975 974 1103
f 908 907 1036
f 1130 1002 1129
f 935 934 1063
f 1090 962 1089
f 989 988 1117
f 1050 922 1049
f 1016 1015 1144
f 949 948 1077
f 1037 909 1036
f 976 975 1104
f 1003 1002 1131
f 936 935 1064
f 1091 963 1090
f 1118 990 1117
f 923 922 1051
f 1145 1017 1144
f 1078 950 1077
f 1105 977 1104
f 910 909 1038
f 1004 1003 1132
f 1065 937 1064
f 964 963 1092
f 924 923 1052
f 991 990 1119
f 1018 1017 1146
f 951 950 1079
f 1106 978 1105
f 911 910 1039
f 1133 1005 1132
f 938 937 1066
f 965 964 1093
f 898 897 1026
f 1120 992 1119
f 1053 925 1052
f 1147 1019 1146
f 1080 952 1079
f 979 978 1107
f 912 911 1040
f 1006 1005 1134
f 1067 939 1066
f 1094 966 1093
f 1027 899 1026
f 1121 993 1120
f 1054 926 1053
f 1020 1019 1148
f 1081 953 1080
f 1108 980 1107
f 1041 913 1040
f 1007 1006 1135
f 940 939 1068
f 967 966 1095
f 900 899 1028
f 994 993 1122
f 1055 927 1054
f 1149 1021 1148
f 954 953 1082
f 981 980 1109
f 1042 914 1041
f 1136 1008 1135
f 941 940 1069
f 1096 968 1095
f 1029 901 1028
f 995 994 1123
f 928 927 1056
f 1022 1021 1150
f 955 954 1083
f 982 981 1110
f 1043 915 1042
f 1137 1009 1136
f 1070 942 1069
f 969 968 1097
f 902 901 1030
f 1124 996 1123
f 1057 929 1056
f 1151 1023 1150
f 1084 956 1083
f 983 982 1111
f 1044 916 1043
f 1010 1009 1138
f 1071 943 1070
f 970 969 1098
f 1031 903 1030
f 997 996 1125
f 930 929 1058
f 1024 1023 1152
f 1085 957 1084
f 1112 984 1111
f 917 916 1045
f 1139 1011 1138
f 944 943 1072
f 1099 971 1098
f 904 903 1032
f 1126 998 1125
f 1059 931 1058
f 1025 897 1152
f 958 957 1086
f 985 984 1113
f 1046 918 1045
f 1012 1011 1140
f 945 944 1073
f 972 971 1100
f 905 904 1033
f 999 998 1127
f 932 931 1060
f 1087 959 1086
f 1114 986 1113
f 919 918 1047
f 1141 1013 1140
f 1074 946 1073
f 1101 973 1100
f 1034 906 1033
f 1128 1000 1127
f 933 932 1061
f 960 959 1088
f 1127 1126 1255
f 1060 1059 1188
f 1215 1087 1214
f 1242 1114 1241
f 1047 1046 1175
f 1269 1141 1268
f 1202 1074 1201
f 1229 1101 1228
f 1162 1034 1161
f 1256 1128 1255
f 1061 1060 1189
f 1216 1088 1215
f 1243 1115 1242
f 1048 1047 1176
f 1270 1142 1269
f 1075 1074 1203
f 1102 1101 1230
f 1163 1035 1162
f 1129 1128 1257
f 1190 1062 1189
f 1089 1088 1217
f 1116 1115 1244
f 1177 1049 1176
f 1271 1143 1270
f 1204 1076 1203
f 1103 1102 1231
f 1036 1035 1164
f 1258 1130 1257
f 1063 1062 1191
f 1218 1090 1217
f 1117 1116 1245
f 1178 1050 1177
f 1144 1143 1272
f 1077 1076 1205
f 1104 1103 1232
f 1165 1037 1164
f 1131 1130 1259
f 1064 1063 1192
f 1219 1091 1218
f 1246 1118 1245
f 1051 1050 1179
f 1273 1145 1272
f 1206 1078 1205
f 1233 1105 1232
f 1038 1037 1166
f 1132 1131 1260
f 1193 1065 1192
f 1220 1092 1219
f 1119 1118 1247
f 1052 1051 1180
f 1146 1145 1274
f 1079 1078 1207
f 1234 1106 1233
f 1039 1038 1167
f 1261 1133 1260
f 1194 1066 1193
f 1093 1092 1221
f 1026 1025 1154
f 1248 1120 1247
f 1181 1053 1180
f 1275 1147 1274
f 1208 1080 1207
f 1040 1039 1168
f 1107 1106 1235
f 1134 1133 1262
f 1195 1067 1194
f 1222 1094 1221
f 1155 1027 1154
f 1249 1121 1248
f 1182 1054 1181
f 1148 1147 1276
f 1209 1081 1208
f 1236 1108 1235
f 1169 1041 1168
f 1135 1134 1263
f 1068 1067 1196
f 1095 1094 1223
f 1028 1027 1156
f 1183 1055 1182
f 1122 1121 1250
f 1277 1149 1276
f 1082 1081 1210
f 1109 1108 1237
f 1170 1042 1169
f 1264 1136 1263
f 1069 1068 1197
f 1224 1096 1223
f 1157 1029 1156
f 1123 1122 1251
f 1056 1055 1184
f 1150 1149 1278
f 1083 1082 1211
f 1110 1109 1238
f 1171 1043 1170
f 1265 1137 1264
f 1198 1070 1197
f 1097 1096 1225
f 1030 1029 1158
f 1252 1124 1251
f 1185 1057 1184
f 1279 1151 1278
f 1212 1084 1211
f 1111 1110 1239
f 1172 1044 1171
f 1138 1137 1266
f 1199 1071 1198
f 1098 1097 1226
f 1159 1031 1158
f 1125 1124 1253
f 1058 1057 1186
f 1152 1151 1280
f 1213 1085 1212
f 1240 1112 1239
f 1045 1044 1173
f 1267 1139 1266
f 1200 1072 1199
f 1227 1099 1226
f 1032 1031 1160
f 1254 1126 1253
f 1187 1059 1186
f 1153 1025 1280
f 1086 1085 1214
f 1113 1112 1241
f 1174 1046 1173
f 1140 1139 1268
f 1073 1072 1201
f 1100 1099 1228
f 1033 1032 1161
f 1395 1267 1394
f 1328 1200 1327
f 1355 1227 1354
f 1160 1159 1288
f 1382 1254 1381
f 1315 1187 1314
f 1281 1153 1408
f 1214 1213 1342
f 1241 1240 1369
f 1302 1174 1301
f 1268 1267 1396
f 1201 1200 1329
f 1228 1227 1356
f 1161 1160 1289
f 1255 1254 1383
f 1188 1187 1316
f 1343 1215 1342
f 1370 1242 1369
f 1175 1174 1303
f 1397 1269 1396
f 1330 1202 1329
f 1357 1229 1356
f 1290 1162 1289
f 1384 1256 1383
f 1189 1188 1317
f 1344 1216 1343
f 1371 1243 1370
f 1176 1175 1304
f 1398 1270 1397
f 1203 1202 1331
f 1230 1229 1358
f 1163 1162 1291
f 1257 1256 1385
f 1318 1190 1317
f 1217 1216 1345
f 1244 1243 1372
f 1305 1177 1304
f 1399 1271 1398
f 1332 1204 1331
f 1231 1230 1359
f 1164 1163 1292
f 1386 1258 1385
f 1191 1190 1319
f 1346 1218 1345
f 1245 1244 1373
f 1306 1178 1305
f 1272 1271 1400
f 1205 1204 1333
f 1232 1231 1360
f 1293 1165 1292
f 1259 1258 1387
f 1192 1191 1320
f 1347 1219 1346
f 1374 1246 1373
f 1179 1178 1307
f 1401 1273 1400
f 1334 1206 1333
f 1361 1233 1360
f 1166 1165 1294
f 1260 1259 1388
f 1321 1193 1320
f 1348 1220 1347
f 1247 1246 1375
f 1180 1179 1308
f 1274 1273 1402
f 1207 1206 1335
f 1362 1234 1361
f 1167 1166 1295
f 1389 1261 1388
f 1322 1194 1321
f 1221 1220 1349
f 1154 1153 1282
f 1376 1248 1375
f 1309 1181 1308
f 1403 1275 1402
f 1336 1208 1335
f 1235 1234 1363
f 1168 1167 1296
f 1262 1261 1390
f 1323 1195 1322
f 1350 1222 1349
f 1283 1155 1282
f 1377 1249 1376
f 1310 1182 1309
f 1276 1275 1404
f 1209 1208 1337
f 1364 1236 1363
f 1297 1169 1296
f 1263 1262 1391
f 1196 1195 1324
f 1223 1222 1351
f 1156 1155 1284
f 1250 1249 1378
f 1311 1183 1310
f 1405 1277 1404
f 1338 1210 1337
f 1237 1236 1365
f 1298 1170 1297
f 1392 1264 1391
f 1197 1196 1325
f 1352 1224 1351
f 1285 1157 1284
f 1251 1250 1379
f 1184 1183 1312
f 1278 1277 1406
f 1211 1210 1339
f 1299 1171 1298
f 1238 1237 1366
f 1393 1265 1392
f 1326 1198 1325
f 1225 1224 1353
f 1158 1157 1286
f 1380 1252 1379
f 1313 1185 1312
f 1407 1279 1406
f 1340 1212 1339
f 1239 1238 1367
f 1300 1172 1299
f 1266 1265 1394
f 1327 1199 1326
f 1226 1225 1354
f 1287 1159 1286
f 1186 1185 1314
f 1253 1252 1381
f 1280 1279 1408
f 1213 1212 1341
f 1368 1240 1367
f 1173 1172 1301
f 1535 1407 1534
f 1468 1340 1467
f 1367 1366 1495
f 1428 1300 1427
f 1394 1393 1522
f 1455 1327 1454
f 1482 1354 1481
f 1415 1287 1414
f 1381 1380 1509
f 1314 1313 1442
f 1408 1407 1536
f 1341 1340 1469
f 1496 1368 1495
f 1301 1300 1429
f 1523 1395 1522
f 1328 1327 1456
f 1483 1355 1482
f 1288 1287 1416
f 1510 1382 1509
f 1443 1315 1442
f 1409 1281 1536
f 1342 1341 1470
f 1430 1302 1429
f 1369 1368 1497
f 1396 1395 1524
f 1329 1328 1457
f 1356 1355 1484
f 1289 1288 1417
f 1383 1382 1511
f 1316 1315 1444
f 1471 1343 1470
f 1498 1370 1497
f 1303 1302 1431
f 1525 1397 1524
f 1458 1330 1457
f 1485 1357 1484
f 1418 1290 1417
f 1317 1316 1445
f 1512 1384 1511
f 1472 1344 1471
f 1499 1371 1498
f 1304 1303 1432
f 1526 1398 1525
f 1331 1330 1459
f 1358 1357 1486
f 1291 1290 1419
f 1385 1384 1513
f 1446 1318 1445
f 1345 1344 1473
f 1372 1371 1500
f 1433 1305 1432
f 1527 1399 1526
f 1460 1332 1459
f 1359 1358 1487
f 1292 1291 1420
f 1514 1386 1513
f 1319 1318 1447
f 1474 1346 1473
f 1373 1372 1501
f 1434 1306 1433
f 1400 1399 1528
f 1333 1332 1461
f 1360 1359 1488
f 1421 1293 1420
f 1387 1386 1515
f 1320 1319 1448
f 1475 1347 1474
f 1502 1374 1501
f 1307 1306 1435
f 1529 1401 1528
f 1462 1334 1461
f 1489 1361 1488
f 1294 1293 1422
f 1388 1387 1516
f 1449 1321 1448
f 1476 1348 1475
f 1375 1374 1503
f 1308 1307 1436
f 1402 1401 1530
f 1335 1334 1463
f 1490 1362 1489
f 1295 1294 1423
f 1517 1389 1516
f 1450 1322 1449
f 1349 1348 1477
f 1282 1281 1410
f 1504 1376 1503
f 1437 1309 1436
f 1531 1403 1530
f 1464 1336 1463
f 1363 1362 1491
f 1296 1295 1424
f 1390 1389 1518
f 1451 1323 1450
f 1478 1350 1477
f 1411 1283 1410
f 1505 1377 1504
f 1438 1310 1437
f 1404 1403 1532
f 1337 1336 1465
f 1492 1364 1491
f 1425 1297 1424
f 1391 1390 1519
f 1324 1323 1452
f 1351 1350 1479
f 1284 1283 1412
f 1378 1377 1506
f 1439 1311 1438
f 1533 1405 1532
f 1466 1338 1465
f 1365 1364 1493
f 1426 1298 1425
f 1520 1392 1519
f 1325 1324 1453
f 1480 1352 1479
f 1413 1285 1412
f 1379 1378 1507
f 1312 1311 1440
f 1406 1405 1534
f 1339 1338 1467
f 1366 1365 1494
f 1427 1299 1426
f 1521 1393 1520
f 1454 1326 1453
f 1353 1352 1481
f 1286 1285 1414
f 1508 1380 1507
f 1441 1313 1440
f 1608 1480 1607
f 1541 1413 1540
f 1507 1506 1635
f 1440 1439 1568
f 1534 1533 1662
f 1467 1466 1595
f 1494 1493 1622
f 1555 1427 1554
f 1649 1521 1648
f 1582 1454 1581
f 1481 1480 1609
f 1414 1413 1542
f 1636 1508 1635
f 1569 1441 1568
f 1663 1535 1662
f 1596 1468 1595
f 1495 1494 1623
f 1556 1428 1555
f 1522 1521 1650
f 1583 1455 1582
f 1610 1482 1609
f 1543 1415 1542
f 1509 1508 1637
f 1442 1441 1570
f 1536 1535 1664
f 1597 1469 1596
f 1624 1496 1623
f 1429 1428 1557
f 1651 1523 1650
f 1456 1455 1584
f 1611 1483 1610
f 1416 1415 1544
f 1638 1510 1637
f 1571 1443 1570
f 1537 1409 1664
f 1470 1469 1598
f 1497 1496 1625
f 1558 1430 1557
f 1524 1523 1652
f 1457 1456 1585
f 1484 1483 1612
f 1417 1416 1545
f 1511 1510 1639
f 1444 1443 1572
f 1599 1471 1598
f 1626 1498 1625
f 1431 1430 1559
f 1653 1525 1652
f 1586 1458 1585
f 1613 1485 1612
f 1546 1418 1545
f 1640 1512 1639
f 1445 1444 1573
f 1472 1471 1600
f 1627 1499 1626
f 1432 1431 1560
f 1654 1526 1653
f 1459 1458 1587
f 1486 1485 1614
f 1419 1418 1547
f 1513 1512 1641
f 1574 1446 1573
f 1473 1472 1601
f 1561 1433 1560
f 1500 1499 1628
f 1655 1527 1654
f 1588 1460 1587
f 1487 1486 1615
f 1420 1419 1548
f 1642 1514 1641
f 1447 1446 1575
f 1602 1474 1601
f 1501 1500 1629
f 1562 1434 1561
f 1528 1527 1656
f 1461 1460 1589
f 1488 1487 1616
f 1549 1421 1548
f 1448 1447 1576
f 1515 1514 1643
f 1603 1475 1602
f 1630 1502 1629
f 1435 1434 1563
f 1657 1529 1656
f 1462 1461 1590
f 1617 1489 1616
f 1422 1421 1550
f 1516 1515 1644
f 1577 1449 1576
f 1604 1476 1603
f 1503 1502 1631
f 1436 1435 1564
f 1530 1529 1658
f 1463 1462 1591
f 1618 1490 1617
f 1423 1422 1551
f 1645 1517 1644
f 1578 1450 1577
f 1477 1476 1605
f 1410 1409 1538
f 1632 1504 1631
f 1565 1437 1564
f 1659 1531 1658
f 1592 1464 1591
f 1491 1490 1619
f 1552 1424 1551
f 1518 1517 1646
f 1579 1451 1578
f 1539 1411 1538
f 1606 1478 1605
f 1633 1505 1632
f 1566 1438 1565
f 1532 1531 1660
f 1465 1464 1593
f 1620 1492 1619
f 1553 1425 1552
f 1519 1518 1647
f 1452 1451 1580
f 1479 1478 1607
f 1412 1411 1540
f 1506 1505 1634
f 1567 1439 1566
f 1661 1533 1660
f 1594 1466 1593
f 1493 1492 1621
f 1554 1426 1553
f 1648 1520 1647
f 1453 1452 1581
